G04 #@! TF.FileFunction,Copper,L1,Top,Signal*
%FSLAX46Y46*%
G04 Gerber Fmt 4.6, Leading zero omitted, Abs format (unit mm)*
G04 Created by KiCad (PCBNEW 4.0.6) date 09/11/17 17:41:16*
%MOMM*%
%LPD*%
G01*
G04 APERTURE LIST*
%ADD10C,0.100000*%
%ADD11R,1.500000X1.250000*%
%ADD12R,1.250000X1.500000*%
%ADD13R,1.727200X1.727200*%
%ADD14O,1.727200X1.727200*%
%ADD15R,1.700000X2.000000*%
%ADD16R,1.700000X1.700000*%
%ADD17O,1.700000X1.700000*%
%ADD18R,1.300000X1.500000*%
%ADD19R,1.600000X0.550000*%
%ADD20R,0.550000X1.600000*%
%ADD21R,2.500000X3.200000*%
%ADD22R,3.500000X1.000000*%
%ADD23R,3.400000X1.500000*%
%ADD24R,2.000000X3.800000*%
%ADD25R,2.000000X1.500000*%
%ADD26C,0.600000*%
%ADD27C,0.250000*%
%ADD28C,0.750000*%
%ADD29C,0.375000*%
%ADD30C,1.500000*%
%ADD31C,0.254000*%
G04 APERTURE END LIST*
D10*
D11*
X160600000Y-100500000D03*
X163100000Y-100500000D03*
X160550000Y-98000000D03*
X163050000Y-98000000D03*
X160550000Y-103350000D03*
X163050000Y-103350000D03*
D12*
X181600000Y-98650000D03*
X181600000Y-96150000D03*
D13*
X193940000Y-104800000D03*
D14*
X191400000Y-104800000D03*
X193940000Y-102260000D03*
X191400000Y-102260000D03*
X193940000Y-99720000D03*
X191400000Y-99720000D03*
D15*
X173200000Y-88400000D03*
X173200000Y-84400000D03*
X178000000Y-88400000D03*
X178000000Y-84400000D03*
X166600000Y-88400000D03*
X166600000Y-84400000D03*
D16*
X155000000Y-77400000D03*
D17*
X155000000Y-79940000D03*
D16*
X155000000Y-85200000D03*
D17*
X155000000Y-87740000D03*
D18*
X173200000Y-78450000D03*
X173200000Y-81150000D03*
X178000000Y-78450000D03*
X178000000Y-81150000D03*
X166600000Y-78650000D03*
X166600000Y-81350000D03*
D19*
X169350000Y-94800000D03*
X169350000Y-95600000D03*
X169350000Y-96400000D03*
X169350000Y-97200000D03*
X169350000Y-98000000D03*
X169350000Y-98800000D03*
X169350000Y-99600000D03*
X169350000Y-100400000D03*
D20*
X170800000Y-101850000D03*
X171600000Y-101850000D03*
X172400000Y-101850000D03*
X173200000Y-101850000D03*
X174000000Y-101850000D03*
X174800000Y-101850000D03*
X175600000Y-101850000D03*
X176400000Y-101850000D03*
D19*
X177850000Y-100400000D03*
X177850000Y-99600000D03*
X177850000Y-98800000D03*
X177850000Y-98000000D03*
X177850000Y-97200000D03*
X177850000Y-96400000D03*
X177850000Y-95600000D03*
X177850000Y-94800000D03*
D20*
X176400000Y-93350000D03*
X175600000Y-93350000D03*
X174800000Y-93350000D03*
X174000000Y-93350000D03*
X173200000Y-93350000D03*
X172400000Y-93350000D03*
X171600000Y-93350000D03*
X170800000Y-93350000D03*
D16*
X155000000Y-96400000D03*
D17*
X155000000Y-98940000D03*
D16*
X167200000Y-108600000D03*
D17*
X169740000Y-108600000D03*
D16*
X175800000Y-108600000D03*
D17*
X178340000Y-108600000D03*
D12*
X184400000Y-88100000D03*
X184400000Y-90600000D03*
X181800000Y-88150000D03*
X181800000Y-90650000D03*
D21*
X184400000Y-82700000D03*
X184400000Y-78400000D03*
D22*
X189250000Y-81150000D03*
X189250000Y-79150000D03*
D23*
X195000000Y-83500000D03*
X195000000Y-76800000D03*
D24*
X195950000Y-89400000D03*
D25*
X189650000Y-89400000D03*
X189650000Y-91700000D03*
X189650000Y-87100000D03*
D26*
X182730000Y-96150000D03*
X181760000Y-92030000D03*
X186050000Y-94300000D03*
X184150000Y-94300000D03*
X172720000Y-90678000D03*
X167640000Y-90678000D03*
D27*
X167050000Y-102050000D02*
X167050000Y-100050000D01*
X167050000Y-100050000D02*
X168300000Y-98800000D01*
X168300000Y-98800000D02*
X169350000Y-98800000D01*
X164460000Y-104640000D02*
X167050000Y-102050000D01*
X160965000Y-104640000D02*
X164460000Y-104640000D01*
X160550000Y-103350000D02*
X160550000Y-104225000D01*
X160550000Y-104225000D02*
X160965000Y-104640000D01*
D28*
X195950000Y-89400000D02*
X195950000Y-106400000D01*
X195950000Y-106400000D02*
X195200000Y-107150000D01*
X195200000Y-107150000D02*
X192528686Y-107150000D01*
X192528686Y-107150000D02*
X191400000Y-106021314D01*
X191400000Y-106021314D02*
X191400000Y-104800000D01*
X187464998Y-93700000D02*
X192550000Y-93700000D01*
X192550000Y-93700000D02*
X195950000Y-90300000D01*
X195950000Y-90300000D02*
X195950000Y-89400000D01*
X186164998Y-92400000D02*
X185164998Y-93400000D01*
X189164998Y-89400000D02*
X186164998Y-92400000D01*
X186164998Y-92400000D02*
X187464998Y-93700000D01*
D27*
X160600000Y-100500000D02*
X160600000Y-103300000D01*
X160600000Y-103300000D02*
X160550000Y-103350000D01*
X160550000Y-98000000D02*
X160550000Y-100450000D01*
X160550000Y-100450000D02*
X160600000Y-100500000D01*
X165600000Y-97200000D02*
X165200000Y-96800000D01*
X165200000Y-96800000D02*
X161875000Y-96800000D01*
X161875000Y-96800000D02*
X160675000Y-98000000D01*
X160675000Y-98000000D02*
X160550000Y-98000000D01*
D29*
X169350000Y-97200000D02*
X165600000Y-97200000D01*
X173400000Y-99600000D02*
X172600000Y-98800000D01*
X172600000Y-98800000D02*
X169350000Y-98800000D01*
X177850000Y-99600000D02*
X173400000Y-99600000D01*
X177850000Y-99600000D02*
X180650000Y-99600000D01*
X180650000Y-99600000D02*
X181600000Y-98650000D01*
D28*
X181600000Y-98650000D02*
X182975000Y-98650000D01*
X182975000Y-98650000D02*
X185164998Y-96460002D01*
X185164998Y-96460002D02*
X185164998Y-93400000D01*
X189650000Y-89400000D02*
X189164998Y-89400000D01*
X179800000Y-92000000D02*
X179800000Y-88775000D01*
X185164998Y-93400000D02*
X181200000Y-93400000D01*
X180425000Y-88150000D02*
X181800000Y-88150000D01*
X181200000Y-93400000D02*
X179800000Y-92000000D01*
X179800000Y-88775000D02*
X180425000Y-88150000D01*
X173200000Y-78450000D02*
X166800000Y-78450000D01*
X166800000Y-78450000D02*
X166600000Y-78650000D01*
X178000000Y-78450000D02*
X173200000Y-78450000D01*
X181800000Y-88150000D02*
X181800000Y-80850000D01*
X181800000Y-80850000D02*
X179400000Y-78450000D01*
X179400000Y-78450000D02*
X178000000Y-78450000D01*
D27*
X169350000Y-96400000D02*
X171600000Y-96400000D01*
X171600000Y-96400000D02*
X171600000Y-98000000D01*
X171600000Y-98000000D02*
X175200000Y-98000000D01*
X181600000Y-96150000D02*
X182730000Y-96150000D01*
X181760000Y-91690000D02*
X181760000Y-92030000D01*
X181800000Y-90650000D02*
X181800000Y-91650000D01*
X181800000Y-91650000D02*
X181760000Y-91690000D01*
X180450000Y-96150000D02*
X181600000Y-96150000D01*
D30*
X198600000Y-82939998D02*
X198600000Y-105623846D01*
X198600000Y-105623846D02*
X195623846Y-108600000D01*
X195623846Y-108600000D02*
X179542081Y-108600000D01*
X179542081Y-108600000D02*
X178340000Y-108600000D01*
X189250000Y-79150000D02*
X194810002Y-79150000D01*
X194810002Y-79150000D02*
X198600000Y-82939998D01*
X189250000Y-79150000D02*
X185150000Y-79150000D01*
X185150000Y-79150000D02*
X184400000Y-78400000D01*
D27*
X163100000Y-100500000D02*
X163100000Y-103300000D01*
X163100000Y-103300000D02*
X163050000Y-103350000D01*
X163050000Y-98000000D02*
X163050000Y-100450000D01*
X163050000Y-100450000D02*
X163100000Y-100500000D01*
X171600000Y-98000000D02*
X169350000Y-98000000D01*
X175200000Y-98000000D02*
X176000000Y-97200000D01*
X176000000Y-97200000D02*
X177850000Y-97200000D01*
X179400000Y-97200000D02*
X180450000Y-96150000D01*
X163050000Y-98000000D02*
X169350000Y-98000000D01*
X177850000Y-97200000D02*
X179400000Y-97200000D01*
X176650000Y-103150000D02*
X188300000Y-103150000D01*
X176400000Y-101850000D02*
X176400000Y-102900000D01*
X176400000Y-102900000D02*
X176650000Y-103150000D01*
X190453099Y-100996901D02*
X192046901Y-100996901D01*
X188300000Y-103150000D02*
X190453099Y-100996901D01*
X192046901Y-100996901D02*
X192719944Y-101669944D01*
X192719944Y-101669944D02*
X192719944Y-104095748D01*
X192719944Y-104095748D02*
X193424196Y-104800000D01*
X193424196Y-104800000D02*
X193940000Y-104800000D01*
X193940000Y-102260000D02*
X193940000Y-101469815D01*
X178900000Y-100400000D02*
X177850000Y-100400000D01*
X193940000Y-101469815D02*
X192704524Y-100234339D01*
X192704524Y-100234339D02*
X192704524Y-99265394D01*
X192704524Y-99265394D02*
X191812389Y-98373259D01*
X191812389Y-98373259D02*
X188470566Y-98373259D01*
X188470566Y-98373259D02*
X186443825Y-100400000D01*
X186443825Y-100400000D02*
X178900000Y-100400000D01*
X175600000Y-101850000D02*
X175600000Y-102900000D01*
X175600000Y-102900000D02*
X176581973Y-103881973D01*
X176581973Y-103881973D02*
X189778027Y-103881973D01*
X189778027Y-103881973D02*
X191400000Y-102260000D01*
X186050000Y-94300000D02*
X188625581Y-96875581D01*
X188625581Y-96875581D02*
X191095581Y-96875581D01*
X191095581Y-96875581D02*
X193076401Y-98856401D01*
X193076401Y-98856401D02*
X193940000Y-99720000D01*
X180881185Y-94281185D02*
X184131185Y-94281185D01*
X184131185Y-94281185D02*
X184150000Y-94300000D01*
X173200000Y-93350000D02*
X173200000Y-92300000D01*
X173200000Y-92300000D02*
X173500000Y-92000000D01*
X173500000Y-92000000D02*
X178600000Y-92000000D01*
X178600000Y-92000000D02*
X180881185Y-94281185D01*
X173200000Y-88400000D02*
X172100000Y-88400000D01*
X165964998Y-80000000D02*
X163364998Y-77400000D01*
X172100000Y-88400000D02*
X171218964Y-87518964D01*
X171218964Y-87518964D02*
X171218964Y-83983962D01*
X171218964Y-83983962D02*
X167235002Y-80000000D01*
X167235002Y-80000000D02*
X165964998Y-80000000D01*
X163364998Y-77400000D02*
X162400000Y-77400000D01*
X155000000Y-77400000D02*
X162400000Y-77400000D01*
X162400000Y-77400000D02*
X163200000Y-77400000D01*
X171600000Y-93350000D02*
X171600000Y-90150000D01*
X171600000Y-90150000D02*
X173200000Y-88550000D01*
X173200000Y-88550000D02*
X173200000Y-88400000D01*
X173200000Y-81150000D02*
X173200000Y-84400000D01*
X172400000Y-93350000D02*
X172400000Y-90998000D01*
X172400000Y-90998000D02*
X172720000Y-90678000D01*
X172720000Y-90678000D02*
X175872000Y-90678000D01*
X175872000Y-90678000D02*
X178000000Y-88550000D01*
X178000000Y-88550000D02*
X178000000Y-88400000D01*
X165169237Y-90678000D02*
X167640000Y-90678000D01*
X155000000Y-85200000D02*
X159691237Y-85200000D01*
X159691237Y-85200000D02*
X165169237Y-90678000D01*
X178000000Y-81150000D02*
X178000000Y-84400000D01*
X155000000Y-79940000D02*
X156540000Y-79940000D01*
X156540000Y-79940000D02*
X165000000Y-88400000D01*
X165000000Y-88400000D02*
X166600000Y-88400000D01*
X166600000Y-88400000D02*
X166200000Y-88400000D01*
X166200000Y-88400000D02*
X167200000Y-88400000D01*
X167200000Y-88400000D02*
X170800000Y-91200000D01*
X170800000Y-91200000D02*
X170800000Y-93350000D01*
X166600000Y-81350000D02*
X166600000Y-84400000D01*
X155000000Y-96400000D02*
X156100000Y-96400000D01*
X156100000Y-96400000D02*
X156900000Y-95600000D01*
X156900000Y-95600000D02*
X158500000Y-95600000D01*
X158500000Y-95600000D02*
X165029400Y-95600000D01*
X165023800Y-95605600D02*
X165029400Y-95600000D01*
X165029400Y-95600000D02*
X166600000Y-95600000D01*
X166600000Y-95600000D02*
X169350000Y-95600000D01*
X166600000Y-95600000D02*
X166600000Y-95600000D01*
X155000000Y-98940000D02*
X156202081Y-98940000D01*
X170350000Y-101850000D02*
X170800000Y-101850000D01*
X156202081Y-98940000D02*
X156400000Y-99137919D01*
X156400000Y-99137919D02*
X156400000Y-105000000D01*
X156800000Y-105400000D02*
X166800000Y-105400000D01*
X156400000Y-105000000D02*
X156800000Y-105400000D01*
X166800000Y-105400000D02*
X170350000Y-101850000D01*
X171600000Y-101850000D02*
X171786655Y-102036655D01*
X167500000Y-107200000D02*
X167200000Y-107500000D01*
X171786655Y-102036655D02*
X171786655Y-105213345D01*
X169800000Y-107200000D02*
X167500000Y-107200000D01*
X171786655Y-105213345D02*
X169800000Y-107200000D01*
X167200000Y-107500000D02*
X167200000Y-108600000D01*
X169740000Y-108600000D02*
X169740000Y-108060000D01*
X169740000Y-108060000D02*
X172400000Y-105400000D01*
X172400000Y-105400000D02*
X172400000Y-101850000D01*
D30*
X192600000Y-85260002D02*
X192600000Y-91250000D01*
X192600000Y-91250000D02*
X192150000Y-91700000D01*
X192150000Y-91700000D02*
X189650000Y-91700000D01*
X190600000Y-81200000D02*
X190600000Y-83260002D01*
X190600000Y-83260002D02*
X192600000Y-85260002D01*
X189300000Y-81200000D02*
X190600000Y-81200000D01*
X189250000Y-81150000D02*
X189300000Y-81200000D01*
X184400000Y-82700000D02*
X184400000Y-88100000D01*
X189250000Y-81150000D02*
X185950000Y-81150000D01*
X185950000Y-81150000D02*
X184400000Y-82700000D01*
D31*
G36*
X199690000Y-110490000D02*
X151510000Y-110490000D01*
X151510000Y-88096890D01*
X153558524Y-88096890D01*
X153728355Y-88506924D01*
X154118642Y-88935183D01*
X154643108Y-89181486D01*
X154873000Y-89060819D01*
X154873000Y-87867000D01*
X155127000Y-87867000D01*
X155127000Y-89060819D01*
X155356892Y-89181486D01*
X155881358Y-88935183D01*
X156271645Y-88506924D01*
X156441476Y-88096890D01*
X156320155Y-87867000D01*
X155127000Y-87867000D01*
X154873000Y-87867000D01*
X153679845Y-87867000D01*
X153558524Y-88096890D01*
X151510000Y-88096890D01*
X151510000Y-79940000D01*
X153485907Y-79940000D01*
X153598946Y-80508285D01*
X153920853Y-80990054D01*
X154402622Y-81311961D01*
X154970907Y-81425000D01*
X155029093Y-81425000D01*
X155597378Y-81311961D01*
X156079147Y-80990054D01*
X156253826Y-80728628D01*
X160105557Y-84580359D01*
X159982076Y-84497852D01*
X159691237Y-84440000D01*
X156497440Y-84440000D01*
X156497440Y-84350000D01*
X156453162Y-84114683D01*
X156314090Y-83898559D01*
X156101890Y-83753569D01*
X155850000Y-83702560D01*
X154150000Y-83702560D01*
X153914683Y-83746838D01*
X153698559Y-83885910D01*
X153553569Y-84098110D01*
X153502560Y-84350000D01*
X153502560Y-86050000D01*
X153546838Y-86285317D01*
X153685910Y-86501441D01*
X153898110Y-86646431D01*
X154006107Y-86668301D01*
X153728355Y-86973076D01*
X153558524Y-87383110D01*
X153679845Y-87613000D01*
X154873000Y-87613000D01*
X154873000Y-87593000D01*
X155127000Y-87593000D01*
X155127000Y-87613000D01*
X156320155Y-87613000D01*
X156441476Y-87383110D01*
X156271645Y-86973076D01*
X155995499Y-86670063D01*
X156085317Y-86653162D01*
X156301441Y-86514090D01*
X156446431Y-86301890D01*
X156497440Y-86050000D01*
X156497440Y-85960000D01*
X159376435Y-85960000D01*
X164631836Y-91215401D01*
X164878398Y-91380148D01*
X165169237Y-91438000D01*
X167077537Y-91438000D01*
X167109673Y-91470192D01*
X167453201Y-91612838D01*
X167825167Y-91613162D01*
X168168943Y-91471117D01*
X168432192Y-91208327D01*
X168574838Y-90864799D01*
X168575162Y-90492833D01*
X168538358Y-90403760D01*
X170040000Y-91571704D01*
X170040000Y-92135025D01*
X169928569Y-92298110D01*
X169877560Y-92550000D01*
X169877560Y-93877560D01*
X168550000Y-93877560D01*
X168314683Y-93921838D01*
X168098559Y-94060910D01*
X167953569Y-94273110D01*
X167902560Y-94525000D01*
X167902560Y-94840000D01*
X156900000Y-94840000D01*
X156609161Y-94897852D01*
X156362599Y-95062599D01*
X156319003Y-95106195D01*
X156314090Y-95098559D01*
X156101890Y-94953569D01*
X155850000Y-94902560D01*
X154150000Y-94902560D01*
X153914683Y-94946838D01*
X153698559Y-95085910D01*
X153553569Y-95298110D01*
X153502560Y-95550000D01*
X153502560Y-97250000D01*
X153546838Y-97485317D01*
X153685910Y-97701441D01*
X153898110Y-97846431D01*
X153965541Y-97860086D01*
X153920853Y-97889946D01*
X153598946Y-98371715D01*
X153485907Y-98940000D01*
X153598946Y-99508285D01*
X153920853Y-99990054D01*
X154402622Y-100311961D01*
X154970907Y-100425000D01*
X155029093Y-100425000D01*
X155597378Y-100311961D01*
X155640000Y-100283482D01*
X155640000Y-105000000D01*
X155697852Y-105290839D01*
X155862599Y-105537401D01*
X156262599Y-105937401D01*
X156509160Y-106102148D01*
X156557414Y-106111746D01*
X156800000Y-106160000D01*
X166800000Y-106160000D01*
X167090839Y-106102148D01*
X167337401Y-105937401D01*
X170127715Y-103147087D01*
X170273110Y-103246431D01*
X170525000Y-103297440D01*
X171026655Y-103297440D01*
X171026655Y-104898543D01*
X169485198Y-106440000D01*
X167500000Y-106440000D01*
X167209161Y-106497852D01*
X166962599Y-106662599D01*
X166662599Y-106962599D01*
X166569080Y-107102560D01*
X166350000Y-107102560D01*
X166114683Y-107146838D01*
X165898559Y-107285910D01*
X165753569Y-107498110D01*
X165702560Y-107750000D01*
X165702560Y-109450000D01*
X165746838Y-109685317D01*
X165885910Y-109901441D01*
X166098110Y-110046431D01*
X166350000Y-110097440D01*
X168050000Y-110097440D01*
X168285317Y-110053162D01*
X168501441Y-109914090D01*
X168646431Y-109701890D01*
X168660086Y-109634459D01*
X168689946Y-109679147D01*
X169171715Y-110001054D01*
X169740000Y-110114093D01*
X170308285Y-110001054D01*
X170790054Y-109679147D01*
X171111961Y-109197378D01*
X171173947Y-108885750D01*
X174315000Y-108885750D01*
X174315000Y-109576309D01*
X174411673Y-109809698D01*
X174590301Y-109988327D01*
X174823690Y-110085000D01*
X175514250Y-110085000D01*
X175673000Y-109926250D01*
X175673000Y-108727000D01*
X175927000Y-108727000D01*
X175927000Y-109926250D01*
X176085750Y-110085000D01*
X176776310Y-110085000D01*
X177009699Y-109988327D01*
X177188327Y-109809698D01*
X177275136Y-109600122D01*
X177573076Y-109871645D01*
X177983110Y-110041476D01*
X178213000Y-109920155D01*
X178213000Y-108727000D01*
X178467000Y-108727000D01*
X178467000Y-109920155D01*
X178696890Y-110041476D01*
X179106924Y-109871645D01*
X179535183Y-109481358D01*
X179781486Y-108956892D01*
X179660819Y-108727000D01*
X178467000Y-108727000D01*
X178213000Y-108727000D01*
X175927000Y-108727000D01*
X175673000Y-108727000D01*
X174473750Y-108727000D01*
X174315000Y-108885750D01*
X171173947Y-108885750D01*
X171225000Y-108629093D01*
X171225000Y-108570907D01*
X171111961Y-108002622D01*
X171015918Y-107858884D01*
X171251111Y-107623691D01*
X174315000Y-107623691D01*
X174315000Y-108314250D01*
X174473750Y-108473000D01*
X175673000Y-108473000D01*
X175673000Y-107273750D01*
X175927000Y-107273750D01*
X175927000Y-108473000D01*
X178213000Y-108473000D01*
X178213000Y-107279845D01*
X178467000Y-107279845D01*
X178467000Y-108473000D01*
X179660819Y-108473000D01*
X179781486Y-108243108D01*
X179535183Y-107718642D01*
X179106924Y-107328355D01*
X178696890Y-107158524D01*
X178467000Y-107279845D01*
X178213000Y-107279845D01*
X177983110Y-107158524D01*
X177573076Y-107328355D01*
X177275136Y-107599878D01*
X177188327Y-107390302D01*
X177009699Y-107211673D01*
X176776310Y-107115000D01*
X176085750Y-107115000D01*
X175927000Y-107273750D01*
X175673000Y-107273750D01*
X175514250Y-107115000D01*
X174823690Y-107115000D01*
X174590301Y-107211673D01*
X174411673Y-107390302D01*
X174315000Y-107623691D01*
X171251111Y-107623691D01*
X172937401Y-105937401D01*
X173102148Y-105690839D01*
X173160000Y-105400000D01*
X173160000Y-103297440D01*
X173475000Y-103297440D01*
X173604589Y-103273056D01*
X173725000Y-103297440D01*
X174275000Y-103297440D01*
X174404589Y-103273056D01*
X174525000Y-103297440D01*
X174969080Y-103297440D01*
X175062599Y-103437401D01*
X176044572Y-104419374D01*
X176291134Y-104584121D01*
X176581973Y-104641973D01*
X189778027Y-104641973D01*
X189933131Y-104611121D01*
X189901400Y-104770641D01*
X189901400Y-104829359D01*
X190015474Y-105402848D01*
X190340330Y-105889029D01*
X190390000Y-105922217D01*
X190390000Y-106021314D01*
X190466882Y-106407824D01*
X190685822Y-106735492D01*
X191814508Y-107864178D01*
X192142176Y-108083118D01*
X192528686Y-108160000D01*
X195200000Y-108160000D01*
X195586510Y-108083118D01*
X195914178Y-107864178D01*
X196664178Y-107114178D01*
X196883118Y-106786510D01*
X196960000Y-106400000D01*
X196960000Y-91945558D01*
X197185317Y-91903162D01*
X197401441Y-91764090D01*
X197546431Y-91551890D01*
X197597440Y-91300000D01*
X197597440Y-87500000D01*
X197553162Y-87264683D01*
X197414090Y-87048559D01*
X197201890Y-86903569D01*
X196950000Y-86852560D01*
X194950000Y-86852560D01*
X194714683Y-86896838D01*
X194498559Y-87035910D01*
X194353569Y-87248110D01*
X194302560Y-87500000D01*
X194302560Y-90519084D01*
X193985000Y-90836644D01*
X193985000Y-85260002D01*
X193912882Y-84897440D01*
X196700000Y-84897440D01*
X196935317Y-84853162D01*
X197151441Y-84714090D01*
X197296431Y-84501890D01*
X197347440Y-84250000D01*
X197347440Y-82750000D01*
X197303162Y-82514683D01*
X197164090Y-82298559D01*
X196951890Y-82153569D01*
X196700000Y-82102560D01*
X193300000Y-82102560D01*
X193064683Y-82146838D01*
X192848559Y-82285910D01*
X192703569Y-82498110D01*
X192652560Y-82750000D01*
X192652560Y-83353876D01*
X191985000Y-82686316D01*
X191985000Y-81200000D01*
X191879573Y-80669983D01*
X191579343Y-80220657D01*
X191428295Y-80119730D01*
X191538327Y-80009698D01*
X191635000Y-79776309D01*
X191635000Y-79435750D01*
X191476250Y-79277000D01*
X189377000Y-79277000D01*
X189377000Y-79297000D01*
X189123000Y-79297000D01*
X189123000Y-79277000D01*
X187023750Y-79277000D01*
X186865000Y-79435750D01*
X186865000Y-79765000D01*
X186285000Y-79765000D01*
X186285000Y-78685750D01*
X186126250Y-78527000D01*
X184527000Y-78527000D01*
X184527000Y-78547000D01*
X184273000Y-78547000D01*
X184273000Y-78527000D01*
X182673750Y-78527000D01*
X182515000Y-78685750D01*
X182515000Y-80126309D01*
X182526708Y-80154574D01*
X182514178Y-80135822D01*
X180902047Y-78523691D01*
X186865000Y-78523691D01*
X186865000Y-78864250D01*
X187023750Y-79023000D01*
X189123000Y-79023000D01*
X189123000Y-78173750D01*
X189377000Y-78173750D01*
X189377000Y-79023000D01*
X191476250Y-79023000D01*
X191635000Y-78864250D01*
X191635000Y-78523691D01*
X191538327Y-78290302D01*
X191359699Y-78111673D01*
X191126310Y-78015000D01*
X189535750Y-78015000D01*
X189377000Y-78173750D01*
X189123000Y-78173750D01*
X188964250Y-78015000D01*
X187373690Y-78015000D01*
X187140301Y-78111673D01*
X186961673Y-78290302D01*
X186865000Y-78523691D01*
X180902047Y-78523691D01*
X180114178Y-77735822D01*
X179786510Y-77516882D01*
X179400000Y-77440000D01*
X179237279Y-77440000D01*
X179114090Y-77248559D01*
X178901890Y-77103569D01*
X178650000Y-77052560D01*
X177350000Y-77052560D01*
X177114683Y-77096838D01*
X176898559Y-77235910D01*
X176759110Y-77440000D01*
X174437279Y-77440000D01*
X174314090Y-77248559D01*
X174101890Y-77103569D01*
X173850000Y-77052560D01*
X172550000Y-77052560D01*
X172314683Y-77096838D01*
X172098559Y-77235910D01*
X171959110Y-77440000D01*
X167701563Y-77440000D01*
X167501890Y-77303569D01*
X167250000Y-77252560D01*
X165950000Y-77252560D01*
X165714683Y-77296838D01*
X165498559Y-77435910D01*
X165353569Y-77648110D01*
X165302560Y-77900000D01*
X165302560Y-78262760D01*
X163902399Y-76862599D01*
X163655837Y-76697852D01*
X163534373Y-76673691D01*
X182515000Y-76673691D01*
X182515000Y-78114250D01*
X182673750Y-78273000D01*
X184273000Y-78273000D01*
X184273000Y-76323750D01*
X184527000Y-76323750D01*
X184527000Y-78273000D01*
X186126250Y-78273000D01*
X186285000Y-78114250D01*
X186285000Y-76673691D01*
X186188327Y-76440302D01*
X186009699Y-76261673D01*
X185776310Y-76165000D01*
X184685750Y-76165000D01*
X184527000Y-76323750D01*
X184273000Y-76323750D01*
X184114250Y-76165000D01*
X183023690Y-76165000D01*
X182790301Y-76261673D01*
X182611673Y-76440302D01*
X182515000Y-76673691D01*
X163534373Y-76673691D01*
X163364998Y-76640000D01*
X156497440Y-76640000D01*
X156497440Y-76550000D01*
X156453162Y-76314683D01*
X156314090Y-76098559D01*
X156243022Y-76050000D01*
X192652560Y-76050000D01*
X192652560Y-77550000D01*
X192696838Y-77785317D01*
X192835910Y-78001441D01*
X193048110Y-78146431D01*
X193300000Y-78197440D01*
X196700000Y-78197440D01*
X196935317Y-78153162D01*
X197151441Y-78014090D01*
X197296431Y-77801890D01*
X197347440Y-77550000D01*
X197347440Y-76050000D01*
X197303162Y-75814683D01*
X197164090Y-75598559D01*
X196951890Y-75453569D01*
X196700000Y-75402560D01*
X193300000Y-75402560D01*
X193064683Y-75446838D01*
X192848559Y-75585910D01*
X192703569Y-75798110D01*
X192652560Y-76050000D01*
X156243022Y-76050000D01*
X156101890Y-75953569D01*
X155850000Y-75902560D01*
X154150000Y-75902560D01*
X153914683Y-75946838D01*
X153698559Y-76085910D01*
X153553569Y-76298110D01*
X153502560Y-76550000D01*
X153502560Y-78250000D01*
X153546838Y-78485317D01*
X153685910Y-78701441D01*
X153898110Y-78846431D01*
X153965541Y-78860086D01*
X153920853Y-78889946D01*
X153598946Y-79371715D01*
X153485907Y-79940000D01*
X151510000Y-79940000D01*
X151510000Y-75310000D01*
X199690000Y-75310000D01*
X199690000Y-110490000D01*
X199690000Y-110490000D01*
G37*
X199690000Y-110490000D02*
X151510000Y-110490000D01*
X151510000Y-88096890D01*
X153558524Y-88096890D01*
X153728355Y-88506924D01*
X154118642Y-88935183D01*
X154643108Y-89181486D01*
X154873000Y-89060819D01*
X154873000Y-87867000D01*
X155127000Y-87867000D01*
X155127000Y-89060819D01*
X155356892Y-89181486D01*
X155881358Y-88935183D01*
X156271645Y-88506924D01*
X156441476Y-88096890D01*
X156320155Y-87867000D01*
X155127000Y-87867000D01*
X154873000Y-87867000D01*
X153679845Y-87867000D01*
X153558524Y-88096890D01*
X151510000Y-88096890D01*
X151510000Y-79940000D01*
X153485907Y-79940000D01*
X153598946Y-80508285D01*
X153920853Y-80990054D01*
X154402622Y-81311961D01*
X154970907Y-81425000D01*
X155029093Y-81425000D01*
X155597378Y-81311961D01*
X156079147Y-80990054D01*
X156253826Y-80728628D01*
X160105557Y-84580359D01*
X159982076Y-84497852D01*
X159691237Y-84440000D01*
X156497440Y-84440000D01*
X156497440Y-84350000D01*
X156453162Y-84114683D01*
X156314090Y-83898559D01*
X156101890Y-83753569D01*
X155850000Y-83702560D01*
X154150000Y-83702560D01*
X153914683Y-83746838D01*
X153698559Y-83885910D01*
X153553569Y-84098110D01*
X153502560Y-84350000D01*
X153502560Y-86050000D01*
X153546838Y-86285317D01*
X153685910Y-86501441D01*
X153898110Y-86646431D01*
X154006107Y-86668301D01*
X153728355Y-86973076D01*
X153558524Y-87383110D01*
X153679845Y-87613000D01*
X154873000Y-87613000D01*
X154873000Y-87593000D01*
X155127000Y-87593000D01*
X155127000Y-87613000D01*
X156320155Y-87613000D01*
X156441476Y-87383110D01*
X156271645Y-86973076D01*
X155995499Y-86670063D01*
X156085317Y-86653162D01*
X156301441Y-86514090D01*
X156446431Y-86301890D01*
X156497440Y-86050000D01*
X156497440Y-85960000D01*
X159376435Y-85960000D01*
X164631836Y-91215401D01*
X164878398Y-91380148D01*
X165169237Y-91438000D01*
X167077537Y-91438000D01*
X167109673Y-91470192D01*
X167453201Y-91612838D01*
X167825167Y-91613162D01*
X168168943Y-91471117D01*
X168432192Y-91208327D01*
X168574838Y-90864799D01*
X168575162Y-90492833D01*
X168538358Y-90403760D01*
X170040000Y-91571704D01*
X170040000Y-92135025D01*
X169928569Y-92298110D01*
X169877560Y-92550000D01*
X169877560Y-93877560D01*
X168550000Y-93877560D01*
X168314683Y-93921838D01*
X168098559Y-94060910D01*
X167953569Y-94273110D01*
X167902560Y-94525000D01*
X167902560Y-94840000D01*
X156900000Y-94840000D01*
X156609161Y-94897852D01*
X156362599Y-95062599D01*
X156319003Y-95106195D01*
X156314090Y-95098559D01*
X156101890Y-94953569D01*
X155850000Y-94902560D01*
X154150000Y-94902560D01*
X153914683Y-94946838D01*
X153698559Y-95085910D01*
X153553569Y-95298110D01*
X153502560Y-95550000D01*
X153502560Y-97250000D01*
X153546838Y-97485317D01*
X153685910Y-97701441D01*
X153898110Y-97846431D01*
X153965541Y-97860086D01*
X153920853Y-97889946D01*
X153598946Y-98371715D01*
X153485907Y-98940000D01*
X153598946Y-99508285D01*
X153920853Y-99990054D01*
X154402622Y-100311961D01*
X154970907Y-100425000D01*
X155029093Y-100425000D01*
X155597378Y-100311961D01*
X155640000Y-100283482D01*
X155640000Y-105000000D01*
X155697852Y-105290839D01*
X155862599Y-105537401D01*
X156262599Y-105937401D01*
X156509160Y-106102148D01*
X156557414Y-106111746D01*
X156800000Y-106160000D01*
X166800000Y-106160000D01*
X167090839Y-106102148D01*
X167337401Y-105937401D01*
X170127715Y-103147087D01*
X170273110Y-103246431D01*
X170525000Y-103297440D01*
X171026655Y-103297440D01*
X171026655Y-104898543D01*
X169485198Y-106440000D01*
X167500000Y-106440000D01*
X167209161Y-106497852D01*
X166962599Y-106662599D01*
X166662599Y-106962599D01*
X166569080Y-107102560D01*
X166350000Y-107102560D01*
X166114683Y-107146838D01*
X165898559Y-107285910D01*
X165753569Y-107498110D01*
X165702560Y-107750000D01*
X165702560Y-109450000D01*
X165746838Y-109685317D01*
X165885910Y-109901441D01*
X166098110Y-110046431D01*
X166350000Y-110097440D01*
X168050000Y-110097440D01*
X168285317Y-110053162D01*
X168501441Y-109914090D01*
X168646431Y-109701890D01*
X168660086Y-109634459D01*
X168689946Y-109679147D01*
X169171715Y-110001054D01*
X169740000Y-110114093D01*
X170308285Y-110001054D01*
X170790054Y-109679147D01*
X171111961Y-109197378D01*
X171173947Y-108885750D01*
X174315000Y-108885750D01*
X174315000Y-109576309D01*
X174411673Y-109809698D01*
X174590301Y-109988327D01*
X174823690Y-110085000D01*
X175514250Y-110085000D01*
X175673000Y-109926250D01*
X175673000Y-108727000D01*
X175927000Y-108727000D01*
X175927000Y-109926250D01*
X176085750Y-110085000D01*
X176776310Y-110085000D01*
X177009699Y-109988327D01*
X177188327Y-109809698D01*
X177275136Y-109600122D01*
X177573076Y-109871645D01*
X177983110Y-110041476D01*
X178213000Y-109920155D01*
X178213000Y-108727000D01*
X178467000Y-108727000D01*
X178467000Y-109920155D01*
X178696890Y-110041476D01*
X179106924Y-109871645D01*
X179535183Y-109481358D01*
X179781486Y-108956892D01*
X179660819Y-108727000D01*
X178467000Y-108727000D01*
X178213000Y-108727000D01*
X175927000Y-108727000D01*
X175673000Y-108727000D01*
X174473750Y-108727000D01*
X174315000Y-108885750D01*
X171173947Y-108885750D01*
X171225000Y-108629093D01*
X171225000Y-108570907D01*
X171111961Y-108002622D01*
X171015918Y-107858884D01*
X171251111Y-107623691D01*
X174315000Y-107623691D01*
X174315000Y-108314250D01*
X174473750Y-108473000D01*
X175673000Y-108473000D01*
X175673000Y-107273750D01*
X175927000Y-107273750D01*
X175927000Y-108473000D01*
X178213000Y-108473000D01*
X178213000Y-107279845D01*
X178467000Y-107279845D01*
X178467000Y-108473000D01*
X179660819Y-108473000D01*
X179781486Y-108243108D01*
X179535183Y-107718642D01*
X179106924Y-107328355D01*
X178696890Y-107158524D01*
X178467000Y-107279845D01*
X178213000Y-107279845D01*
X177983110Y-107158524D01*
X177573076Y-107328355D01*
X177275136Y-107599878D01*
X177188327Y-107390302D01*
X177009699Y-107211673D01*
X176776310Y-107115000D01*
X176085750Y-107115000D01*
X175927000Y-107273750D01*
X175673000Y-107273750D01*
X175514250Y-107115000D01*
X174823690Y-107115000D01*
X174590301Y-107211673D01*
X174411673Y-107390302D01*
X174315000Y-107623691D01*
X171251111Y-107623691D01*
X172937401Y-105937401D01*
X173102148Y-105690839D01*
X173160000Y-105400000D01*
X173160000Y-103297440D01*
X173475000Y-103297440D01*
X173604589Y-103273056D01*
X173725000Y-103297440D01*
X174275000Y-103297440D01*
X174404589Y-103273056D01*
X174525000Y-103297440D01*
X174969080Y-103297440D01*
X175062599Y-103437401D01*
X176044572Y-104419374D01*
X176291134Y-104584121D01*
X176581973Y-104641973D01*
X189778027Y-104641973D01*
X189933131Y-104611121D01*
X189901400Y-104770641D01*
X189901400Y-104829359D01*
X190015474Y-105402848D01*
X190340330Y-105889029D01*
X190390000Y-105922217D01*
X190390000Y-106021314D01*
X190466882Y-106407824D01*
X190685822Y-106735492D01*
X191814508Y-107864178D01*
X192142176Y-108083118D01*
X192528686Y-108160000D01*
X195200000Y-108160000D01*
X195586510Y-108083118D01*
X195914178Y-107864178D01*
X196664178Y-107114178D01*
X196883118Y-106786510D01*
X196960000Y-106400000D01*
X196960000Y-91945558D01*
X197185317Y-91903162D01*
X197401441Y-91764090D01*
X197546431Y-91551890D01*
X197597440Y-91300000D01*
X197597440Y-87500000D01*
X197553162Y-87264683D01*
X197414090Y-87048559D01*
X197201890Y-86903569D01*
X196950000Y-86852560D01*
X194950000Y-86852560D01*
X194714683Y-86896838D01*
X194498559Y-87035910D01*
X194353569Y-87248110D01*
X194302560Y-87500000D01*
X194302560Y-90519084D01*
X193985000Y-90836644D01*
X193985000Y-85260002D01*
X193912882Y-84897440D01*
X196700000Y-84897440D01*
X196935317Y-84853162D01*
X197151441Y-84714090D01*
X197296431Y-84501890D01*
X197347440Y-84250000D01*
X197347440Y-82750000D01*
X197303162Y-82514683D01*
X197164090Y-82298559D01*
X196951890Y-82153569D01*
X196700000Y-82102560D01*
X193300000Y-82102560D01*
X193064683Y-82146838D01*
X192848559Y-82285910D01*
X192703569Y-82498110D01*
X192652560Y-82750000D01*
X192652560Y-83353876D01*
X191985000Y-82686316D01*
X191985000Y-81200000D01*
X191879573Y-80669983D01*
X191579343Y-80220657D01*
X191428295Y-80119730D01*
X191538327Y-80009698D01*
X191635000Y-79776309D01*
X191635000Y-79435750D01*
X191476250Y-79277000D01*
X189377000Y-79277000D01*
X189377000Y-79297000D01*
X189123000Y-79297000D01*
X189123000Y-79277000D01*
X187023750Y-79277000D01*
X186865000Y-79435750D01*
X186865000Y-79765000D01*
X186285000Y-79765000D01*
X186285000Y-78685750D01*
X186126250Y-78527000D01*
X184527000Y-78527000D01*
X184527000Y-78547000D01*
X184273000Y-78547000D01*
X184273000Y-78527000D01*
X182673750Y-78527000D01*
X182515000Y-78685750D01*
X182515000Y-80126309D01*
X182526708Y-80154574D01*
X182514178Y-80135822D01*
X180902047Y-78523691D01*
X186865000Y-78523691D01*
X186865000Y-78864250D01*
X187023750Y-79023000D01*
X189123000Y-79023000D01*
X189123000Y-78173750D01*
X189377000Y-78173750D01*
X189377000Y-79023000D01*
X191476250Y-79023000D01*
X191635000Y-78864250D01*
X191635000Y-78523691D01*
X191538327Y-78290302D01*
X191359699Y-78111673D01*
X191126310Y-78015000D01*
X189535750Y-78015000D01*
X189377000Y-78173750D01*
X189123000Y-78173750D01*
X188964250Y-78015000D01*
X187373690Y-78015000D01*
X187140301Y-78111673D01*
X186961673Y-78290302D01*
X186865000Y-78523691D01*
X180902047Y-78523691D01*
X180114178Y-77735822D01*
X179786510Y-77516882D01*
X179400000Y-77440000D01*
X179237279Y-77440000D01*
X179114090Y-77248559D01*
X178901890Y-77103569D01*
X178650000Y-77052560D01*
X177350000Y-77052560D01*
X177114683Y-77096838D01*
X176898559Y-77235910D01*
X176759110Y-77440000D01*
X174437279Y-77440000D01*
X174314090Y-77248559D01*
X174101890Y-77103569D01*
X173850000Y-77052560D01*
X172550000Y-77052560D01*
X172314683Y-77096838D01*
X172098559Y-77235910D01*
X171959110Y-77440000D01*
X167701563Y-77440000D01*
X167501890Y-77303569D01*
X167250000Y-77252560D01*
X165950000Y-77252560D01*
X165714683Y-77296838D01*
X165498559Y-77435910D01*
X165353569Y-77648110D01*
X165302560Y-77900000D01*
X165302560Y-78262760D01*
X163902399Y-76862599D01*
X163655837Y-76697852D01*
X163534373Y-76673691D01*
X182515000Y-76673691D01*
X182515000Y-78114250D01*
X182673750Y-78273000D01*
X184273000Y-78273000D01*
X184273000Y-76323750D01*
X184527000Y-76323750D01*
X184527000Y-78273000D01*
X186126250Y-78273000D01*
X186285000Y-78114250D01*
X186285000Y-76673691D01*
X186188327Y-76440302D01*
X186009699Y-76261673D01*
X185776310Y-76165000D01*
X184685750Y-76165000D01*
X184527000Y-76323750D01*
X184273000Y-76323750D01*
X184114250Y-76165000D01*
X183023690Y-76165000D01*
X182790301Y-76261673D01*
X182611673Y-76440302D01*
X182515000Y-76673691D01*
X163534373Y-76673691D01*
X163364998Y-76640000D01*
X156497440Y-76640000D01*
X156497440Y-76550000D01*
X156453162Y-76314683D01*
X156314090Y-76098559D01*
X156243022Y-76050000D01*
X192652560Y-76050000D01*
X192652560Y-77550000D01*
X192696838Y-77785317D01*
X192835910Y-78001441D01*
X193048110Y-78146431D01*
X193300000Y-78197440D01*
X196700000Y-78197440D01*
X196935317Y-78153162D01*
X197151441Y-78014090D01*
X197296431Y-77801890D01*
X197347440Y-77550000D01*
X197347440Y-76050000D01*
X197303162Y-75814683D01*
X197164090Y-75598559D01*
X196951890Y-75453569D01*
X196700000Y-75402560D01*
X193300000Y-75402560D01*
X193064683Y-75446838D01*
X192848559Y-75585910D01*
X192703569Y-75798110D01*
X192652560Y-76050000D01*
X156243022Y-76050000D01*
X156101890Y-75953569D01*
X155850000Y-75902560D01*
X154150000Y-75902560D01*
X153914683Y-75946838D01*
X153698559Y-76085910D01*
X153553569Y-76298110D01*
X153502560Y-76550000D01*
X153502560Y-78250000D01*
X153546838Y-78485317D01*
X153685910Y-78701441D01*
X153898110Y-78846431D01*
X153965541Y-78860086D01*
X153920853Y-78889946D01*
X153598946Y-79371715D01*
X153485907Y-79940000D01*
X151510000Y-79940000D01*
X151510000Y-75310000D01*
X199690000Y-75310000D01*
X199690000Y-110490000D01*
G36*
X160872638Y-96727560D02*
X159800000Y-96727560D01*
X159564683Y-96771838D01*
X159348559Y-96910910D01*
X159203569Y-97123110D01*
X159152560Y-97375000D01*
X159152560Y-98625000D01*
X159196838Y-98860317D01*
X159335910Y-99076441D01*
X159548110Y-99221431D01*
X159709202Y-99254053D01*
X159614683Y-99271838D01*
X159398559Y-99410910D01*
X159253569Y-99623110D01*
X159202560Y-99875000D01*
X159202560Y-101125000D01*
X159246838Y-101360317D01*
X159385910Y-101576441D01*
X159598110Y-101721431D01*
X159840000Y-101770415D01*
X159840000Y-102077560D01*
X159800000Y-102077560D01*
X159564683Y-102121838D01*
X159348559Y-102260910D01*
X159203569Y-102473110D01*
X159152560Y-102725000D01*
X159152560Y-103975000D01*
X159196838Y-104210317D01*
X159335910Y-104426441D01*
X159548110Y-104571431D01*
X159800000Y-104622440D01*
X161300000Y-104622440D01*
X161535317Y-104578162D01*
X161751441Y-104439090D01*
X161797969Y-104370994D01*
X161940302Y-104513327D01*
X162173691Y-104610000D01*
X162764250Y-104610000D01*
X162923000Y-104451250D01*
X162923000Y-103477000D01*
X163177000Y-103477000D01*
X163177000Y-104451250D01*
X163335750Y-104610000D01*
X163926309Y-104610000D01*
X164159698Y-104513327D01*
X164338327Y-104334699D01*
X164435000Y-104101310D01*
X164435000Y-103635750D01*
X164276250Y-103477000D01*
X163177000Y-103477000D01*
X162923000Y-103477000D01*
X162903000Y-103477000D01*
X162903000Y-103223000D01*
X162923000Y-103223000D01*
X162923000Y-102248750D01*
X163177000Y-102248750D01*
X163177000Y-103223000D01*
X164276250Y-103223000D01*
X164435000Y-103064250D01*
X164435000Y-102598690D01*
X164338327Y-102365301D01*
X164159698Y-102186673D01*
X163926309Y-102090000D01*
X163335750Y-102090000D01*
X163177000Y-102248750D01*
X162923000Y-102248750D01*
X162764250Y-102090000D01*
X162173691Y-102090000D01*
X161940302Y-102186673D01*
X161799064Y-102327910D01*
X161764090Y-102273559D01*
X161551890Y-102128569D01*
X161360000Y-102089710D01*
X161360000Y-101770558D01*
X161585317Y-101728162D01*
X161801441Y-101589090D01*
X161847969Y-101520994D01*
X161990302Y-101663327D01*
X162223691Y-101760000D01*
X162814250Y-101760000D01*
X162973000Y-101601250D01*
X162973000Y-100627000D01*
X163227000Y-100627000D01*
X163227000Y-101601250D01*
X163385750Y-101760000D01*
X163976309Y-101760000D01*
X164209698Y-101663327D01*
X164388327Y-101484699D01*
X164485000Y-101251310D01*
X164485000Y-100785750D01*
X164326250Y-100627000D01*
X163227000Y-100627000D01*
X162973000Y-100627000D01*
X162953000Y-100627000D01*
X162953000Y-100373000D01*
X162973000Y-100373000D01*
X162973000Y-99398750D01*
X162814250Y-99240000D01*
X162784250Y-99240000D01*
X162923000Y-99101250D01*
X162923000Y-98127000D01*
X163177000Y-98127000D01*
X163177000Y-99101250D01*
X163335750Y-99260000D01*
X163365750Y-99260000D01*
X163227000Y-99398750D01*
X163227000Y-100373000D01*
X164326250Y-100373000D01*
X164485000Y-100214250D01*
X164485000Y-99748690D01*
X164388327Y-99515301D01*
X164209698Y-99336673D01*
X163976309Y-99240000D01*
X163974593Y-99240000D01*
X164159698Y-99163327D01*
X164338327Y-98984699D01*
X164435000Y-98751310D01*
X164435000Y-98285750D01*
X164276250Y-98127000D01*
X163177000Y-98127000D01*
X162923000Y-98127000D01*
X162903000Y-98127000D01*
X162903000Y-97873000D01*
X162923000Y-97873000D01*
X162923000Y-97853000D01*
X163177000Y-97853000D01*
X163177000Y-97873000D01*
X164276250Y-97873000D01*
X164435000Y-97714250D01*
X164435000Y-97560000D01*
X164870339Y-97560000D01*
X165018405Y-97781595D01*
X165285243Y-97959891D01*
X165600000Y-98022500D01*
X167915000Y-98022500D01*
X167915000Y-98127002D01*
X168053400Y-98127002D01*
X168009505Y-98191245D01*
X167915000Y-98285750D01*
X167915000Y-98401310D01*
X167923468Y-98421753D01*
X167902560Y-98525000D01*
X167902560Y-99075000D01*
X167926944Y-99204589D01*
X167902560Y-99325000D01*
X167902560Y-99875000D01*
X167926944Y-100004589D01*
X167902560Y-100125000D01*
X167902560Y-100675000D01*
X167946838Y-100910317D01*
X168085910Y-101126441D01*
X168298110Y-101271431D01*
X168550000Y-101322440D01*
X169802758Y-101322440D01*
X166485198Y-104640000D01*
X157160000Y-104640000D01*
X157160000Y-99137919D01*
X157102148Y-98847080D01*
X156937401Y-98600518D01*
X156739482Y-98402599D01*
X156492920Y-98237852D01*
X156283818Y-98196259D01*
X156079147Y-97889946D01*
X156037548Y-97862150D01*
X156085317Y-97853162D01*
X156301441Y-97714090D01*
X156446431Y-97501890D01*
X156497440Y-97250000D01*
X156497440Y-97030920D01*
X156637401Y-96937401D01*
X157214802Y-96360000D01*
X161240198Y-96360000D01*
X160872638Y-96727560D01*
X160872638Y-96727560D01*
G37*
X160872638Y-96727560D02*
X159800000Y-96727560D01*
X159564683Y-96771838D01*
X159348559Y-96910910D01*
X159203569Y-97123110D01*
X159152560Y-97375000D01*
X159152560Y-98625000D01*
X159196838Y-98860317D01*
X159335910Y-99076441D01*
X159548110Y-99221431D01*
X159709202Y-99254053D01*
X159614683Y-99271838D01*
X159398559Y-99410910D01*
X159253569Y-99623110D01*
X159202560Y-99875000D01*
X159202560Y-101125000D01*
X159246838Y-101360317D01*
X159385910Y-101576441D01*
X159598110Y-101721431D01*
X159840000Y-101770415D01*
X159840000Y-102077560D01*
X159800000Y-102077560D01*
X159564683Y-102121838D01*
X159348559Y-102260910D01*
X159203569Y-102473110D01*
X159152560Y-102725000D01*
X159152560Y-103975000D01*
X159196838Y-104210317D01*
X159335910Y-104426441D01*
X159548110Y-104571431D01*
X159800000Y-104622440D01*
X161300000Y-104622440D01*
X161535317Y-104578162D01*
X161751441Y-104439090D01*
X161797969Y-104370994D01*
X161940302Y-104513327D01*
X162173691Y-104610000D01*
X162764250Y-104610000D01*
X162923000Y-104451250D01*
X162923000Y-103477000D01*
X163177000Y-103477000D01*
X163177000Y-104451250D01*
X163335750Y-104610000D01*
X163926309Y-104610000D01*
X164159698Y-104513327D01*
X164338327Y-104334699D01*
X164435000Y-104101310D01*
X164435000Y-103635750D01*
X164276250Y-103477000D01*
X163177000Y-103477000D01*
X162923000Y-103477000D01*
X162903000Y-103477000D01*
X162903000Y-103223000D01*
X162923000Y-103223000D01*
X162923000Y-102248750D01*
X163177000Y-102248750D01*
X163177000Y-103223000D01*
X164276250Y-103223000D01*
X164435000Y-103064250D01*
X164435000Y-102598690D01*
X164338327Y-102365301D01*
X164159698Y-102186673D01*
X163926309Y-102090000D01*
X163335750Y-102090000D01*
X163177000Y-102248750D01*
X162923000Y-102248750D01*
X162764250Y-102090000D01*
X162173691Y-102090000D01*
X161940302Y-102186673D01*
X161799064Y-102327910D01*
X161764090Y-102273559D01*
X161551890Y-102128569D01*
X161360000Y-102089710D01*
X161360000Y-101770558D01*
X161585317Y-101728162D01*
X161801441Y-101589090D01*
X161847969Y-101520994D01*
X161990302Y-101663327D01*
X162223691Y-101760000D01*
X162814250Y-101760000D01*
X162973000Y-101601250D01*
X162973000Y-100627000D01*
X163227000Y-100627000D01*
X163227000Y-101601250D01*
X163385750Y-101760000D01*
X163976309Y-101760000D01*
X164209698Y-101663327D01*
X164388327Y-101484699D01*
X164485000Y-101251310D01*
X164485000Y-100785750D01*
X164326250Y-100627000D01*
X163227000Y-100627000D01*
X162973000Y-100627000D01*
X162953000Y-100627000D01*
X162953000Y-100373000D01*
X162973000Y-100373000D01*
X162973000Y-99398750D01*
X162814250Y-99240000D01*
X162784250Y-99240000D01*
X162923000Y-99101250D01*
X162923000Y-98127000D01*
X163177000Y-98127000D01*
X163177000Y-99101250D01*
X163335750Y-99260000D01*
X163365750Y-99260000D01*
X163227000Y-99398750D01*
X163227000Y-100373000D01*
X164326250Y-100373000D01*
X164485000Y-100214250D01*
X164485000Y-99748690D01*
X164388327Y-99515301D01*
X164209698Y-99336673D01*
X163976309Y-99240000D01*
X163974593Y-99240000D01*
X164159698Y-99163327D01*
X164338327Y-98984699D01*
X164435000Y-98751310D01*
X164435000Y-98285750D01*
X164276250Y-98127000D01*
X163177000Y-98127000D01*
X162923000Y-98127000D01*
X162903000Y-98127000D01*
X162903000Y-97873000D01*
X162923000Y-97873000D01*
X162923000Y-97853000D01*
X163177000Y-97853000D01*
X163177000Y-97873000D01*
X164276250Y-97873000D01*
X164435000Y-97714250D01*
X164435000Y-97560000D01*
X164870339Y-97560000D01*
X165018405Y-97781595D01*
X165285243Y-97959891D01*
X165600000Y-98022500D01*
X167915000Y-98022500D01*
X167915000Y-98127002D01*
X168053400Y-98127002D01*
X168009505Y-98191245D01*
X167915000Y-98285750D01*
X167915000Y-98401310D01*
X167923468Y-98421753D01*
X167902560Y-98525000D01*
X167902560Y-99075000D01*
X167926944Y-99204589D01*
X167902560Y-99325000D01*
X167902560Y-99875000D01*
X167926944Y-100004589D01*
X167902560Y-100125000D01*
X167902560Y-100675000D01*
X167946838Y-100910317D01*
X168085910Y-101126441D01*
X168298110Y-101271431D01*
X168550000Y-101322440D01*
X169802758Y-101322440D01*
X166485198Y-104640000D01*
X157160000Y-104640000D01*
X157160000Y-99137919D01*
X157102148Y-98847080D01*
X156937401Y-98600518D01*
X156739482Y-98402599D01*
X156492920Y-98237852D01*
X156283818Y-98196259D01*
X156079147Y-97889946D01*
X156037548Y-97862150D01*
X156085317Y-97853162D01*
X156301441Y-97714090D01*
X156446431Y-97501890D01*
X156497440Y-97250000D01*
X156497440Y-97030920D01*
X156637401Y-96937401D01*
X157214802Y-96360000D01*
X161240198Y-96360000D01*
X160872638Y-96727560D01*
G36*
X189945032Y-99360973D02*
X190065531Y-99593000D01*
X191273000Y-99593000D01*
X191273000Y-99573000D01*
X191527000Y-99573000D01*
X191527000Y-99593000D01*
X191547000Y-99593000D01*
X191547000Y-99847000D01*
X191527000Y-99847000D01*
X191527000Y-99867000D01*
X191273000Y-99867000D01*
X191273000Y-99847000D01*
X190065531Y-99847000D01*
X189945032Y-100079027D01*
X190073830Y-100353840D01*
X189915698Y-100459500D01*
X187985198Y-102390000D01*
X177322440Y-102390000D01*
X177322440Y-101322440D01*
X178650000Y-101322440D01*
X178885317Y-101278162D01*
X179068946Y-101160000D01*
X186443825Y-101160000D01*
X186734664Y-101102148D01*
X186981226Y-100937401D01*
X188785368Y-99133259D01*
X190051756Y-99133259D01*
X189945032Y-99360973D01*
X189945032Y-99360973D01*
G37*
X189945032Y-99360973D02*
X190065531Y-99593000D01*
X191273000Y-99593000D01*
X191273000Y-99573000D01*
X191527000Y-99573000D01*
X191527000Y-99593000D01*
X191547000Y-99593000D01*
X191547000Y-99847000D01*
X191527000Y-99847000D01*
X191527000Y-99867000D01*
X191273000Y-99867000D01*
X191273000Y-99847000D01*
X190065531Y-99847000D01*
X189945032Y-100079027D01*
X190073830Y-100353840D01*
X189915698Y-100459500D01*
X187985198Y-102390000D01*
X177322440Y-102390000D01*
X177322440Y-101322440D01*
X178650000Y-101322440D01*
X178885317Y-101278162D01*
X179068946Y-101160000D01*
X186443825Y-101160000D01*
X186734664Y-101102148D01*
X186981226Y-100937401D01*
X188785368Y-99133259D01*
X190051756Y-99133259D01*
X189945032Y-99360973D01*
G36*
X180343784Y-94818586D02*
X180532376Y-94944599D01*
X180436673Y-95040302D01*
X180340000Y-95273691D01*
X180340000Y-95864250D01*
X180498750Y-96023000D01*
X181473000Y-96023000D01*
X181473000Y-96003000D01*
X181727000Y-96003000D01*
X181727000Y-96023000D01*
X182701250Y-96023000D01*
X182860000Y-95864250D01*
X182860000Y-95273691D01*
X182763693Y-95041185D01*
X183568755Y-95041185D01*
X183619673Y-95092192D01*
X183963201Y-95234838D01*
X184154998Y-95235005D01*
X184154998Y-96041646D01*
X182712189Y-97484455D01*
X182689090Y-97448559D01*
X182620994Y-97402031D01*
X182763327Y-97259698D01*
X182860000Y-97026309D01*
X182860000Y-96435750D01*
X182701250Y-96277000D01*
X181727000Y-96277000D01*
X181727000Y-96297000D01*
X181473000Y-96297000D01*
X181473000Y-96277000D01*
X180498750Y-96277000D01*
X180340000Y-96435750D01*
X180340000Y-97026309D01*
X180436673Y-97259698D01*
X180577910Y-97400936D01*
X180523559Y-97435910D01*
X180378569Y-97648110D01*
X180327560Y-97900000D01*
X180327560Y-98759250D01*
X180309310Y-98777500D01*
X179297440Y-98777500D01*
X179297440Y-98525000D01*
X179273056Y-98395411D01*
X179297440Y-98275000D01*
X179297440Y-97725000D01*
X179277550Y-97619295D01*
X179285000Y-97601310D01*
X179285000Y-97485750D01*
X179188599Y-97389349D01*
X179114090Y-97273559D01*
X179006603Y-97200116D01*
X179101441Y-97139090D01*
X179190495Y-97008755D01*
X179285000Y-96914250D01*
X179285000Y-96798690D01*
X179276532Y-96778247D01*
X179297440Y-96675000D01*
X179297440Y-96125000D01*
X179273056Y-95995411D01*
X179297440Y-95875000D01*
X179297440Y-95325000D01*
X179273056Y-95195411D01*
X179297440Y-95075000D01*
X179297440Y-94525000D01*
X179253162Y-94289683D01*
X179114090Y-94073559D01*
X178901890Y-93928569D01*
X178650000Y-93877560D01*
X177322440Y-93877560D01*
X177322440Y-92760000D01*
X178285198Y-92760000D01*
X180343784Y-94818586D01*
X180343784Y-94818586D01*
G37*
X180343784Y-94818586D02*
X180532376Y-94944599D01*
X180436673Y-95040302D01*
X180340000Y-95273691D01*
X180340000Y-95864250D01*
X180498750Y-96023000D01*
X181473000Y-96023000D01*
X181473000Y-96003000D01*
X181727000Y-96003000D01*
X181727000Y-96023000D01*
X182701250Y-96023000D01*
X182860000Y-95864250D01*
X182860000Y-95273691D01*
X182763693Y-95041185D01*
X183568755Y-95041185D01*
X183619673Y-95092192D01*
X183963201Y-95234838D01*
X184154998Y-95235005D01*
X184154998Y-96041646D01*
X182712189Y-97484455D01*
X182689090Y-97448559D01*
X182620994Y-97402031D01*
X182763327Y-97259698D01*
X182860000Y-97026309D01*
X182860000Y-96435750D01*
X182701250Y-96277000D01*
X181727000Y-96277000D01*
X181727000Y-96297000D01*
X181473000Y-96297000D01*
X181473000Y-96277000D01*
X180498750Y-96277000D01*
X180340000Y-96435750D01*
X180340000Y-97026309D01*
X180436673Y-97259698D01*
X180577910Y-97400936D01*
X180523559Y-97435910D01*
X180378569Y-97648110D01*
X180327560Y-97900000D01*
X180327560Y-98759250D01*
X180309310Y-98777500D01*
X179297440Y-98777500D01*
X179297440Y-98525000D01*
X179273056Y-98395411D01*
X179297440Y-98275000D01*
X179297440Y-97725000D01*
X179277550Y-97619295D01*
X179285000Y-97601310D01*
X179285000Y-97485750D01*
X179188599Y-97389349D01*
X179114090Y-97273559D01*
X179006603Y-97200116D01*
X179101441Y-97139090D01*
X179190495Y-97008755D01*
X179285000Y-96914250D01*
X179285000Y-96798690D01*
X179276532Y-96778247D01*
X179297440Y-96675000D01*
X179297440Y-96125000D01*
X179273056Y-95995411D01*
X179297440Y-95875000D01*
X179297440Y-95325000D01*
X179273056Y-95195411D01*
X179297440Y-95075000D01*
X179297440Y-94525000D01*
X179253162Y-94289683D01*
X179114090Y-94073559D01*
X178901890Y-93928569D01*
X178650000Y-93877560D01*
X177322440Y-93877560D01*
X177322440Y-92760000D01*
X178285198Y-92760000D01*
X180343784Y-94818586D01*
G36*
X176125000Y-94797440D02*
X176402560Y-94797440D01*
X176402560Y-95075000D01*
X176426944Y-95204589D01*
X176402560Y-95325000D01*
X176402560Y-95875000D01*
X176426944Y-96004589D01*
X176402560Y-96125000D01*
X176402560Y-96675000D01*
X176422450Y-96780705D01*
X176415000Y-96798690D01*
X176415000Y-96914250D01*
X176511401Y-97010651D01*
X176585910Y-97126441D01*
X176693397Y-97199884D01*
X176598559Y-97260910D01*
X176509505Y-97391245D01*
X176415000Y-97485750D01*
X176415000Y-97601310D01*
X176423468Y-97621753D01*
X176402560Y-97725000D01*
X176402560Y-98275000D01*
X176426944Y-98404589D01*
X176402560Y-98525000D01*
X176402560Y-98777500D01*
X173740690Y-98777500D01*
X173181595Y-98218405D01*
X172914757Y-98040109D01*
X172600000Y-97977500D01*
X170785000Y-97977500D01*
X170785000Y-97872998D01*
X170646600Y-97872998D01*
X170690495Y-97808755D01*
X170785000Y-97714250D01*
X170785000Y-97598690D01*
X170776532Y-97578247D01*
X170797440Y-97475000D01*
X170797440Y-96925000D01*
X170777550Y-96819295D01*
X170785000Y-96801310D01*
X170785000Y-96685750D01*
X170688599Y-96589349D01*
X170614090Y-96473559D01*
X170506603Y-96400116D01*
X170601441Y-96339090D01*
X170690495Y-96208755D01*
X170785000Y-96114250D01*
X170785000Y-95998690D01*
X170776532Y-95978247D01*
X170797440Y-95875000D01*
X170797440Y-95325000D01*
X170773056Y-95195411D01*
X170797440Y-95075000D01*
X170797440Y-94797440D01*
X171075000Y-94797440D01*
X171204589Y-94773056D01*
X171325000Y-94797440D01*
X171875000Y-94797440D01*
X172004589Y-94773056D01*
X172125000Y-94797440D01*
X172675000Y-94797440D01*
X172804589Y-94773056D01*
X172925000Y-94797440D01*
X173475000Y-94797440D01*
X173604589Y-94773056D01*
X173725000Y-94797440D01*
X174275000Y-94797440D01*
X174404589Y-94773056D01*
X174525000Y-94797440D01*
X175075000Y-94797440D01*
X175204589Y-94773056D01*
X175325000Y-94797440D01*
X175875000Y-94797440D01*
X176004589Y-94773056D01*
X176125000Y-94797440D01*
X176125000Y-94797440D01*
G37*
X176125000Y-94797440D02*
X176402560Y-94797440D01*
X176402560Y-95075000D01*
X176426944Y-95204589D01*
X176402560Y-95325000D01*
X176402560Y-95875000D01*
X176426944Y-96004589D01*
X176402560Y-96125000D01*
X176402560Y-96675000D01*
X176422450Y-96780705D01*
X176415000Y-96798690D01*
X176415000Y-96914250D01*
X176511401Y-97010651D01*
X176585910Y-97126441D01*
X176693397Y-97199884D01*
X176598559Y-97260910D01*
X176509505Y-97391245D01*
X176415000Y-97485750D01*
X176415000Y-97601310D01*
X176423468Y-97621753D01*
X176402560Y-97725000D01*
X176402560Y-98275000D01*
X176426944Y-98404589D01*
X176402560Y-98525000D01*
X176402560Y-98777500D01*
X173740690Y-98777500D01*
X173181595Y-98218405D01*
X172914757Y-98040109D01*
X172600000Y-97977500D01*
X170785000Y-97977500D01*
X170785000Y-97872998D01*
X170646600Y-97872998D01*
X170690495Y-97808755D01*
X170785000Y-97714250D01*
X170785000Y-97598690D01*
X170776532Y-97578247D01*
X170797440Y-97475000D01*
X170797440Y-96925000D01*
X170777550Y-96819295D01*
X170785000Y-96801310D01*
X170785000Y-96685750D01*
X170688599Y-96589349D01*
X170614090Y-96473559D01*
X170506603Y-96400116D01*
X170601441Y-96339090D01*
X170690495Y-96208755D01*
X170785000Y-96114250D01*
X170785000Y-95998690D01*
X170776532Y-95978247D01*
X170797440Y-95875000D01*
X170797440Y-95325000D01*
X170773056Y-95195411D01*
X170797440Y-95075000D01*
X170797440Y-94797440D01*
X171075000Y-94797440D01*
X171204589Y-94773056D01*
X171325000Y-94797440D01*
X171875000Y-94797440D01*
X172004589Y-94773056D01*
X172125000Y-94797440D01*
X172675000Y-94797440D01*
X172804589Y-94773056D01*
X172925000Y-94797440D01*
X173475000Y-94797440D01*
X173604589Y-94773056D01*
X173725000Y-94797440D01*
X174275000Y-94797440D01*
X174404589Y-94773056D01*
X174525000Y-94797440D01*
X175075000Y-94797440D01*
X175204589Y-94773056D01*
X175325000Y-94797440D01*
X175875000Y-94797440D01*
X176004589Y-94773056D01*
X176125000Y-94797440D01*
G36*
X189215000Y-82568093D02*
X189215000Y-83260002D01*
X189320427Y-83790019D01*
X189447083Y-83979573D01*
X189620657Y-84239345D01*
X191215000Y-85833688D01*
X191215000Y-86054695D01*
X191188327Y-85990301D01*
X191009698Y-85811673D01*
X190776309Y-85715000D01*
X189935750Y-85715000D01*
X189777000Y-85873750D01*
X189777000Y-86973000D01*
X189797000Y-86973000D01*
X189797000Y-87227000D01*
X189777000Y-87227000D01*
X189777000Y-87247000D01*
X189523000Y-87247000D01*
X189523000Y-87227000D01*
X188173750Y-87227000D01*
X188015000Y-87385750D01*
X188015000Y-87976310D01*
X188111673Y-88209699D01*
X188153634Y-88251660D01*
X188053569Y-88398110D01*
X188002560Y-88650000D01*
X188002560Y-89134082D01*
X185659765Y-91476877D01*
X185660000Y-91476309D01*
X185660000Y-90885750D01*
X185501250Y-90727000D01*
X184527000Y-90727000D01*
X184527000Y-91826250D01*
X184685750Y-91985000D01*
X185151310Y-91985000D01*
X185151877Y-91984765D01*
X184746642Y-92390000D01*
X181618356Y-92390000D01*
X181263356Y-92035000D01*
X181514250Y-92035000D01*
X181673000Y-91876250D01*
X181673000Y-90777000D01*
X181927000Y-90777000D01*
X181927000Y-91876250D01*
X182085750Y-92035000D01*
X182551310Y-92035000D01*
X182784699Y-91938327D01*
X182963327Y-91759698D01*
X183060000Y-91526309D01*
X183060000Y-90935750D01*
X183010000Y-90885750D01*
X183140000Y-90885750D01*
X183140000Y-91476309D01*
X183236673Y-91709698D01*
X183415301Y-91888327D01*
X183648690Y-91985000D01*
X184114250Y-91985000D01*
X184273000Y-91826250D01*
X184273000Y-90727000D01*
X183298750Y-90727000D01*
X183140000Y-90885750D01*
X183010000Y-90885750D01*
X182901250Y-90777000D01*
X181927000Y-90777000D01*
X181673000Y-90777000D01*
X181653000Y-90777000D01*
X181653000Y-90523000D01*
X181673000Y-90523000D01*
X181673000Y-90503000D01*
X181927000Y-90503000D01*
X181927000Y-90523000D01*
X182901250Y-90523000D01*
X183060000Y-90364250D01*
X183060000Y-89773691D01*
X182963327Y-89540302D01*
X182822090Y-89399064D01*
X182876441Y-89364090D01*
X183021431Y-89151890D01*
X183072440Y-88900000D01*
X183072440Y-88388770D01*
X183120427Y-88630017D01*
X183127560Y-88640692D01*
X183127560Y-88850000D01*
X183171838Y-89085317D01*
X183310910Y-89301441D01*
X183379006Y-89347969D01*
X183236673Y-89490302D01*
X183140000Y-89723691D01*
X183140000Y-90314250D01*
X183298750Y-90473000D01*
X184273000Y-90473000D01*
X184273000Y-90453000D01*
X184527000Y-90453000D01*
X184527000Y-90473000D01*
X185501250Y-90473000D01*
X185660000Y-90314250D01*
X185660000Y-89723691D01*
X185563327Y-89490302D01*
X185422090Y-89349064D01*
X185476441Y-89314090D01*
X185621431Y-89101890D01*
X185672440Y-88850000D01*
X185672440Y-88640692D01*
X185679573Y-88630017D01*
X185785000Y-88100000D01*
X185785000Y-86223690D01*
X188015000Y-86223690D01*
X188015000Y-86814250D01*
X188173750Y-86973000D01*
X189523000Y-86973000D01*
X189523000Y-85873750D01*
X189364250Y-85715000D01*
X188523691Y-85715000D01*
X188290302Y-85811673D01*
X188111673Y-85990301D01*
X188015000Y-86223690D01*
X185785000Y-86223690D01*
X185785000Y-84922038D01*
X185885317Y-84903162D01*
X186101441Y-84764090D01*
X186246431Y-84551890D01*
X186297440Y-84300000D01*
X186297440Y-82761246D01*
X186523686Y-82535000D01*
X189048631Y-82535000D01*
X189215000Y-82568093D01*
X189215000Y-82568093D01*
G37*
X189215000Y-82568093D02*
X189215000Y-83260002D01*
X189320427Y-83790019D01*
X189447083Y-83979573D01*
X189620657Y-84239345D01*
X191215000Y-85833688D01*
X191215000Y-86054695D01*
X191188327Y-85990301D01*
X191009698Y-85811673D01*
X190776309Y-85715000D01*
X189935750Y-85715000D01*
X189777000Y-85873750D01*
X189777000Y-86973000D01*
X189797000Y-86973000D01*
X189797000Y-87227000D01*
X189777000Y-87227000D01*
X189777000Y-87247000D01*
X189523000Y-87247000D01*
X189523000Y-87227000D01*
X188173750Y-87227000D01*
X188015000Y-87385750D01*
X188015000Y-87976310D01*
X188111673Y-88209699D01*
X188153634Y-88251660D01*
X188053569Y-88398110D01*
X188002560Y-88650000D01*
X188002560Y-89134082D01*
X185659765Y-91476877D01*
X185660000Y-91476309D01*
X185660000Y-90885750D01*
X185501250Y-90727000D01*
X184527000Y-90727000D01*
X184527000Y-91826250D01*
X184685750Y-91985000D01*
X185151310Y-91985000D01*
X185151877Y-91984765D01*
X184746642Y-92390000D01*
X181618356Y-92390000D01*
X181263356Y-92035000D01*
X181514250Y-92035000D01*
X181673000Y-91876250D01*
X181673000Y-90777000D01*
X181927000Y-90777000D01*
X181927000Y-91876250D01*
X182085750Y-92035000D01*
X182551310Y-92035000D01*
X182784699Y-91938327D01*
X182963327Y-91759698D01*
X183060000Y-91526309D01*
X183060000Y-90935750D01*
X183010000Y-90885750D01*
X183140000Y-90885750D01*
X183140000Y-91476309D01*
X183236673Y-91709698D01*
X183415301Y-91888327D01*
X183648690Y-91985000D01*
X184114250Y-91985000D01*
X184273000Y-91826250D01*
X184273000Y-90727000D01*
X183298750Y-90727000D01*
X183140000Y-90885750D01*
X183010000Y-90885750D01*
X182901250Y-90777000D01*
X181927000Y-90777000D01*
X181673000Y-90777000D01*
X181653000Y-90777000D01*
X181653000Y-90523000D01*
X181673000Y-90523000D01*
X181673000Y-90503000D01*
X181927000Y-90503000D01*
X181927000Y-90523000D01*
X182901250Y-90523000D01*
X183060000Y-90364250D01*
X183060000Y-89773691D01*
X182963327Y-89540302D01*
X182822090Y-89399064D01*
X182876441Y-89364090D01*
X183021431Y-89151890D01*
X183072440Y-88900000D01*
X183072440Y-88388770D01*
X183120427Y-88630017D01*
X183127560Y-88640692D01*
X183127560Y-88850000D01*
X183171838Y-89085317D01*
X183310910Y-89301441D01*
X183379006Y-89347969D01*
X183236673Y-89490302D01*
X183140000Y-89723691D01*
X183140000Y-90314250D01*
X183298750Y-90473000D01*
X184273000Y-90473000D01*
X184273000Y-90453000D01*
X184527000Y-90453000D01*
X184527000Y-90473000D01*
X185501250Y-90473000D01*
X185660000Y-90314250D01*
X185660000Y-89723691D01*
X185563327Y-89490302D01*
X185422090Y-89349064D01*
X185476441Y-89314090D01*
X185621431Y-89101890D01*
X185672440Y-88850000D01*
X185672440Y-88640692D01*
X185679573Y-88630017D01*
X185785000Y-88100000D01*
X185785000Y-86223690D01*
X188015000Y-86223690D01*
X188015000Y-86814250D01*
X188173750Y-86973000D01*
X189523000Y-86973000D01*
X189523000Y-85873750D01*
X189364250Y-85715000D01*
X188523691Y-85715000D01*
X188290302Y-85811673D01*
X188111673Y-85990301D01*
X188015000Y-86223690D01*
X185785000Y-86223690D01*
X185785000Y-84922038D01*
X185885317Y-84903162D01*
X186101441Y-84764090D01*
X186246431Y-84551890D01*
X186297440Y-84300000D01*
X186297440Y-82761246D01*
X186523686Y-82535000D01*
X189048631Y-82535000D01*
X189215000Y-82568093D01*
M02*
