EESchema Schematic File Version 2
LIBS:power
LIBS:device
LIBS:transistors
LIBS:conn
LIBS:linear
LIBS:regul
LIBS:74xx
LIBS:cmos4000
LIBS:adc-dac
LIBS:memory
LIBS:xilinx
LIBS:microcontrollers
LIBS:dsp
LIBS:microchip
LIBS:analog_switches
LIBS:motorola
LIBS:texas
LIBS:intel
LIBS:audio
LIBS:interface
LIBS:digital-audio
LIBS:philips
LIBS:display
LIBS:cypress
LIBS:siliconi
LIBS:opto
LIBS:atmel
LIBS:contrib
LIBS:valves
LIBS:ControllerBoard-cache
EELAYER 25 0
EELAYER END
$Descr A4 11693 8268
encoding utf-8
Sheet 1 1
Title ""
Date ""
Rev ""
Comp ""
Comment1 ""
Comment2 ""
Comment3 ""
Comment4 ""
$EndDescr
$Comp
L ATMEGA168-20AU U1
U 1 1 59853498
P 5700 3700
F 0 "U1" H 4950 4950 50  0000 L BNN
F 1 "ATMEGA168-20AU" H 6150 2300 50  0000 L BNN
F 2 "Housings_QFP:TQFP-32_7x7mm_Pitch0.8mm" H 5700 3700 50  0001 C CIN
F 3 "" H 5700 3700 50  0001 C CNN
	1    5700 3700
	1    0    0    -1  
$EndComp
$Comp
L AVR-ISP-6 CON1
U 1 1 59853503
P 7800 2200
F 0 "CON1" H 7695 2440 50  0000 C CNN
F 1 "AVR-ISP-6" H 7535 1970 50  0000 L BNN
F 2 "Connectors:IDC_Header_Straight_6pins" V 7280 2240 50  0001 C CNN
F 3 "" H 7775 2200 50  0001 C CNN
	1    7800 2200
	1    0    0    -1  
$EndComp
$Comp
L C_Small C2
U 1 1 598535B8
P 3850 3050
F 0 "C2" H 3860 3120 50  0000 L CNN
F 1 "0.1uF" H 3860 2970 50  0000 L CNN
F 2 "Capacitors_SMD:C_0805_HandSoldering" H 3850 3050 50  0001 C CNN
F 3 "" H 3850 3050 50  0001 C CNN
	1    3850 3050
	1    0    0    -1  
$EndComp
$Comp
L C_Small C3
U 1 1 59853699
P 4150 3050
F 0 "C3" H 4160 3120 50  0000 L CNN
F 1 "0.1uF" H 4160 2970 50  0000 L CNN
F 2 "Capacitors_SMD:C_0805_HandSoldering" H 4150 3050 50  0001 C CNN
F 3 "" H 4150 3050 50  0001 C CNN
	1    4150 3050
	1    0    0    -1  
$EndComp
$Comp
L C_Small C4
U 1 1 5985373A
P 4450 3050
F 0 "C4" H 4460 3120 50  0000 L CNN
F 1 "0.1uF" H 4460 2970 50  0000 L CNN
F 2 "Capacitors_SMD:C_0805_HandSoldering" H 4450 3050 50  0001 C CNN
F 3 "" H 4450 3050 50  0001 C CNN
	1    4450 3050
	1    0    0    -1  
$EndComp
$Comp
L C_Small C1
U 1 1 59853799
P 8250 3400
F 0 "C1" H 8260 3470 50  0000 L CNN
F 1 "0.1uF" H 8260 3320 50  0000 L CNN
F 2 "Capacitors_SMD:C_0805_HandSoldering" H 8250 3400 50  0001 C CNN
F 3 "" H 8250 3400 50  0001 C CNN
	1    8250 3400
	1    0    0    -1  
$EndComp
$Comp
L LED D1
U 1 1 59853C33
P 7300 3850
F 0 "D1" H 7300 3950 50  0000 C CNN
F 1 "LED" H 7300 3750 50  0000 C CNN
F 2 "LEDs:LED_1206_HandSoldering" H 7300 3850 50  0001 C CNN
F 3 "" H 7300 3850 50  0001 C CNN
	1    7300 3850
	0    -1   -1   0   
$EndComp
$Comp
L LED D2
U 1 1 59853C6E
P 7600 3850
F 0 "D2" H 7600 3950 50  0000 C CNN
F 1 "LED" H 7600 3750 50  0000 C CNN
F 2 "LEDs:LED_1206_HandSoldering" H 7600 3850 50  0001 C CNN
F 3 "" H 7600 3850 50  0001 C CNN
	1    7600 3850
	0    -1   -1   0   
$EndComp
$Comp
L LED D3
U 1 1 59853CA7
P 7900 3850
F 0 "D3" H 7900 3950 50  0000 C CNN
F 1 "LED" H 7900 3750 50  0000 C CNN
F 2 "LEDs:LED_1206_HandSoldering" H 7900 3850 50  0001 C CNN
F 3 "" H 7900 3850 50  0001 C CNN
	1    7900 3850
	0    -1   -1   0   
$EndComp
$Comp
L GND #PWR01
U 1 1 59853E30
P 8250 3550
F 0 "#PWR01" H 8250 3300 50  0001 C CNN
F 1 "GND" H 8250 3400 50  0000 C CNN
F 2 "" H 8250 3550 50  0001 C CNN
F 3 "" H 8250 3550 50  0001 C CNN
	1    8250 3550
	1    0    0    -1  
$EndComp
$Comp
L GND #PWR02
U 1 1 59853E60
P 8050 4600
F 0 "#PWR02" H 8050 4350 50  0001 C CNN
F 1 "GND" H 8050 4450 50  0000 C CNN
F 2 "" H 8050 4600 50  0001 C CNN
F 3 "" H 8050 4600 50  0001 C CNN
	1    8050 4600
	1    0    0    -1  
$EndComp
$Comp
L GND #PWR03
U 1 1 59853E90
P 4700 4950
F 0 "#PWR03" H 4700 4700 50  0001 C CNN
F 1 "GND" H 4700 4800 50  0000 C CNN
F 2 "" H 4700 4950 50  0001 C CNN
F 3 "" H 4700 4950 50  0001 C CNN
	1    4700 4950
	1    0    0    -1  
$EndComp
$Comp
L GND #PWR04
U 1 1 59853ECE
P 4150 3300
F 0 "#PWR04" H 4150 3050 50  0001 C CNN
F 1 "GND" H 4150 3150 50  0000 C CNN
F 2 "" H 4150 3300 50  0001 C CNN
F 3 "" H 4150 3300 50  0001 C CNN
	1    4150 3300
	1    0    0    -1  
$EndComp
$Comp
L +3.3V #PWR05
U 1 1 598540BE
P 4150 2400
F 0 "#PWR05" H 4150 2250 50  0001 C CNN
F 1 "+3.3V" H 4150 2540 50  0000 C CNN
F 2 "" H 4150 2400 50  0001 C CNN
F 3 "" H 4150 2400 50  0001 C CNN
	1    4150 2400
	1    0    0    -1  
$EndComp
$Comp
L +3.3V #PWR06
U 1 1 598540FC
P 8350 2100
F 0 "#PWR06" H 8350 1950 50  0001 C CNN
F 1 "+3.3V" H 8350 2240 50  0000 C CNN
F 2 "" H 8350 2100 50  0001 C CNN
F 3 "" H 8350 2100 50  0001 C CNN
	1    8350 2100
	1    0    0    -1  
$EndComp
$Comp
L +3.3V #PWR07
U 1 1 59854148
P 7900 3100
F 0 "#PWR07" H 7900 2950 50  0001 C CNN
F 1 "+3.3V" H 7900 3240 50  0000 C CNN
F 2 "" H 7900 3100 50  0001 C CNN
F 3 "" H 7900 3100 50  0001 C CNN
	1    7900 3100
	1    0    0    -1  
$EndComp
$Comp
L R R1
U 1 1 59854BAB
P 7300 3400
F 0 "R1" V 7380 3400 50  0000 C CNN
F 1 "1k" V 7300 3400 50  0000 C CNN
F 2 "Resistors_SMD:R_0805_HandSoldering" V 7230 3400 50  0001 C CNN
F 3 "" H 7300 3400 50  0001 C CNN
	1    7300 3400
	1    0    0    -1  
$EndComp
$Comp
L R R2
U 1 1 59854C28
P 7600 3400
F 0 "R2" V 7680 3400 50  0000 C CNN
F 1 "1k" V 7600 3400 50  0000 C CNN
F 2 "Resistors_SMD:R_0805_HandSoldering" V 7530 3400 50  0001 C CNN
F 3 "" H 7600 3400 50  0001 C CNN
	1    7600 3400
	1    0    0    -1  
$EndComp
$Comp
L R R3
U 1 1 59854C67
P 7900 3400
F 0 "R3" V 7980 3400 50  0000 C CNN
F 1 "1k" V 7900 3400 50  0000 C CNN
F 2 "Resistors_SMD:R_0805_HandSoldering" V 7830 3400 50  0001 C CNN
F 3 "" H 7900 3400 50  0001 C CNN
	1    7900 3400
	1    0    0    -1  
$EndComp
Wire Wire Line
	4700 4700 4700 4950
Wire Wire Line
	4700 4900 4800 4900
Wire Wire Line
	4800 4800 4700 4800
Connection ~ 4700 4900
Wire Wire Line
	4800 4700 4700 4700
Connection ~ 4700 4800
Wire Wire Line
	6700 4600 7200 4600
Wire Wire Line
	7200 4700 6700 4700
Wire Wire Line
	6700 4800 7200 4800
Wire Wire Line
	7200 4900 6700 4900
Wire Wire Line
	8050 4600 8050 4500
Wire Wire Line
	8050 4500 8100 4500
Wire Wire Line
	7250 4200 8100 4200
Wire Wire Line
	7250 4200 7250 4300
Wire Wire Line
	7250 4300 6700 4300
Wire Wire Line
	7400 4300 8100 4300
Wire Wire Line
	7400 4300 7400 4400
Wire Wire Line
	7400 4400 6700 4400
Wire Wire Line
	6700 4200 7000 4200
Wire Wire Line
	7000 4200 7000 4350
Wire Wire Line
	7000 4350 7550 4350
Wire Wire Line
	7550 4350 7550 4400
Wire Wire Line
	7550 4400 8100 4400
Wire Wire Line
	4150 2400 4150 2950
Wire Wire Line
	3850 2950 3850 2600
Wire Wire Line
	3850 2600 4800 2600
Connection ~ 4150 2600
Wire Wire Line
	4800 2700 4150 2700
Connection ~ 4150 2700
Wire Wire Line
	4450 2950 4450 2900
Wire Wire Line
	4150 2900 4800 2900
Wire Wire Line
	4150 3150 4150 3300
Wire Wire Line
	3850 3150 3850 3250
Wire Wire Line
	3850 3250 4450 3250
Connection ~ 4150 3250
Wire Wire Line
	4450 3250 4450 3150
Connection ~ 4150 2900
Connection ~ 4450 2900
Wire Wire Line
	7300 3700 7300 3550
Wire Wire Line
	7600 3550 7600 3700
Wire Wire Line
	7900 3550 7900 3700
Wire Wire Line
	7300 4000 7300 4200
Connection ~ 7300 4200
Wire Wire Line
	7600 4000 7600 4400
Connection ~ 7600 4400
Wire Wire Line
	7900 4000 7900 4300
Connection ~ 7900 4300
Wire Wire Line
	7900 3100 7900 3250
Wire Wire Line
	7600 3250 7600 3150
Wire Wire Line
	7300 3150 8250 3150
Connection ~ 7900 3150
Wire Wire Line
	7300 3250 7300 3150
Connection ~ 7600 3150
Wire Wire Line
	8250 3150 8250 3300
Wire Wire Line
	8250 3550 8250 3500
Wire Wire Line
	7900 2100 8350 2100
Wire Wire Line
	7650 2100 7300 2100
Wire Wire Line
	7650 2200 7300 2200
Wire Wire Line
	7650 2300 7300 2300
Wire Wire Line
	7900 2200 8350 2200
Text Label 8350 2200 0    60   ~ 0
MOSI
$Comp
L GND #PWR08
U 1 1 59856AF9
P 8250 2350
F 0 "#PWR08" H 8250 2100 50  0001 C CNN
F 1 "GND" H 8250 2200 50  0000 C CNN
F 2 "" H 8250 2350 50  0001 C CNN
F 3 "" H 8250 2350 50  0001 C CNN
	1    8250 2350
	1    0    0    -1  
$EndComp
Wire Wire Line
	7900 2300 8250 2300
Wire Wire Line
	8250 2300 8250 2350
Text Label 7300 2100 2    60   ~ 0
MISO
Text Label 7300 2200 2    60   ~ 0
SCK
Text Label 7300 2300 2    60   ~ 0
RST
Wire Wire Line
	6700 2900 6900 2900
Wire Wire Line
	6700 3000 6900 3000
Wire Wire Line
	6700 3100 6900 3100
Wire Wire Line
	6700 4050 6850 4050
Text Label 6850 4050 0    60   ~ 0
RST
Text Label 6900 3100 0    60   ~ 0
SCK
Text Label 6900 3000 0    60   ~ 0
MISO
Text Label 6900 2900 0    60   ~ 0
MOSI
$Comp
L CONN_01X02 J3
U 1 1 598929E5
P 8300 4250
F 0 "J3" H 8300 4400 50  0000 C CNN
F 1 "C1" V 8400 4250 50  0000 C CNN
F 2 "Pin_Headers:Pin_Header_Straight_1x02_Pitch2.54mm" H 8300 4250 50  0001 C CNN
F 3 "" H 8300 4250 50  0001 C CNN
	1    8300 4250
	1    0    0    -1  
$EndComp
$Comp
L CONN_01X02 J4
U 1 1 59892A2C
P 8300 4450
F 0 "J4" H 8300 4600 50  0000 C CNN
F 1 "C2" V 8400 4450 50  0000 C CNN
F 2 "Pin_Headers:Pin_Header_Straight_1x02_Pitch2.54mm" H 8300 4450 50  0001 C CNN
F 3 "" H 8300 4450 50  0001 C CNN
	1    8300 4450
	1    0    0    -1  
$EndComp
$Comp
L CONN_01X02 J2
U 1 1 59892AF8
P 7400 4850
F 0 "J2" H 7400 5000 50  0000 C CNN
F 1 "M2" V 7500 4850 50  0000 C CNN
F 2 "Pin_Headers:Pin_Header_Straight_1x02_Pitch2.54mm" H 7400 4850 50  0001 C CNN
F 3 "" H 7400 4850 50  0001 C CNN
	1    7400 4850
	1    0    0    -1  
$EndComp
$Comp
L CONN_01X02 J1
U 1 1 59892A99
P 7400 4650
F 0 "J1" H 7400 4800 50  0000 C CNN
F 1 "M1" V 7500 4650 50  0000 C CNN
F 2 "Pin_Headers:Pin_Header_Straight_1x02_Pitch2.54mm" H 7400 4650 50  0001 C CNN
F 3 "" H 7400 4650 50  0001 C CNN
	1    7400 4650
	1    0    0    -1  
$EndComp
$Comp
L CONN_01X02 J5
U 1 1 59B1045C
P 7400 5250
F 0 "J5" H 7400 5400 50  0000 C CNN
F 1 "CONN_01X02" V 7500 5250 50  0000 C CNN
F 2 "Pin_Headers:Pin_Header_Straight_1x02_Pitch2.54mm" H 7400 5250 50  0001 C CNN
F 3 "" H 7400 5250 50  0001 C CNN
	1    7400 5250
	1    0    0    -1  
$EndComp
Wire Wire Line
	7200 5200 7200 5425
Connection ~ 7200 5300
$Comp
L GND #PWR09
U 1 1 59B105BA
P 7200 5425
F 0 "#PWR09" H 7200 5175 50  0001 C CNN
F 1 "GND" H 7200 5275 50  0000 C CNN
F 2 "" H 7200 5425 50  0001 C CNN
F 3 "" H 7200 5425 50  0001 C CNN
	1    7200 5425
	1    0    0    -1  
$EndComp
Text Notes 8775 5325 2    60   ~ 0
For Motor Controller GND\n
Text Notes 7050 5900 2    60   ~ 0
PD5/6 are PWM output\nOC0B/OC0A respectively. Weird they are flipped
$Comp
L CONN_01X02 J6
U 1 1 59B18948
P 5675 1725
F 0 "J6" H 5675 1875 50  0000 C CNN
F 1 "CONN_01X02" V 5775 1725 50  0000 C CNN
F 2 "Connectors_JST:JST_PH_S2B-PH-SM4-TB_02x2.00mm_Angled" H 5675 1725 50  0001 C CNN
F 3 "" H 5675 1725 50  0001 C CNN
	1    5675 1725
	0    -1   1    0   
$EndComp
Wire Wire Line
	5625 1525 5625 1150
Wire Wire Line
	5725 1525 5950 1525
Wire Wire Line
	5950 1525 5950 1625
$Comp
L GND #PWR010
U 1 1 59B18D4D
P 5950 1625
F 0 "#PWR010" H 5950 1375 50  0001 C CNN
F 1 "GND" H 5950 1475 50  0000 C CNN
F 2 "" H 5950 1625 50  0001 C CNN
F 3 "" H 5950 1625 50  0001 C CNN
	1    5950 1625
	1    0    0    -1  
$EndComp
$Comp
L AZ1117-3.3 U2
U 1 1 59B1913C
P 4525 1575
F 0 "U2" H 4375 1700 50  0001 C CNN
F 1 "AZ1117-3.3" H 4350 1775 50  0000 L CNN
F 2 "TO_SOT_Packages_SMD:SOT-223-3Lead_TabPin2" H 4525 1825 50  0001 C CIN
F 3 "//www.diodes.com/assets/Datasheets/AZ1117E.pdf1" H 4525 1575 50  0001 C CNN
	1    4525 1575
	1    0    0    -1  
$EndComp
Wire Wire Line
	3950 1575 4225 1575
Wire Wire Line
	3950 1575 3950 1500
$Comp
L +5V #PWR011
U 1 1 59B19408
P 3950 1500
F 0 "#PWR011" H 3950 1350 50  0001 C CNN
F 1 "+5V" H 3950 1640 50  0000 C CNN
F 2 "" H 3950 1500 50  0001 C CNN
F 3 "" H 3950 1500 50  0001 C CNN
	1    3950 1500
	1    0    0    -1  
$EndComp
Wire Wire Line
	4100 1575 4100 1625
Connection ~ 4100 1575
$Comp
L C C5
U 1 1 59B19784
P 4100 1775
F 0 "C5" H 4125 1875 50  0000 L CNN
F 1 "1uF" H 4125 1675 50  0000 L CNN
F 2 "Capacitors_SMD:C_0805_HandSoldering" H 4138 1625 50  0001 C CNN
F 3 "" H 4100 1775 50  0001 C CNN
	1    4100 1775
	1    0    0    -1  
$EndComp
Wire Wire Line
	4100 1925 4100 1950
Wire Wire Line
	4100 1950 4950 1950
Wire Wire Line
	4525 1875 4525 2050
Connection ~ 4525 1950
Wire Wire Line
	4950 1950 4950 1925
$Comp
L C C6
U 1 1 59B19A95
P 4950 1775
F 0 "C6" H 4975 1875 50  0000 L CNN
F 1 "1uF" H 4975 1675 50  0000 L CNN
F 2 "Capacitors_SMD:C_0805_HandSoldering" H 4988 1625 50  0001 C CNN
F 3 "" H 4950 1775 50  0001 C CNN
	1    4950 1775
	1    0    0    -1  
$EndComp
Wire Wire Line
	4950 1625 4950 1575
Wire Wire Line
	4825 1575 5075 1575
Wire Wire Line
	5075 1575 5075 1525
Connection ~ 4950 1575
$Comp
L +3.3V #PWR012
U 1 1 59B19D32
P 5075 1525
F 0 "#PWR012" H 5075 1375 50  0001 C CNN
F 1 "+3.3V" H 5075 1665 50  0000 C CNN
F 2 "" H 5075 1525 50  0001 C CNN
F 3 "" H 5075 1525 50  0001 C CNN
	1    5075 1525
	1    0    0    -1  
$EndComp
$Comp
L GND #PWR013
U 1 1 59B19F72
P 4525 2050
F 0 "#PWR013" H 4525 1800 50  0001 C CNN
F 1 "GND" H 4525 1900 50  0000 C CNN
F 2 "" H 4525 2050 50  0001 C CNN
F 3 "" H 4525 2050 50  0001 C CNN
	1    4525 2050
	1    0    0    -1  
$EndComp
$Comp
L +5V #PWR014
U 1 1 59B1A362
P 5625 1150
F 0 "#PWR014" H 5625 1000 50  0001 C CNN
F 1 "+5V" H 5625 1290 50  0000 C CNN
F 2 "" H 5625 1150 50  0001 C CNN
F 3 "" H 5625 1150 50  0001 C CNN
	1    5625 1150
	1    0    0    -1  
$EndComp
$Comp
L CP1 C7
U 1 1 59B1A402
P 5850 1350
F 0 "C7" H 5875 1450 50  0000 L CNN
F 1 "10uF" H 5875 1250 50  0000 L CNN
F 2 "Capacitors_Tantalum_SMD:CP_Tantalum_Case-T_EIA-3528-12_Hand" H 5850 1350 50  0001 C CNN
F 3 "" H 5850 1350 50  0001 C CNN
	1    5850 1350
	1    0    0    -1  
$EndComp
Wire Wire Line
	5625 1200 5850 1200
Connection ~ 5625 1200
Wire Wire Line
	5850 1500 5850 1525
Connection ~ 5850 1525
$EndSCHEMATC
