(module TerminalBlock_Phoenix_MPT-2.54mm_4pol (layer F.Cu) (tedit 59C8F4B3)
  (descr "4-way 2.54mm pitch terminal block, Phoenix MPT series")
  (fp_text reference REF** (at 3.81 -4.50088) (layer F.SilkS)
    (effects (font (size 1 1) (thickness 0.15)))
  )
  (fp_text value TerminalBlock_Phoenix_MPT-2.54mm_4pol (at 3.81 4.50088) (layer F.Fab)
    (effects (font (size 1 1) (thickness 0.15)))
  )
  (fp_line (start -1.778 -3.302) (end 9.398 -3.302) (layer F.CrtYd) (width 0.05))
  (fp_line (start -1.778 3.302) (end -1.778 -3.302) (layer F.CrtYd) (width 0.05))
  (fp_line (start 9.398 3.302) (end -1.778 3.302) (layer F.CrtYd) (width 0.05))
  (fp_line (start 9.398 -3.302) (end 9.398 3.302) (layer F.CrtYd) (width 0.05))
  (fp_line (start 9.11098 -3.0988) (end -1.49098 -3.0988) (layer F.SilkS) (width 0.15))
  (fp_line (start -1.49098 -2.70002) (end 9.11098 -2.70002) (layer F.SilkS) (width 0.15))
  (fp_line (start -1.49098 2.60096) (end 9.11098 2.60096) (layer F.SilkS) (width 0.15))
  (fp_line (start 9.11098 3.0988) (end -1.49098 3.0988) (layer F.SilkS) (width 0.15))
  (fp_line (start 6.30682 2.60096) (end 6.30682 3.0988) (layer F.SilkS) (width 0.15))
  (fp_line (start 3.81 2.60096) (end 3.81 3.0988) (layer F.SilkS) (width 0.15))
  (fp_line (start -1.28778 3.0988) (end -1.28778 2.60096) (layer F.SilkS) (width 0.15))
  (fp_line (start 8.91032 2.60096) (end 8.91032 3.0988) (layer F.SilkS) (width 0.15))
  (fp_line (start 1.31318 3.0988) (end 1.31318 2.60096) (layer F.SilkS) (width 0.15))
  (fp_line (start 9.10844 3.0988) (end 9.10844 -3.0988) (layer F.SilkS) (width 0.15))
  (fp_line (start -1.4859 -3.0988) (end -1.4859 3.0988) (layer F.SilkS) (width 0.15))
  (pad 4 thru_hole oval (at 7.62 0 180) (size 1.99898 1.99898) (drill 1.09728) (layers *.Cu *.Mask))
  (pad 1 thru_hole rect (at 0 0 180) (size 1.99898 1.99898) (drill 1.09728) (layers *.Cu *.Mask))
  (pad 2 thru_hole oval (at 2.54 0 180) (size 1.99898 1.99898) (drill 1.09728) (layers *.Cu *.Mask))
  (pad 3 thru_hole oval (at 5.08 0 180) (size 1.99898 1.99898) (drill 1.09728) (layers *.Cu *.Mask))
  (model Terminal_Blocks.3dshapes/TerminalBlock_Pheonix_MPT-2.54mm_4pol.wrl
    (at (xyz 0.15 0 0))
    (scale (xyz 1 1 1))
    (rotate (xyz 0 0 0))
  )
)
