(module TerminalBlock_Phoenix_MPT-2.54mm_8pol (layer F.Cu) (tedit 59C8F4B3)
  (descr "8-way 2.54mm pitch terminal block, Phoenix MPT series")
  (fp_text reference REF** (at 8.89 -4.50088) (layer F.SilkS)
    (effects (font (size 1 1) (thickness 0.15)))
  )
  (fp_text value TerminalBlock_Phoenix_MPT-2.54mm_8pol (at 8.89 4.50088) (layer F.Fab)
    (effects (font (size 1 1) (thickness 0.15)))
  )
  (fp_line (start -1.778 -3.302) (end 19.558 -3.302) (layer F.CrtYd) (width 0.05))
  (fp_line (start -1.778 3.302) (end -1.778 -3.302) (layer F.CrtYd) (width 0.05))
  (fp_line (start 19.558 3.302) (end -1.778 3.302) (layer F.CrtYd) (width 0.05))
  (fp_line (start 19.558 -3.302) (end 19.558 3.302) (layer F.CrtYd) (width 0.05))
  (fp_line (start 19.28876 -3.0988) (end -1.50876 -3.0988) (layer F.SilkS) (width 0.15))
  (fp_line (start -1.50876 -2.70002) (end 19.28876 -2.70002) (layer F.SilkS) (width 0.15))
  (fp_line (start 19.28876 3.0988) (end -1.50876 3.0988) (layer F.SilkS) (width 0.15))
  (fp_line (start -1.50876 2.60096) (end 19.28876 2.60096) (layer F.SilkS) (width 0.15))
  (fp_line (start 8.89 2.60096) (end 8.89 3.0988) (layer F.SilkS) (width 0.15))
  (fp_line (start 16.48968 2.60096) (end 16.48968 3.0988) (layer F.SilkS) (width 0.15))
  (fp_line (start 13.99032 2.60096) (end 13.99032 3.0988) (layer F.SilkS) (width 0.15))
  (fp_line (start 11.3919 2.60096) (end 11.3919 3.0988) (layer F.SilkS) (width 0.15))
  (fp_line (start 6.39064 2.60096) (end 6.39064 3.0988) (layer F.SilkS) (width 0.15))
  (fp_line (start 3.79222 2.60096) (end 3.79222 3.0988) (layer F.SilkS) (width 0.15))
  (fp_line (start -1.3081 3.0988) (end -1.3081 2.60096) (layer F.SilkS) (width 0.15))
  (fp_line (start 19.0881 2.60096) (end 19.0881 3.0988) (layer F.SilkS) (width 0.15))
  (fp_line (start 1.2954 3.0988) (end 1.2954 2.60096) (layer F.SilkS) (width 0.15))
  (fp_line (start 19.28622 3.0988) (end 19.28622 -3.0988) (layer F.SilkS) (width 0.15))
  (fp_line (start -1.50622 -3.0988) (end -1.50622 3.0988) (layer F.SilkS) (width 0.15))
  (pad 4 thru_hole oval (at 7.62 0 180) (size 1.99898 1.99898) (drill 1.09728) (layers *.Cu *.Mask))
  (pad 1 thru_hole rect (at 0 0 180) (size 1.99898 1.99898) (drill 1.09728) (layers *.Cu *.Mask))
  (pad 2 thru_hole oval (at 2.54 0 180) (size 1.99898 1.99898) (drill 1.09728) (layers *.Cu *.Mask))
  (pad 3 thru_hole oval (at 5.08 0 180) (size 1.99898 1.99898) (drill 1.09728) (layers *.Cu *.Mask))
  (pad 5 thru_hole oval (at 10.16 0 180) (size 1.99898 1.99898) (drill 1.09728) (layers *.Cu *.Mask))
  (pad 6 thru_hole oval (at 12.7 0 180) (size 1.99898 1.99898) (drill 1.09728) (layers *.Cu *.Mask))
  (pad 7 thru_hole oval (at 15.24 0 180) (size 1.99898 1.99898) (drill 1.09728) (layers *.Cu *.Mask))
  (pad 8 thru_hole oval (at 17.78 0 180) (size 1.99898 1.99898) (drill 1.09728) (layers *.Cu *.Mask))
  (model Terminal_Blocks.3dshapes/TerminalBlock_Pheonix_MPT-2.54mm_8pol.wrl
    (at (xyz 0.35 0 0))
    (scale (xyz 1 1 1))
    (rotate (xyz 0 0 0))
  )
)
