(module TerminalBlock_Phoenix_PT-3.5mm_3pol (layer F.Cu) (tedit 59C8F4B3)
  (descr "3-way 3.5mm pitch terminal block, Phoenix PT series")
  (fp_text reference REF** (at 3.5 -4.3) (layer F.SilkS)
    (effects (font (size 1 1) (thickness 0.15)))
  )
  (fp_text value TerminalBlock_Phoenix_PT-3.5mm_3pol (at 3.5 6) (layer F.Fab)
    (effects (font (size 1 1) (thickness 0.15)))
  )
  (fp_line (start -2 -3.3) (end 9 -3.3) (layer F.CrtYd) (width 0.05))
  (fp_line (start -2 4.7) (end -2 -3.3) (layer F.CrtYd) (width 0.05))
  (fp_line (start 9 4.7) (end -2 4.7) (layer F.CrtYd) (width 0.05))
  (fp_line (start 9 -3.3) (end 9 4.7) (layer F.CrtYd) (width 0.05))
  (fp_line (start 1.7 4.1) (end 1.7 4.5) (layer F.SilkS) (width 0.15))
  (fp_line (start 5.3 4.1) (end 5.3 4.5) (layer F.SilkS) (width 0.15))
  (fp_line (start -1.8 3) (end 8.8 3) (layer F.SilkS) (width 0.15))
  (fp_line (start -1.8 4.1) (end 8.8 4.1) (layer F.SilkS) (width 0.15))
  (fp_line (start -1.8 -3.1) (end -1.8 4.5) (layer F.SilkS) (width 0.15))
  (fp_line (start 8.8 4.5) (end 8.8 -3.1) (layer F.SilkS) (width 0.15))
  (fp_line (start 8.8 -3.1) (end -1.8 -3.1) (layer F.SilkS) (width 0.15))
  (pad 2 thru_hole circle (at 3.5 0) (size 2.4 2.4) (drill 1.2) (layers *.Cu *.Mask))
  (pad 3 thru_hole circle (at 7 0) (size 2.4 2.4) (drill 1.2) (layers *.Cu *.Mask))
  (pad 1 thru_hole rect (at 0 0) (size 2.4 2.4) (drill 1.2) (layers *.Cu *.Mask))
  (model Terminal_Blocks.3dshapes/TerminalBlock_Pheonix_PT-3.5mm_3pol.wrl
    (at (xyz 0 0 0))
    (scale (xyz 1 1 1))
    (rotate (xyz 0 0 0))
  )
)
