(module TerminalBlock_Phoenix_MKDS1.5-4pol (layer F.Cu) (tedit 59C8F4B2)
  (descr "4-way 5mm pitch terminal block, Phoenix MKDS series")
  (fp_text reference REF** (at 7.5 5.9) (layer F.SilkS)
    (effects (font (size 1 1) (thickness 0.15)))
  )
  (fp_text value TerminalBlock_Phoenix_MKDS1.5-4pol (at 7.5 -6.6) (layer F.Fab)
    (effects (font (size 1 1) (thickness 0.15)))
  )
  (fp_line (start -2.7 -5.4) (end 17.7 -5.4) (layer F.CrtYd) (width 0.05))
  (fp_line (start -2.7 4.8) (end -2.7 -5.4) (layer F.CrtYd) (width 0.05))
  (fp_line (start 17.7 4.8) (end -2.7 4.8) (layer F.CrtYd) (width 0.05))
  (fp_line (start 17.7 -5.4) (end 17.7 4.8) (layer F.CrtYd) (width 0.05))
  (fp_line (start 12.5 4.1) (end 12.5 4.6) (layer F.SilkS) (width 0.15))
  (fp_line (start 7.5 4.1) (end 7.5 4.6) (layer F.SilkS) (width 0.15))
  (fp_line (start 2.5 4.1) (end 2.5 4.6) (layer F.SilkS) (width 0.15))
  (fp_line (start -2.5 2.6) (end 17.5 2.6) (layer F.SilkS) (width 0.15))
  (fp_line (start -2.5 -2.3) (end 17.5 -2.3) (layer F.SilkS) (width 0.15))
  (fp_line (start -2.5 4.1) (end 17.5 4.1) (layer F.SilkS) (width 0.15))
  (fp_line (start -2.5 4.6) (end 17.5 4.6) (layer F.SilkS) (width 0.15))
  (fp_line (start 17.5 4.6) (end 17.5 -5.2) (layer F.SilkS) (width 0.15))
  (fp_line (start 17.5 -5.2) (end -2.5 -5.2) (layer F.SilkS) (width 0.15))
  (fp_line (start -2.5 -5.2) (end -2.5 4.6) (layer F.SilkS) (width 0.15))
  (fp_circle (center 15 0.1) (end 13 0.1) (layer F.SilkS) (width 0.15))
  (fp_circle (center 10 0.1) (end 8 0.1) (layer F.SilkS) (width 0.15))
  (fp_circle (center 5 0.1) (end 3 0.1) (layer F.SilkS) (width 0.15))
  (fp_circle (center 0 0.1) (end 2 0.1) (layer F.SilkS) (width 0.15))
  (pad 4 thru_hole circle (at 15 0) (size 2.5 2.5) (drill 1.3) (layers *.Cu *.Mask))
  (pad 3 thru_hole circle (at 10 0) (size 2.5 2.5) (drill 1.3) (layers *.Cu *.Mask))
  (pad 1 thru_hole rect (at 0 0) (size 2.5 2.5) (drill 1.3) (layers *.Cu *.Mask))
  (pad 2 thru_hole circle (at 5 0) (size 2.5 2.5) (drill 1.3) (layers *.Cu *.Mask))
  (model Terminal_Blocks.3dshapes/TerminalBlock_Pheonix_MKDS1.5-4pol.wrl
    (at (xyz 0.2953 0 0))
    (scale (xyz 1 1 1))
    (rotate (xyz 0 0 0))
  )
)
