(module TerminalBlock_Phoenix_MPT-2.54mm_10pol (layer F.Cu) (tedit 59C8F4B3)
  (descr "10-way 2.54mm pitch terminal block, Phoenix MPT series")
  (fp_text reference REF** (at 11.43 -4.50088) (layer F.SilkS)
    (effects (font (size 1 1) (thickness 0.15)))
  )
  (fp_text value TerminalBlock_Phoenix_MPT-2.54mm_10pol (at 11.43 4.50088) (layer F.Fab)
    (effects (font (size 1 1) (thickness 0.15)))
  )
  (fp_line (start -1.8 -3.3) (end 24.6 -3.3) (layer F.CrtYd) (width 0.05))
  (fp_line (start -1.8 3.3) (end -1.8 -3.3) (layer F.CrtYd) (width 0.05))
  (fp_line (start 24.6 3.3) (end -1.8 3.3) (layer F.CrtYd) (width 0.05))
  (fp_line (start 24.6 -3.3) (end 24.6 3.3) (layer F.CrtYd) (width 0.05))
  (fp_line (start 11.43 2.60096) (end 11.43 3.0988) (layer F.SilkS) (width 0.15))
  (fp_line (start 24.42972 -2.70002) (end -1.56972 -2.70002) (layer F.SilkS) (width 0.15))
  (fp_line (start -1.56972 -3.0988) (end 24.42972 -3.0988) (layer F.SilkS) (width 0.15))
  (fp_line (start 24.42972 2.60096) (end -1.56972 2.60096) (layer F.SilkS) (width 0.15))
  (fp_line (start -1.56972 3.0988) (end 24.42972 3.0988) (layer F.SilkS) (width 0.15))
  (fp_line (start 8.93064 2.60096) (end 8.93064 3.0988) (layer F.SilkS) (width 0.15))
  (fp_line (start 13.92936 2.60096) (end 13.92936 3.0988) (layer F.SilkS) (width 0.15))
  (fp_line (start 21.63064 2.60096) (end 21.63064 3.0988) (layer F.SilkS) (width 0.15))
  (fp_line (start 19.02968 2.60096) (end 19.02968 3.0988) (layer F.SilkS) (width 0.15))
  (fp_line (start 16.53286 2.60096) (end 16.53286 3.0988) (layer F.SilkS) (width 0.15))
  (fp_line (start 6.32968 2.60096) (end 6.32968 3.0988) (layer F.SilkS) (width 0.15))
  (fp_line (start 3.83286 2.60096) (end 3.83286 3.0988) (layer F.SilkS) (width 0.15))
  (fp_line (start -1.36906 3.0988) (end -1.36906 2.60096) (layer F.SilkS) (width 0.15))
  (fp_line (start 24.22906 2.60096) (end 24.22906 3.0988) (layer F.SilkS) (width 0.15))
  (fp_line (start 1.23444 3.0988) (end 1.23444 2.60096) (layer F.SilkS) (width 0.15))
  (fp_line (start 24.42718 3.0988) (end 24.42718 -3.0988) (layer F.SilkS) (width 0.15))
  (fp_line (start -1.56718 -3.0988) (end -1.56718 3.0988) (layer F.SilkS) (width 0.15))
  (pad 4 thru_hole oval (at 7.62 0 180) (size 1.99898 1.99898) (drill 1.09728) (layers *.Cu *.Mask))
  (pad 1 thru_hole rect (at 0 0 180) (size 1.99898 1.99898) (drill 1.09728) (layers *.Cu *.Mask))
  (pad 2 thru_hole oval (at 2.54 0 180) (size 1.99898 1.99898) (drill 1.09728) (layers *.Cu *.Mask))
  (pad 3 thru_hole oval (at 5.08 0 180) (size 1.99898 1.99898) (drill 1.09728) (layers *.Cu *.Mask))
  (pad 5 thru_hole oval (at 10.16 0 180) (size 1.99898 1.99898) (drill 1.09728) (layers *.Cu *.Mask))
  (pad 6 thru_hole oval (at 12.7 0 180) (size 1.99898 1.99898) (drill 1.09728) (layers *.Cu *.Mask))
  (pad 7 thru_hole oval (at 15.24 0 180) (size 1.99898 1.99898) (drill 1.09728) (layers *.Cu *.Mask))
  (pad 8 thru_hole oval (at 17.78 0 180) (size 1.99898 1.99898) (drill 1.09728) (layers *.Cu *.Mask))
  (pad 9 thru_hole oval (at 20.32 0 180) (size 1.99898 1.99898) (drill 1.09728) (layers *.Cu *.Mask))
  (pad 10 thru_hole oval (at 22.86 0 180) (size 1.99898 1.99898) (drill 1.09728) (layers *.Cu *.Mask))
  (model Terminal_Blocks.3dshapes/TerminalBlock_Pheonix_MPT-2.54mm_10pol.wrl
    (at (xyz 0.45 0 0))
    (scale (xyz 1 1 1))
    (rotate (xyz 0 0 0))
  )
)
