(module TerminalBlock_Phoenix_MPT-2.54mm_5pol (layer F.Cu) (tedit 59C8F4B3)
  (descr "5-way 2.54mm pitch terminal block, Phoenix MPT series")
  (fp_text reference REF** (at 5.08 -4.50088) (layer F.SilkS)
    (effects (font (size 1 1) (thickness 0.15)))
  )
  (fp_text value TerminalBlock_Phoenix_MPT-2.54mm_5pol (at 5.08 4.50088) (layer F.Fab)
    (effects (font (size 1 1) (thickness 0.15)))
  )
  (fp_line (start -1.778 -3.302) (end 11.938 -3.302) (layer F.CrtYd) (width 0.05))
  (fp_line (start -1.778 3.302) (end -1.778 -3.302) (layer F.CrtYd) (width 0.05))
  (fp_line (start 11.938 3.302) (end -1.778 3.302) (layer F.CrtYd) (width 0.05))
  (fp_line (start 11.938 -3.302) (end 11.938 3.302) (layer F.CrtYd) (width 0.05))
  (fp_line (start 8.87984 2.60096) (end 8.87984 3.0988) (layer F.SilkS) (width 0.15))
  (fp_line (start 11.67892 3.0988) (end -1.51892 3.0988) (layer F.SilkS) (width 0.15))
  (fp_line (start -1.51892 2.60096) (end 11.67892 2.60096) (layer F.SilkS) (width 0.15))
  (fp_line (start -1.51892 -2.70002) (end 11.67892 -2.70002) (layer F.SilkS) (width 0.15))
  (fp_line (start 11.67892 -3.0988) (end -1.51892 -3.0988) (layer F.SilkS) (width 0.15))
  (fp_line (start 6.37794 2.60096) (end 6.37794 3.0988) (layer F.SilkS) (width 0.15))
  (fp_line (start 3.77952 2.60096) (end 3.77952 3.0988) (layer F.SilkS) (width 0.15))
  (fp_line (start -1.31826 3.0988) (end -1.31826 2.60096) (layer F.SilkS) (width 0.15))
  (fp_line (start 11.47826 2.60096) (end 11.47826 3.0988) (layer F.SilkS) (width 0.15))
  (fp_line (start 1.2827 3.0988) (end 1.2827 2.60096) (layer F.SilkS) (width 0.15))
  (fp_line (start 11.67638 3.0988) (end 11.67638 -3.0988) (layer F.SilkS) (width 0.15))
  (fp_line (start -1.51638 -3.0988) (end -1.51638 3.0988) (layer F.SilkS) (width 0.15))
  (pad 4 thru_hole oval (at 7.62 0 180) (size 1.99898 1.99898) (drill 1.09728) (layers *.Cu *.Mask))
  (pad 1 thru_hole rect (at 0 0 180) (size 1.99898 1.99898) (drill 1.09728) (layers *.Cu *.Mask))
  (pad 2 thru_hole oval (at 2.54 0 180) (size 1.99898 1.99898) (drill 1.09728) (layers *.Cu *.Mask))
  (pad 3 thru_hole oval (at 5.08 0 180) (size 1.99898 1.99898) (drill 1.09728) (layers *.Cu *.Mask))
  (pad 5 thru_hole oval (at 10.16 0 180) (size 1.99898 1.99898) (drill 1.09728) (layers *.Cu *.Mask))
  (model Terminal_Blocks.3dshapes/TerminalBlock_Pheonix_MPT-2.54mm_5pol.wrl
    (at (xyz 0.2 0 0))
    (scale (xyz 1 1 1))
    (rotate (xyz 0 0 0))
  )
)
