(module TerminalBlock_Phoenix_PT-3.5mm_14pol (layer F.Cu) (tedit 59C8F4B3)
  (descr "14-way 3.5mm pitch terminal block, Phoenix PT series")
  (fp_text reference REF** (at 22.75 -4.3) (layer F.SilkS)
    (effects (font (size 1 1) (thickness 0.15)))
  )
  (fp_text value TerminalBlock_Phoenix_PT-3.5mm_14pol (at 22.75 6) (layer F.Fab)
    (effects (font (size 1 1) (thickness 0.15)))
  )
  (fp_line (start -1.9 -3.3) (end 47.4 -3.3) (layer F.CrtYd) (width 0.05))
  (fp_line (start -1.9 4.7) (end -1.9 -3.3) (layer F.CrtYd) (width 0.05))
  (fp_line (start 47.4 4.7) (end -1.9 4.7) (layer F.CrtYd) (width 0.05))
  (fp_line (start 47.4 -3.3) (end 47.4 4.7) (layer F.CrtYd) (width 0.05))
  (fp_line (start 40.25 4.1) (end 40.25 4.5) (layer F.SilkS) (width 0.15))
  (fp_line (start 43.75 4.1) (end 43.75 4.5) (layer F.SilkS) (width 0.15))
  (fp_line (start 36.75 4.1) (end 36.75 4.5) (layer F.SilkS) (width 0.15))
  (fp_line (start 33.25 4.1) (end 33.25 4.5) (layer F.SilkS) (width 0.15))
  (fp_line (start 26.25 4.1) (end 26.25 4.5) (layer F.SilkS) (width 0.15))
  (fp_line (start 29.75 4.1) (end 29.75 4.5) (layer F.SilkS) (width 0.15))
  (fp_line (start 22.75 4.1) (end 22.75 4.5) (layer F.SilkS) (width 0.15))
  (fp_line (start 8.75 4.1) (end 8.75 4.5) (layer F.SilkS) (width 0.15))
  (fp_line (start 19.25 4.1) (end 19.25 4.5) (layer F.SilkS) (width 0.15))
  (fp_line (start 15.75 4.1) (end 15.75 4.5) (layer F.SilkS) (width 0.15))
  (fp_line (start 1.75 4.1) (end 1.75 4.5) (layer F.SilkS) (width 0.15))
  (fp_line (start 5.25 4.1) (end 5.25 4.5) (layer F.SilkS) (width 0.15))
  (fp_line (start 12.25 4.1) (end 12.25 4.5) (layer F.SilkS) (width 0.15))
  (fp_line (start -1.75 3) (end 47.25 3) (layer F.SilkS) (width 0.15))
  (fp_line (start -1.75 4.1) (end 47.25 4.1) (layer F.SilkS) (width 0.15))
  (fp_line (start -1.75 -3.1) (end -1.75 4.5) (layer F.SilkS) (width 0.15))
  (fp_line (start 47.25 4.5) (end 47.25 -3.1) (layer F.SilkS) (width 0.15))
  (fp_line (start 47.25 -3.1) (end -1.75 -3.1) (layer F.SilkS) (width 0.15))
  (pad 3 thru_hole circle (at 7 0 180) (size 2.4 2.4) (drill 1.2) (layers *.Cu *.Mask))
  (pad 2 thru_hole circle (at 3.5 0 180) (size 2.4 2.4) (drill 1.2) (layers *.Cu *.Mask))
  (pad 4 thru_hole circle (at 10.5 0 180) (size 2.4 2.4) (drill 1.2) (layers *.Cu *.Mask))
  (pad 5 thru_hole circle (at 14 0 180) (size 2.4 2.4) (drill 1.2) (layers *.Cu *.Mask))
  (pad 6 thru_hole circle (at 17.5 0 180) (size 2.4 2.4) (drill 1.2) (layers *.Cu *.Mask))
  (pad 7 thru_hole circle (at 21 0 180) (size 2.4 2.4) (drill 1.2) (layers *.Cu *.Mask))
  (pad 1 thru_hole rect (at 0 0 180) (size 2.4 2.4) (drill 1.2) (layers *.Cu *.Mask))
  (pad 8 thru_hole circle (at 24.5 0 180) (size 2.4 2.4) (drill 1.2) (layers *.Cu *.Mask))
  (pad 9 thru_hole circle (at 28 0 180) (size 2.4 2.4) (drill 1.2) (layers *.Cu *.Mask))
  (pad 10 thru_hole circle (at 31.5 0 180) (size 2.4 2.4) (drill 1.2) (layers *.Cu *.Mask))
  (pad 11 thru_hole circle (at 35 0 180) (size 2.4 2.4) (drill 1.2) (layers *.Cu *.Mask))
  (pad 12 thru_hole circle (at 38.5 0 180) (size 2.4 2.4) (drill 1.2) (layers *.Cu *.Mask))
  (pad 13 thru_hole circle (at 42 0 180) (size 2.4 2.4) (drill 1.2) (layers *.Cu *.Mask))
  (pad 14 thru_hole circle (at 45.5 0 180) (size 2.4 2.4) (drill 1.2) (layers *.Cu *.Mask))
  (model Terminal_Blocks.3dshapes/TerminalBlock_Pheonix_PT-3.5mm_14pol.wrl
    (at (xyz 0 0 0))
    (scale (xyz 1 1 1))
    (rotate (xyz 0 0 0))
  )
)
