(module TerminalBlock_Phoenix_PT-3.5mm_2pol (layer F.Cu) (tedit 59C8F4B3)
  (descr "2-way 3.5mm pitch terminal block, Phoenix PT series")
  (fp_text reference REF** (at 1.75 -4.3) (layer F.SilkS)
    (effects (font (size 1 1) (thickness 0.15)))
  )
  (fp_text value TerminalBlock_Phoenix_PT-3.5mm_2pol (at 1.75 6) (layer F.Fab)
    (effects (font (size 1 1) (thickness 0.15)))
  )
  (fp_line (start -1.9 -3.3) (end 5.4 -3.3) (layer F.CrtYd) (width 0.05))
  (fp_line (start -1.9 4.7) (end -1.9 -3.3) (layer F.CrtYd) (width 0.05))
  (fp_line (start 5.4 4.7) (end -1.9 4.7) (layer F.CrtYd) (width 0.05))
  (fp_line (start 5.4 -3.3) (end 5.4 4.7) (layer F.CrtYd) (width 0.05))
  (fp_line (start 1.75 4.1) (end 1.75 4.5) (layer F.SilkS) (width 0.15))
  (fp_line (start -1.75 3) (end 5.25 3) (layer F.SilkS) (width 0.15))
  (fp_line (start -1.75 4.1) (end 5.25 4.1) (layer F.SilkS) (width 0.15))
  (fp_line (start -1.75 -3.1) (end -1.75 4.5) (layer F.SilkS) (width 0.15))
  (fp_line (start 5.25 4.5) (end 5.25 -3.1) (layer F.SilkS) (width 0.15))
  (fp_line (start 5.25 -3.1) (end -1.75 -3.1) (layer F.SilkS) (width 0.15))
  (pad 2 thru_hole circle (at 3.5 0) (size 2.4 2.4) (drill 1.2) (layers *.Cu *.Mask))
  (pad 1 thru_hole rect (at 0 0) (size 2.4 2.4) (drill 1.2) (layers *.Cu *.Mask))
  (model Terminal_Blocks.3dshapes/TerminalBlock_Pheonix_PT-3.5mm_2pol.wrl
    (at (xyz 0 0 0))
    (scale (xyz 1 1 1))
    (rotate (xyz 0 0 0))
  )
)
