(module IDC-Header_2x05_Pitch2.54mm_Angled (layer F.Cu) (tedit 59D23425)
  (descr "10 pins through hole IDC header")
  (tags "IDC header socket VASCH")
  (fp_text reference REF** (at 6.105 -6.35) (layer F.SilkS)
    (effects (font (size 1 1) (thickness 0.15)))
  )
  (fp_text value IDC-Header_2x05_Pitch2.54mm_Angled (at 6.105 16.51) (layer F.Fab)
    (effects (font (size 0.7 0.7) (thickness 0.1)))
  )
  (fp_text user %R (at 8.805 5.08 90) (layer F.Fab)
    (effects (font (size 1 1) (thickness 0.15)))
  )
  (fp_line (start -0.32 -0.32) (end -0.32 0.32) (layer F.Fab) (width 0.1))
  (fp_line (start -0.32 0.32) (end 4.38 0.32) (layer F.Fab) (width 0.1))
  (fp_line (start -0.32 10.48) (end 4.38 10.48) (layer F.Fab) (width 0.1))
  (fp_line (start -0.32 2.22) (end -0.32 2.86) (layer F.Fab) (width 0.1))
  (fp_line (start -0.32 2.86) (end 4.38 2.86) (layer F.Fab) (width 0.1))
  (fp_line (start -0.32 4.76) (end -0.32 5.4) (layer F.Fab) (width 0.1))
  (fp_line (start -0.32 5.4) (end 4.38 5.4) (layer F.Fab) (width 0.1))
  (fp_line (start -0.32 7.3) (end -0.32 7.94) (layer F.Fab) (width 0.1))
  (fp_line (start -0.32 7.94) (end 4.38 7.94) (layer F.Fab) (width 0.1))
  (fp_line (start -0.32 9.84) (end -0.32 10.48) (layer F.Fab) (width 0.1))
  (fp_line (start 13.23 15.24) (end 13.23 -5.08) (layer F.Fab) (width 0.1))
  (fp_line (start 4.38 -0.32) (end -0.32 -0.32) (layer F.Fab) (width 0.1))
  (fp_line (start 4.38 -4.08) (end 5.38 -5.08) (layer F.Fab) (width 0.1))
  (fp_line (start 4.38 15.24) (end 13.23 15.24) (layer F.Fab) (width 0.1))
  (fp_line (start 4.38 15.24) (end 4.38 -4.08) (layer F.Fab) (width 0.1))
  (fp_line (start 4.38 2.22) (end -0.32 2.22) (layer F.Fab) (width 0.1))
  (fp_line (start 4.38 2.83) (end 13.23 2.83) (layer F.Fab) (width 0.1))
  (fp_line (start 4.38 4.76) (end -0.32 4.76) (layer F.Fab) (width 0.1))
  (fp_line (start 4.38 7.3) (end -0.32 7.3) (layer F.Fab) (width 0.1))
  (fp_line (start 4.38 7.33) (end 13.23 7.33) (layer F.Fab) (width 0.1))
  (fp_line (start 4.38 9.84) (end -0.32 9.84) (layer F.Fab) (width 0.1))
  (fp_line (start 5.38 -5.08) (end 13.23 -5.08) (layer F.Fab) (width 0.1))
  (fp_line (start -1.27 -1.27) (end -1.27 0) (layer F.SilkS) (width 0.12))
  (fp_line (start 0 -1.27) (end -1.27 -1.27) (layer F.SilkS) (width 0.12))
  (fp_line (start 13.48 -5.33) (end 13.48 15.49) (layer F.SilkS) (width 0.12))
  (fp_line (start 4.13 -5.33) (end 13.48 -5.33) (layer F.SilkS) (width 0.12))
  (fp_line (start 4.13 15.49) (end 13.48 15.49) (layer F.SilkS) (width 0.12))
  (fp_line (start 4.13 15.49) (end 4.13 -5.33) (layer F.SilkS) (width 0.12))
  (fp_line (start 4.13 2.83) (end 13.48 2.83) (layer F.SilkS) (width 0.12))
  (fp_line (start 4.13 7.33) (end 13.48 7.33) (layer F.SilkS) (width 0.12))
  (fp_line (start -1.52 -5.58) (end 13.73 -5.58) (layer F.CrtYd) (width 0.05))
  (fp_line (start -1.52 15.74) (end -1.52 -5.58) (layer F.CrtYd) (width 0.05))
  (fp_line (start 13.73 -5.58) (end 13.73 15.74) (layer F.CrtYd) (width 0.05))
  (fp_line (start 13.73 15.74) (end -1.52 15.74) (layer F.CrtYd) (width 0.05))
  (pad 1 thru_hole rect (at 0 0) (size 1.7272 1.7272) (drill 1.016) (layers *.Cu *.Mask))
  (pad 2 thru_hole oval (at 2.54 0) (size 1.7272 1.7272) (drill 1.016) (layers *.Cu *.Mask))
  (pad 3 thru_hole oval (at 0 2.54) (size 1.7272 1.7272) (drill 1.016) (layers *.Cu *.Mask))
  (pad 4 thru_hole oval (at 2.54 2.54) (size 1.7272 1.7272) (drill 1.016) (layers *.Cu *.Mask))
  (pad 5 thru_hole oval (at 0 5.08) (size 1.7272 1.7272) (drill 1.016) (layers *.Cu *.Mask))
  (pad 6 thru_hole oval (at 2.54 5.08) (size 1.7272 1.7272) (drill 1.016) (layers *.Cu *.Mask))
  (pad 7 thru_hole oval (at 0 7.62) (size 1.7272 1.7272) (drill 1.016) (layers *.Cu *.Mask))
  (pad 8 thru_hole oval (at 2.54 7.62) (size 1.7272 1.7272) (drill 1.016) (layers *.Cu *.Mask))
  (pad 9 thru_hole oval (at 0 10.16) (size 1.7272 1.7272) (drill 1.016) (layers *.Cu *.Mask))
  (pad 10 thru_hole oval (at 2.54 10.16) (size 1.7272 1.7272) (drill 1.016) (layers *.Cu *.Mask))
  (model ${KISYS3DMOD}/Connectors_IDC.3dshapes/IDC-Header_2x05_Pitch2.54mm_Angled.wrl
    (at (xyz 0 0 0))
    (scale (xyz 1 1 1))
    (rotate (xyz 0 0 0))
  )
)
