(module IDC-Header_2x30_Pitch2.54mm_Straight (layer F.Cu) (tedit 59C6EA7C)
  (descr "60 pins through hole IDC header")
  (tags "IDC header socket VASCH")
  (fp_text reference REF** (at 36.83 -7.62) (layer F.SilkS)
    (effects (font (size 1 1) (thickness 0.15)))
  )
  (fp_text value IDC-Header_2x30_Pitch2.54mm_Straight (at 36.83 1.85) (layer F.Fab)
    (effects (font (size 1 1) (thickness 0.15)))
  )
  (fp_text user 1 (at 0.02 1.72) (layer F.SilkS)
    (effects (font (size 1 1) (thickness 0.12)))
  )
  (fp_text user %R (at 36.83 -4.445) (layer F.Fab)
    (effects (font (size 1 1) (thickness 0.15)))
  )
  (fp_line (start -5.08 -5.82) (end 78.74 -5.82) (layer F.Fab) (width 0.1))
  (fp_line (start -4.54 -5.27) (end 78.18 -5.27) (layer F.Fab) (width 0.1))
  (fp_line (start -5.08 3.28) (end 78.74 3.28) (layer F.Fab) (width 0.1))
  (fp_line (start -4.54 2.73) (end 34.58 2.73) (layer F.Fab) (width 0.1))
  (fp_line (start 39.08 2.73) (end 78.18 2.73) (layer F.Fab) (width 0.1))
  (fp_line (start 34.58 2.73) (end 34.58 3.28) (layer F.Fab) (width 0.1))
  (fp_line (start 39.08 2.73) (end 39.08 3.28) (layer F.Fab) (width 0.1))
  (fp_line (start -5.08 -5.82) (end -5.08 3.28) (layer F.Fab) (width 0.1))
  (fp_line (start -4.54 -5.27) (end -4.54 2.73) (layer F.Fab) (width 0.1))
  (fp_line (start 78.74 -5.82) (end 78.74 3.28) (layer F.Fab) (width 0.1))
  (fp_line (start 78.18 -5.27) (end 78.18 2.73) (layer F.Fab) (width 0.1))
  (fp_line (start -5.08 -5.82) (end -4.54 -5.27) (layer F.Fab) (width 0.1))
  (fp_line (start 78.74 -5.82) (end 78.18 -5.27) (layer F.Fab) (width 0.1))
  (fp_line (start -5.08 3.28) (end -4.54 2.73) (layer F.Fab) (width 0.1))
  (fp_line (start 78.74 3.28) (end 78.18 2.73) (layer F.Fab) (width 0.1))
  (fp_line (start -5.58 -6.32) (end 79.24 -6.32) (layer F.CrtYd) (width 0.05))
  (fp_line (start 79.24 -6.32) (end 79.24 3.78) (layer F.CrtYd) (width 0.05))
  (fp_line (start 79.24 3.78) (end -5.58 3.78) (layer F.CrtYd) (width 0.05))
  (fp_line (start -5.58 3.78) (end -5.58 -6.32) (layer F.CrtYd) (width 0.05))
  (fp_line (start -5.33 -6.07) (end 78.99 -6.07) (layer F.SilkS) (width 0.12))
  (fp_line (start 78.99 -6.07) (end 78.99 3.53) (layer F.SilkS) (width 0.12))
  (fp_line (start 78.99 3.53) (end -5.33 3.53) (layer F.SilkS) (width 0.12))
  (fp_line (start -5.33 3.53) (end -5.33 -6.07) (layer F.SilkS) (width 0.12))
  (pad 1 thru_hole rect (at 0 0) (size 1.7272 1.7272) (drill 1.016) (layers *.Cu *.Mask))
  (pad 2 thru_hole oval (at 0 -2.54) (size 1.7272 1.7272) (drill 1.016) (layers *.Cu *.Mask))
  (pad 3 thru_hole oval (at 2.54 0) (size 1.7272 1.7272) (drill 1.016) (layers *.Cu *.Mask))
  (pad 4 thru_hole oval (at 2.54 -2.54) (size 1.7272 1.7272) (drill 1.016) (layers *.Cu *.Mask))
  (pad 5 thru_hole oval (at 5.08 0) (size 1.7272 1.7272) (drill 1.016) (layers *.Cu *.Mask))
  (pad 6 thru_hole oval (at 5.08 -2.54) (size 1.7272 1.7272) (drill 1.016) (layers *.Cu *.Mask))
  (pad 7 thru_hole oval (at 7.62 0) (size 1.7272 1.7272) (drill 1.016) (layers *.Cu *.Mask))
  (pad 8 thru_hole oval (at 7.62 -2.54) (size 1.7272 1.7272) (drill 1.016) (layers *.Cu *.Mask))
  (pad 9 thru_hole oval (at 10.16 0) (size 1.7272 1.7272) (drill 1.016) (layers *.Cu *.Mask))
  (pad 10 thru_hole oval (at 10.16 -2.54) (size 1.7272 1.7272) (drill 1.016) (layers *.Cu *.Mask))
  (pad 11 thru_hole oval (at 12.7 0) (size 1.7272 1.7272) (drill 1.016) (layers *.Cu *.Mask))
  (pad 12 thru_hole oval (at 12.7 -2.54) (size 1.7272 1.7272) (drill 1.016) (layers *.Cu *.Mask))
  (pad 13 thru_hole oval (at 15.24 0) (size 1.7272 1.7272) (drill 1.016) (layers *.Cu *.Mask))
  (pad 14 thru_hole oval (at 15.24 -2.54) (size 1.7272 1.7272) (drill 1.016) (layers *.Cu *.Mask))
  (pad 15 thru_hole oval (at 17.78 0) (size 1.7272 1.7272) (drill 1.016) (layers *.Cu *.Mask))
  (pad 16 thru_hole oval (at 17.78 -2.54) (size 1.7272 1.7272) (drill 1.016) (layers *.Cu *.Mask))
  (pad 17 thru_hole oval (at 20.32 0) (size 1.7272 1.7272) (drill 1.016) (layers *.Cu *.Mask))
  (pad 18 thru_hole oval (at 20.32 -2.54) (size 1.7272 1.7272) (drill 1.016) (layers *.Cu *.Mask))
  (pad 19 thru_hole oval (at 22.86 0) (size 1.7272 1.7272) (drill 1.016) (layers *.Cu *.Mask))
  (pad 20 thru_hole oval (at 22.86 -2.54) (size 1.7272 1.7272) (drill 1.016) (layers *.Cu *.Mask))
  (pad 21 thru_hole oval (at 25.4 0) (size 1.7272 1.7272) (drill 1.016) (layers *.Cu *.Mask))
  (pad 22 thru_hole oval (at 25.4 -2.54) (size 1.7272 1.7272) (drill 1.016) (layers *.Cu *.Mask))
  (pad 23 thru_hole oval (at 27.94 0) (size 1.7272 1.7272) (drill 1.016) (layers *.Cu *.Mask))
  (pad 24 thru_hole oval (at 27.94 -2.54) (size 1.7272 1.7272) (drill 1.016) (layers *.Cu *.Mask))
  (pad 25 thru_hole oval (at 30.48 0) (size 1.7272 1.7272) (drill 1.016) (layers *.Cu *.Mask))
  (pad 26 thru_hole oval (at 30.48 -2.54) (size 1.7272 1.7272) (drill 1.016) (layers *.Cu *.Mask))
  (pad 27 thru_hole oval (at 33.02 0) (size 1.7272 1.7272) (drill 1.016) (layers *.Cu *.Mask))
  (pad 28 thru_hole oval (at 33.02 -2.54) (size 1.7272 1.7272) (drill 1.016) (layers *.Cu *.Mask))
  (pad 29 thru_hole oval (at 35.56 0) (size 1.7272 1.7272) (drill 1.016) (layers *.Cu *.Mask))
  (pad 30 thru_hole oval (at 35.56 -2.54) (size 1.7272 1.7272) (drill 1.016) (layers *.Cu *.Mask))
  (pad 31 thru_hole oval (at 38.1 0) (size 1.7272 1.7272) (drill 1.016) (layers *.Cu *.Mask))
  (pad 32 thru_hole oval (at 38.1 -2.54) (size 1.7272 1.7272) (drill 1.016) (layers *.Cu *.Mask))
  (pad 33 thru_hole oval (at 40.64 0) (size 1.7272 1.7272) (drill 1.016) (layers *.Cu *.Mask))
  (pad 34 thru_hole oval (at 40.64 -2.54) (size 1.7272 1.7272) (drill 1.016) (layers *.Cu *.Mask))
  (pad 35 thru_hole oval (at 43.18 0) (size 1.7272 1.7272) (drill 1.016) (layers *.Cu *.Mask))
  (pad 36 thru_hole oval (at 43.18 -2.54) (size 1.7272 1.7272) (drill 1.016) (layers *.Cu *.Mask))
  (pad 37 thru_hole oval (at 45.72 0) (size 1.7272 1.7272) (drill 1.016) (layers *.Cu *.Mask))
  (pad 38 thru_hole oval (at 45.72 -2.54) (size 1.7272 1.7272) (drill 1.016) (layers *.Cu *.Mask))
  (pad 39 thru_hole oval (at 48.26 0) (size 1.7272 1.7272) (drill 1.016) (layers *.Cu *.Mask))
  (pad 40 thru_hole oval (at 48.26 -2.54) (size 1.7272 1.7272) (drill 1.016) (layers *.Cu *.Mask))
  (pad 41 thru_hole oval (at 50.8 0) (size 1.7272 1.7272) (drill 1.016) (layers *.Cu *.Mask))
  (pad 42 thru_hole oval (at 50.8 -2.54) (size 1.7272 1.7272) (drill 1.016) (layers *.Cu *.Mask))
  (pad 43 thru_hole oval (at 53.34 0) (size 1.7272 1.7272) (drill 1.016) (layers *.Cu *.Mask))
  (pad 44 thru_hole oval (at 53.34 -2.54) (size 1.7272 1.7272) (drill 1.016) (layers *.Cu *.Mask))
  (pad 45 thru_hole oval (at 55.88 0) (size 1.7272 1.7272) (drill 1.016) (layers *.Cu *.Mask))
  (pad 46 thru_hole oval (at 55.88 -2.54) (size 1.7272 1.7272) (drill 1.016) (layers *.Cu *.Mask))
  (pad 47 thru_hole oval (at 58.42 0) (size 1.7272 1.7272) (drill 1.016) (layers *.Cu *.Mask))
  (pad 48 thru_hole oval (at 58.42 -2.54) (size 1.7272 1.7272) (drill 1.016) (layers *.Cu *.Mask))
  (pad 49 thru_hole oval (at 60.96 0) (size 1.7272 1.7272) (drill 1.016) (layers *.Cu *.Mask))
  (pad 50 thru_hole oval (at 60.96 -2.54) (size 1.7272 1.7272) (drill 1.016) (layers *.Cu *.Mask))
  (pad 51 thru_hole oval (at 63.5 0) (size 1.7272 1.7272) (drill 1.016) (layers *.Cu *.Mask))
  (pad 52 thru_hole oval (at 63.5 -2.54) (size 1.7272 1.7272) (drill 1.016) (layers *.Cu *.Mask))
  (pad 53 thru_hole oval (at 66.04 0) (size 1.7272 1.7272) (drill 1.016) (layers *.Cu *.Mask))
  (pad 54 thru_hole oval (at 66.04 -2.54) (size 1.7272 1.7272) (drill 1.016) (layers *.Cu *.Mask))
  (pad 55 thru_hole oval (at 68.58 0) (size 1.7272 1.7272) (drill 1.016) (layers *.Cu *.Mask))
  (pad 56 thru_hole oval (at 68.58 -2.54) (size 1.7272 1.7272) (drill 1.016) (layers *.Cu *.Mask))
  (pad 57 thru_hole oval (at 71.12 0) (size 1.7272 1.7272) (drill 1.016) (layers *.Cu *.Mask))
  (pad 58 thru_hole oval (at 71.12 -2.54) (size 1.7272 1.7272) (drill 1.016) (layers *.Cu *.Mask))
  (pad 59 thru_hole oval (at 73.66 0) (size 1.7272 1.7272) (drill 1.016) (layers *.Cu *.Mask))
  (pad 60 thru_hole oval (at 73.66 -2.54) (size 1.7272 1.7272) (drill 1.016) (layers *.Cu *.Mask))
  (model ${KISYS3DMOD}/Connectors_IDC.3dshapes/IDC-Header_2x30_Pitch2.54mm_Straight.wrl
    (at (xyz 0 0 0))
    (scale (xyz 1 1 1))
    (rotate (xyz 0 0 0))
  )
)
