(module IDC-Header_2x06_Pitch2.54mm_Straight (layer F.Cu) (tedit 59C6EA7C)
  (descr "12 pins through hole IDC header")
  (tags "IDC header socket VASCH")
  (fp_text reference REF** (at 6.35 -7.62) (layer F.SilkS)
    (effects (font (size 1 1) (thickness 0.15)))
  )
  (fp_text value IDC-Header_2x06_Pitch2.54mm_Straight (at 6.35 1.85) (layer F.Fab)
    (effects (font (size 1 1) (thickness 0.15)))
  )
  (fp_text user 1 (at 0.02 1.72) (layer F.SilkS)
    (effects (font (size 1 1) (thickness 0.12)))
  )
  (fp_text user %R (at 6.35 -4.445) (layer F.Fab)
    (effects (font (size 1 1) (thickness 0.15)))
  )
  (fp_line (start -5.08 -5.82) (end 17.78 -5.82) (layer F.Fab) (width 0.1))
  (fp_line (start -4.54 -5.27) (end 17.22 -5.27) (layer F.Fab) (width 0.1))
  (fp_line (start -5.08 3.28) (end 17.78 3.28) (layer F.Fab) (width 0.1))
  (fp_line (start -4.54 2.73) (end 4.1 2.73) (layer F.Fab) (width 0.1))
  (fp_line (start 8.6 2.73) (end 17.22 2.73) (layer F.Fab) (width 0.1))
  (fp_line (start 4.1 2.73) (end 4.1 3.28) (layer F.Fab) (width 0.1))
  (fp_line (start 8.6 2.73) (end 8.6 3.28) (layer F.Fab) (width 0.1))
  (fp_line (start -5.08 -5.82) (end -5.08 3.28) (layer F.Fab) (width 0.1))
  (fp_line (start -4.54 -5.27) (end -4.54 2.73) (layer F.Fab) (width 0.1))
  (fp_line (start 17.78 -5.82) (end 17.78 3.28) (layer F.Fab) (width 0.1))
  (fp_line (start 17.22 -5.27) (end 17.22 2.73) (layer F.Fab) (width 0.1))
  (fp_line (start -5.08 -5.82) (end -4.54 -5.27) (layer F.Fab) (width 0.1))
  (fp_line (start 17.78 -5.82) (end 17.22 -5.27) (layer F.Fab) (width 0.1))
  (fp_line (start -5.08 3.28) (end -4.54 2.73) (layer F.Fab) (width 0.1))
  (fp_line (start 17.78 3.28) (end 17.22 2.73) (layer F.Fab) (width 0.1))
  (fp_line (start -5.58 -6.32) (end 18.28 -6.32) (layer F.CrtYd) (width 0.05))
  (fp_line (start 18.28 -6.32) (end 18.28 3.78) (layer F.CrtYd) (width 0.05))
  (fp_line (start 18.28 3.78) (end -5.58 3.78) (layer F.CrtYd) (width 0.05))
  (fp_line (start -5.58 3.78) (end -5.58 -6.32) (layer F.CrtYd) (width 0.05))
  (fp_line (start -5.33 -6.07) (end 18.03 -6.07) (layer F.SilkS) (width 0.12))
  (fp_line (start 18.03 -6.07) (end 18.03 3.53) (layer F.SilkS) (width 0.12))
  (fp_line (start 18.03 3.53) (end -5.33 3.53) (layer F.SilkS) (width 0.12))
  (fp_line (start -5.33 3.53) (end -5.33 -6.07) (layer F.SilkS) (width 0.12))
  (pad 1 thru_hole rect (at 0 0) (size 1.7272 1.7272) (drill 1.016) (layers *.Cu *.Mask))
  (pad 2 thru_hole oval (at 0 -2.54) (size 1.7272 1.7272) (drill 1.016) (layers *.Cu *.Mask))
  (pad 3 thru_hole oval (at 2.54 0) (size 1.7272 1.7272) (drill 1.016) (layers *.Cu *.Mask))
  (pad 4 thru_hole oval (at 2.54 -2.54) (size 1.7272 1.7272) (drill 1.016) (layers *.Cu *.Mask))
  (pad 5 thru_hole oval (at 5.08 0) (size 1.7272 1.7272) (drill 1.016) (layers *.Cu *.Mask))
  (pad 6 thru_hole oval (at 5.08 -2.54) (size 1.7272 1.7272) (drill 1.016) (layers *.Cu *.Mask))
  (pad 7 thru_hole oval (at 7.62 0) (size 1.7272 1.7272) (drill 1.016) (layers *.Cu *.Mask))
  (pad 8 thru_hole oval (at 7.62 -2.54) (size 1.7272 1.7272) (drill 1.016) (layers *.Cu *.Mask))
  (pad 9 thru_hole oval (at 10.16 0) (size 1.7272 1.7272) (drill 1.016) (layers *.Cu *.Mask))
  (pad 10 thru_hole oval (at 10.16 -2.54) (size 1.7272 1.7272) (drill 1.016) (layers *.Cu *.Mask))
  (pad 11 thru_hole oval (at 12.7 0) (size 1.7272 1.7272) (drill 1.016) (layers *.Cu *.Mask))
  (pad 12 thru_hole oval (at 12.7 -2.54) (size 1.7272 1.7272) (drill 1.016) (layers *.Cu *.Mask))
  (model ${KISYS3DMOD}/Connectors_IDC.3dshapes/IDC-Header_2x06_Pitch2.54mm_Straight.wrl
    (at (xyz 0 0 0))
    (scale (xyz 1 1 1))
    (rotate (xyz 0 0 0))
  )
)
