(module IDC-Header_2x08_Pitch2.54mm_Angled (layer F.Cu) (tedit 59D23476)
  (descr "16 pins through hole IDC header")
  (tags "IDC header socket VASCH")
  (fp_text reference REF** (at 6.105 -6.35) (layer F.SilkS)
    (effects (font (size 1 1) (thickness 0.15)))
  )
  (fp_text value IDC-Header_2x08_Pitch2.54mm_Angled (at 6.105 24.384) (layer F.Fab)
    (effects (font (size 1 1) (thickness 0.15)))
  )
  (fp_text user %R (at 8.805 8.89 90) (layer F.Fab)
    (effects (font (size 1 1) (thickness 0.15)))
  )
  (fp_line (start -0.32 -0.32) (end -0.32 0.32) (layer F.Fab) (width 0.1))
  (fp_line (start -0.32 0.32) (end 4.38 0.32) (layer F.Fab) (width 0.1))
  (fp_line (start -0.32 10.48) (end 4.38 10.48) (layer F.Fab) (width 0.1))
  (fp_line (start -0.32 12.38) (end -0.32 13.02) (layer F.Fab) (width 0.1))
  (fp_line (start -0.32 13.02) (end 4.38 13.02) (layer F.Fab) (width 0.1))
  (fp_line (start -0.32 14.92) (end -0.32 15.56) (layer F.Fab) (width 0.1))
  (fp_line (start -0.32 15.56) (end 4.38 15.56) (layer F.Fab) (width 0.1))
  (fp_line (start -0.32 17.46) (end -0.32 18.1) (layer F.Fab) (width 0.1))
  (fp_line (start -0.32 18.1) (end 4.38 18.1) (layer F.Fab) (width 0.1))
  (fp_line (start -0.32 2.22) (end -0.32 2.86) (layer F.Fab) (width 0.1))
  (fp_line (start -0.32 2.86) (end 4.38 2.86) (layer F.Fab) (width 0.1))
  (fp_line (start -0.32 4.76) (end -0.32 5.4) (layer F.Fab) (width 0.1))
  (fp_line (start -0.32 5.4) (end 4.38 5.4) (layer F.Fab) (width 0.1))
  (fp_line (start -0.32 7.3) (end -0.32 7.94) (layer F.Fab) (width 0.1))
  (fp_line (start -0.32 7.94) (end 4.38 7.94) (layer F.Fab) (width 0.1))
  (fp_line (start -0.32 9.84) (end -0.32 10.48) (layer F.Fab) (width 0.1))
  (fp_line (start 13.23 22.86) (end 13.23 -5.08) (layer F.Fab) (width 0.1))
  (fp_line (start 4.38 -0.32) (end -0.32 -0.32) (layer F.Fab) (width 0.1))
  (fp_line (start 4.38 -4.08) (end 5.38 -5.08) (layer F.Fab) (width 0.1))
  (fp_line (start 4.38 11.14) (end 13.23 11.14) (layer F.Fab) (width 0.1))
  (fp_line (start 4.38 12.38) (end -0.32 12.38) (layer F.Fab) (width 0.1))
  (fp_line (start 4.38 14.92) (end -0.32 14.92) (layer F.Fab) (width 0.1))
  (fp_line (start 4.38 17.46) (end -0.32 17.46) (layer F.Fab) (width 0.1))
  (fp_line (start 4.38 2.22) (end -0.32 2.22) (layer F.Fab) (width 0.1))
  (fp_line (start 4.38 22.86) (end 13.23 22.86) (layer F.Fab) (width 0.1))
  (fp_line (start 4.38 22.86) (end 4.38 -4.08) (layer F.Fab) (width 0.1))
  (fp_line (start 4.38 4.76) (end -0.32 4.76) (layer F.Fab) (width 0.1))
  (fp_line (start 4.38 6.64) (end 13.23 6.64) (layer F.Fab) (width 0.1))
  (fp_line (start 4.38 7.3) (end -0.32 7.3) (layer F.Fab) (width 0.1))
  (fp_line (start 4.38 9.84) (end -0.32 9.84) (layer F.Fab) (width 0.1))
  (fp_line (start 5.38 -5.08) (end 13.23 -5.08) (layer F.Fab) (width 0.1))
  (fp_line (start -1.27 -1.27) (end -1.27 0) (layer F.SilkS) (width 0.12))
  (fp_line (start 0 -1.27) (end -1.27 -1.27) (layer F.SilkS) (width 0.12))
  (fp_line (start 13.48 -5.33) (end 13.48 23.11) (layer F.SilkS) (width 0.12))
  (fp_line (start 4.13 -5.33) (end 13.48 -5.33) (layer F.SilkS) (width 0.12))
  (fp_line (start 4.13 11.14) (end 13.48 11.14) (layer F.SilkS) (width 0.12))
  (fp_line (start 4.13 23.11) (end 13.48 23.11) (layer F.SilkS) (width 0.12))
  (fp_line (start 4.13 23.11) (end 4.13 -5.33) (layer F.SilkS) (width 0.12))
  (fp_line (start 4.13 6.64) (end 13.48 6.64) (layer F.SilkS) (width 0.12))
  (fp_line (start -1.52 -5.58) (end 13.73 -5.58) (layer F.CrtYd) (width 0.05))
  (fp_line (start -1.52 23.36) (end -1.52 -5.58) (layer F.CrtYd) (width 0.05))
  (fp_line (start 13.73 -5.58) (end 13.73 23.36) (layer F.CrtYd) (width 0.05))
  (fp_line (start 13.73 23.36) (end -1.52 23.36) (layer F.CrtYd) (width 0.05))
  (pad 1 thru_hole rect (at 0 0) (size 1.7272 1.7272) (drill 1.016) (layers *.Cu *.Mask))
  (pad 2 thru_hole oval (at 2.54 0) (size 1.7272 1.7272) (drill 1.016) (layers *.Cu *.Mask))
  (pad 3 thru_hole oval (at 0 2.54) (size 1.7272 1.7272) (drill 1.016) (layers *.Cu *.Mask))
  (pad 4 thru_hole oval (at 2.54 2.54) (size 1.7272 1.7272) (drill 1.016) (layers *.Cu *.Mask))
  (pad 5 thru_hole oval (at 0 5.08) (size 1.7272 1.7272) (drill 1.016) (layers *.Cu *.Mask))
  (pad 6 thru_hole oval (at 2.54 5.08) (size 1.7272 1.7272) (drill 1.016) (layers *.Cu *.Mask))
  (pad 7 thru_hole oval (at 0 7.62) (size 1.7272 1.7272) (drill 1.016) (layers *.Cu *.Mask))
  (pad 8 thru_hole oval (at 2.54 7.62) (size 1.7272 1.7272) (drill 1.016) (layers *.Cu *.Mask))
  (pad 9 thru_hole oval (at 0 10.16) (size 1.7272 1.7272) (drill 1.016) (layers *.Cu *.Mask))
  (pad 10 thru_hole oval (at 2.54 10.16) (size 1.7272 1.7272) (drill 1.016) (layers *.Cu *.Mask))
  (pad 11 thru_hole oval (at 0 12.7) (size 1.7272 1.7272) (drill 1.016) (layers *.Cu *.Mask))
  (pad 12 thru_hole oval (at 2.54 12.7) (size 1.7272 1.7272) (drill 1.016) (layers *.Cu *.Mask))
  (pad 13 thru_hole oval (at 0 15.24) (size 1.7272 1.7272) (drill 1.016) (layers *.Cu *.Mask))
  (pad 14 thru_hole oval (at 2.54 15.24) (size 1.7272 1.7272) (drill 1.016) (layers *.Cu *.Mask))
  (pad 15 thru_hole oval (at 0 17.78) (size 1.7272 1.7272) (drill 1.016) (layers *.Cu *.Mask))
  (pad 16 thru_hole oval (at 2.54 17.78) (size 1.7272 1.7272) (drill 1.016) (layers *.Cu *.Mask))
  (model ${KISYS3DMOD}/Connectors_IDC.3dshapes/IDC-Header_2x08_Pitch2.54mm_Angled.wrl
    (at (xyz 0 0 0))
    (scale (xyz 1 1 1))
    (rotate (xyz 0 0 0))
  )
)
