EESchema Schematic File Version 2
LIBS:power
LIBS:device
LIBS:transistors
LIBS:conn
LIBS:linear
LIBS:regul
LIBS:74xx
LIBS:cmos4000
LIBS:adc-dac
LIBS:memory
LIBS:xilinx
LIBS:microcontrollers
LIBS:dsp
LIBS:microchip
LIBS:analog_switches
LIBS:motorola
LIBS:texas
LIBS:intel
LIBS:audio
LIBS:interface
LIBS:digital-audio
LIBS:philips
LIBS:display
LIBS:cypress
LIBS:siliconi
LIBS:opto
LIBS:atmel
LIBS:contrib
LIBS:valves
LIBS:74xgxx
LIBS:ac-dc
LIBS:actel
LIBS:allegro
LIBS:Altera
LIBS:analog_devices
LIBS:battery_management
LIBS:bbd
LIBS:bosch
LIBS:brooktre
LIBS:cmos_ieee
LIBS:dc-dc
LIBS:diode
LIBS:elec-unifil
LIBS:ESD_Protection
LIBS:ftdi
LIBS:gennum
LIBS:graphic
LIBS:graphic_symbols
LIBS:hc11
LIBS:infineon
LIBS:intersil
LIBS:ir
LIBS:Lattice
LIBS:leds
LIBS:LEM
LIBS:logo
LIBS:mechanical
LIBS:microchip_dspic33dsc
LIBS:microchip_pic10mcu
LIBS:microchip_pic12mcu
LIBS:microchip_pic16mcu
LIBS:microchip_pic18mcu
LIBS:microchip_pic24mcu
LIBS:microchip_pic32mcu
LIBS:modules
LIBS:motor_drivers
LIBS:motors
LIBS:msp430
LIBS:nordicsemi
LIBS:nxp
LIBS:nxp_armmcu
LIBS:onsemi
LIBS:Oscillators
LIBS:Power_Management
LIBS:powerint
LIBS:maxim
LIBS:pspice
LIBS:references
LIBS:relays
LIBS:rfcom
LIBS:RFSolutions
LIBS:sensors
LIBS:silabs
LIBS:stm8
LIBS:stm32
LIBS:supertex
LIBS:switches
LIBS:transf
LIBS:triac_thyristor
LIBS:ttl_ieee
LIBS:video
LIBS:wiznet
LIBS:Worldsemi
LIBS:Xicor
LIBS:zetex
LIBS:Zilog
LIBS:_electromech
LIBS:_linear
LIBS:_logic
LIBS:_passive
LIBS:_semi
LIBS:74hct125d
LIBS:74hct245
LIBS:75176
LIBS:Abracon
LIBS:acorn_electron_expansion_connector
LIBS:ActiveSemi
LIBS:AMS
LIBS:AnalogDevices
LIBS:AOS
LIBS:arm-swd-header
LIBS:conn-2mm
LIBS:conn-100mil
LIBS:conn-amphenol
LIBS:conn-assmann
LIBS:conn-cui
LIBS:conn-fci
LIBS:conn-jae
LIBS:conn-linx
LIBS:conn-molex
LIBS:conn-special-headers
LIBS:conn-tagconnect
LIBS:conn-te
LIBS:conn-test
LIBS:DiodesInc
LIBS:electomech-misc
LIBS:esp8266-esp-01
LIBS:esp8266-esp-03
LIBS:esp8266-esp-12e
LIBS:Fairchild
LIBS:hm-11
LIBS:iso15
LIBS:LinearTech
LIBS:Littelfuse
LIBS:logic-4000
LIBS:logic-7400
LIBS:logic-7400-new
LIBS:lpc11u14fbd48
LIBS:MACOM
LIBS:Macrofab
LIBS:mcp1700t-3302e-tt
LIBS:mcp73831t-2aci-ot
LIBS:micro_usb_socket
LIBS:Micron
LIBS:mke02z64vld2
LIBS:mke04z8vtg4
LIBS:Murata
LIBS:nRF24L01+
LIBS:nrf24l01p_smd
LIBS:nrf51822-04
LIBS:OceanOptics
LIBS:pasv-BelFuse
LIBS:pasv-BiTech
LIBS:pasv-Bourns
LIBS:pasv-cap
LIBS:pasv-ind
LIBS:pasv-Murata
LIBS:pasv-res
LIBS:pasv-TDK
LIBS:pasv-xtal
LIBS:pcb
LIBS:pp_ws2812b
LIBS:Recom
LIBS:recom-r1se
LIBS:Richtek
LIBS:semi-diode-DiodesInc
LIBS:semi-diode-generic
LIBS:semi-diode-MCC
LIBS:semi-diode-NXP
LIBS:semi-diode-OnSemi
LIBS:semi-diode-Semtech
LIBS:semi-diode-ST
LIBS:semi-diode-Toshiba
LIBS:semi-opto-generic
LIBS:semi-opto-liteon
LIBS:semi-thyristor-generic
LIBS:semi-trans-AOS
LIBS:semi-trans-DiodesInc
LIBS:semi-trans-EPC
LIBS:semi-trans-Fairchild
LIBS:semi-trans-generic
LIBS:semi-trans-Infineon
LIBS:semi-trans-IRF
LIBS:semi-trans-IXYS
LIBS:semi-trans-NXP
LIBS:semi-trans-OnSemi
LIBS:semi-trans-Panasonic
LIBS:semi-trans-ST
LIBS:semi-trans-TI
LIBS:semi-trans-Toshiba
LIBS:semi-trans-Vishay
LIBS:skyworks
LIBS:ST
LIBS:st_ic
LIBS:stm32f37xxx_48pin
LIBS:stm32f102xx_48pin
LIBS:stm32f103c8t6-module-china
LIBS:stm32f302xx_48pin
LIBS:symbol
LIBS:TexasInstruments
LIBS:uart_pp
LIBS:u-blox
LIBS:usb_plug
LIBS:Vishay
LIBS:Winbond
LIBS:Control_Board_Rev_A-cache
EELAYER 25 0
EELAYER END
$Descr A4 11693 8268
encoding utf-8
Sheet 1 3
Title ""
Date ""
Rev ""
Comp ""
Comment1 ""
Comment2 ""
Comment3 ""
Comment4 ""
$EndDescr
$Comp
L GND #PWR01
U 1 1 5951789A
P 3550 5650
F 0 "#PWR01" H 3550 5400 50  0001 C CNN
F 1 "GND" H 3550 5500 50  0000 C CNN
F 2 "" H 3550 5650 50  0001 C CNN
F 3 "" H 3550 5650 50  0001 C CNN
	1    3550 5650
	1    0    0    -1  
$EndComp
$Comp
L GND #PWR02
U 1 1 595AA2E9
P 5300 6625
F 0 "#PWR02" H 5300 6375 50  0001 C CNN
F 1 "GND" H 5300 6475 50  0000 C CNN
F 2 "" H 5300 6625 50  0001 C CNN
F 3 "" H 5300 6625 50  0001 C CNN
	1    5300 6625
	1    0    0    -1  
$EndComp
$Comp
L 75176 U2
U 1 1 5951627A
P 4850 6075
F 0 "U2" H 4850 6425 60  0000 C CNN
F 1 "75176" H 4850 6325 60  0000 C CNN
F 2 "Housings_SOIC:SOIC-8_3.9x4.9mm_Pitch1.27mm" H 4850 5775 60  0001 C CNN
F 3 "https://www.digikey.com/product-detail/en/exar-corporation/SP3072EEN-L-TR/1016-1784-1-ND/3586501" H 4800 6475 60  0001 C CNN
	1    4850 6075
	1    0    0    -1  
$EndComp
$Comp
L R R2
U 1 1 595DDDFA
P 5450 5725
F 0 "R2" V 5530 5725 50  0000 C CNN
F 1 "1k" V 5450 5725 50  0000 C CNN
F 2 "Resistors_SMD:R_0805_HandSoldering" V 5380 5725 50  0001 C CNN
F 3 "" H 5450 5725 50  0001 C CNN
	1    5450 5725
	1    0    0    -1  
$EndComp
$Comp
L R R3
U 1 1 595E04B8
P 5600 6425
F 0 "R3" V 5680 6425 50  0000 C CNN
F 1 "1k" V 5600 6425 50  0000 C CNN
F 2 "Resistors_SMD:R_0805_HandSoldering" V 5530 6425 50  0001 C CNN
F 3 "" H 5600 6425 50  0001 C CNN
	1    5600 6425
	1    0    0    -1  
$EndComp
Text Label 4450 1525 0    60   ~ 0
PDI_CLK
$Comp
L R R1
U 1 1 59517B2E
P 6000 1300
F 0 "R1" V 6080 1300 50  0000 C CNN
F 1 "10k" V 6000 1300 50  0000 C CNN
F 2 "Resistors_SMD:R_0805_HandSoldering" V 5930 1300 50  0001 C CNN
F 3 "" H 6000 1300 50  0001 C CNN
	1    6000 1300
	1    0    0    -1  
$EndComp
$Comp
L GND #PWR03
U 1 1 59517AB4
P 5850 1525
F 0 "#PWR03" H 5850 1275 50  0001 C CNN
F 1 "GND" H 5850 1375 50  0000 C CNN
F 2 "" H 5850 1525 50  0001 C CNN
F 3 "" H 5850 1525 50  0001 C CNN
	1    5850 1525
	1    0    0    -1  
$EndComp
NoConn ~ 5450 1475
NoConn ~ 5200 1475
Text Label 4450 1425 0    60   ~ 0
PDI_DATA
$Comp
L AVR-PUDI-6 CON1
U 1 1 59516825
P 5325 1475
F 0 "CON1" H 5245 1715 50  0000 C CNN
F 1 "AVR-PUDI-6" H 5115 1230 50  0000 L BNN
F 2 "Connectors:IDC_Header_Straight_6pins" V 4880 1510 50  0001 C CNN
F 3 "" H 5325 1475 50  0001 C CNN
	1    5325 1475
	1    0    0    -1  
$EndComp
Text Label 1950 2500 0    60   ~ 0
PDI_DATA
Text Label 1950 2400 0    60   ~ 0
PDI_CLK
$Comp
L ATXMEGA256A3-AU U1
U 1 1 594E6E37
P 3550 3800
F 0 "U1" H 2700 5400 50  0000 L BNN
F 1 "ATXMEGA256A3-AU" H 3900 2100 50  0000 L BNN
F 2 "Housings_QFP:LQFP-64_14x14mm_Pitch0.8mm" H 3550 3800 50  0001 C CIN
F 3 "http://www.mouser.com/ds/2/268/Atmel-8386-8-and-16-bit-AVR-Microcontroller-ATxmeg-1065814.pdf" H 3550 3800 50  0001 C CNN
	1    3550 3800
	1    0    0    -1  
$EndComp
$Comp
L +3.3V #PWR04
U 1 1 5970767B
P 6000 950
F 0 "#PWR04" H 6000 800 50  0001 C CNN
F 1 "+3.3V" H 6000 1090 50  0000 C CNN
F 2 "" H 6000 950 50  0001 C CNN
F 3 "" H 6000 950 50  0001 C CNN
	1    6000 950 
	1    0    0    -1  
$EndComp
$Comp
L +3.3V #PWR05
U 1 1 59709297
P 3300 1850
F 0 "#PWR05" H 3300 1700 50  0001 C CNN
F 1 "+3.3V" H 3300 1990 50  0000 C CNN
F 2 "" H 3300 1850 50  0001 C CNN
F 3 "" H 3300 1850 50  0001 C CNN
	1    3300 1850
	1    0    0    -1  
$EndComp
$Comp
L C C1
U 1 1 59709EAE
P 2975 1925
F 0 "C1" H 3000 2025 50  0000 L CNN
F 1 ".1uF" H 3000 1825 50  0000 L CNN
F 2 "Capacitors_SMD:C_0805_HandSoldering" H 3013 1775 50  0001 C CNN
F 3 "" H 2975 1925 50  0001 C CNN
	1    2975 1925
	0    1    1    0   
$EndComp
$Comp
L GND #PWR06
U 1 1 5970A2D7
P 2700 1925
F 0 "#PWR06" H 2700 1675 50  0001 C CNN
F 1 "GND" H 2700 1775 50  0000 C CNN
F 2 "" H 2700 1925 50  0001 C CNN
F 3 "" H 2700 1925 50  0001 C CNN
	1    2700 1925
	0    1    1    0   
$EndComp
$Comp
L LED D3
U 1 1 59727827
P 5300 3100
F 0 "D3" H 5300 3200 50  0000 C CNN
F 1 "LED" H 5300 3000 50  0000 C CNN
F 2 "Diodes_SMD:D_1206" H 5300 3100 50  0001 C CNN
F 3 "" H 5300 3100 50  0001 C CNN
	1    5300 3100
	-1   0    0    1   
$EndComp
$Comp
L R R7
U 1 1 5977CC28
P 4825 2800
F 0 "R7" V 4905 2800 50  0000 C CNN
F 1 "330" V 4825 2800 50  0000 C CNN
F 2 "Resistors_SMD:R_0805_HandSoldering" V 4755 2800 50  0001 C CNN
F 3 "" H 4825 2800 50  0001 C CNN
	1    4825 2800
	0    1    1    0   
$EndComp
$Comp
L R R6
U 1 1 5977CEA1
P 4825 2600
F 0 "R6" V 4905 2600 50  0000 C CNN
F 1 "330" V 4825 2600 50  0000 C CNN
F 2 "Resistors_SMD:R_0805_HandSoldering" V 4755 2600 50  0001 C CNN
F 3 "" H 4825 2600 50  0001 C CNN
	1    4825 2600
	0    1    1    0   
$EndComp
$Comp
L R R8
U 1 1 5977D200
P 4825 3025
F 0 "R8" V 4905 3025 50  0000 C CNN
F 1 "330" V 4825 3025 50  0000 C CNN
F 2 "Resistors_SMD:R_0805_HandSoldering" V 4755 3025 50  0001 C CNN
F 3 "" H 4825 3025 50  0001 C CNN
	1    4825 3025
	0    1    1    0   
$EndComp
$Comp
L LED D1
U 1 1 5972773E
P 5300 2525
F 0 "D1" H 5300 2625 50  0000 C CNN
F 1 "LED" H 5300 2425 50  0000 C CNN
F 2 "Diodes_SMD:D_1206" H 5300 2525 50  0001 C CNN
F 3 "" H 5300 2525 50  0001 C CNN
	1    5300 2525
	-1   0    0    1   
$EndComp
$Comp
L LED D2
U 1 1 597809B9
P 5300 2800
F 0 "D2" H 5300 2900 50  0000 C CNN
F 1 "LED" H 5300 2700 50  0000 C CNN
F 2 "Diodes_SMD:D_1206" H 5300 2800 50  0001 C CNN
F 3 "" H 5300 2800 50  0001 C CNN
	1    5300 2800
	-1   0    0    1   
$EndComp
$Comp
L GND #PWR07
U 1 1 59784299
P 5450 3200
F 0 "#PWR07" H 5450 2950 50  0001 C CNN
F 1 "GND" H 5450 3050 50  0000 C CNN
F 2 "" H 5450 3200 50  0001 C CNN
F 3 "" H 5450 3200 50  0001 C CNN
	1    5450 3200
	1    0    0    -1  
$EndComp
$Comp
L C C2
U 1 1 5978C9E7
P 1075 1975
F 0 "C2" H 1100 2075 50  0000 L CNN
F 1 ".1uF" H 1100 1875 50  0000 L CNN
F 2 "Capacitors_SMD:C_0805_HandSoldering" H 1113 1825 50  0001 C CNN
F 3 "" H 1075 1975 50  0001 C CNN
	1    1075 1975
	1    0    0    -1  
$EndComp
$Comp
L C C3
U 1 1 5978CB7E
P 1325 1975
F 0 "C3" H 1350 2075 50  0000 L CNN
F 1 ".1uF" H 1350 1875 50  0000 L CNN
F 2 "Capacitors_SMD:C_0805_HandSoldering" H 1363 1825 50  0001 C CNN
F 3 "" H 1325 1975 50  0001 C CNN
	1    1325 1975
	1    0    0    -1  
$EndComp
$Comp
L C C4
U 1 1 5978CC83
P 1550 1975
F 0 "C4" H 1575 2075 50  0000 L CNN
F 1 ".1uF" H 1575 1875 50  0000 L CNN
F 2 "Capacitors_SMD:C_0805_HandSoldering" H 1588 1825 50  0001 C CNN
F 3 "" H 1550 1975 50  0001 C CNN
	1    1550 1975
	1    0    0    -1  
$EndComp
$Comp
L C C5
U 1 1 5978CD6B
P 1800 1975
F 0 "C5" H 1825 2075 50  0000 L CNN
F 1 ".1uF" H 1825 1875 50  0000 L CNN
F 2 "Capacitors_SMD:C_0805_HandSoldering" H 1838 1825 50  0001 C CNN
F 3 "" H 1800 1975 50  0001 C CNN
	1    1800 1975
	1    0    0    -1  
$EndComp
$Comp
L +3.3V #PWR08
U 1 1 5978D381
P 1075 1775
F 0 "#PWR08" H 1075 1625 50  0001 C CNN
F 1 "+3.3V" H 1075 1915 50  0000 C CNN
F 2 "" H 1075 1775 50  0001 C CNN
F 3 "" H 1075 1775 50  0001 C CNN
	1    1075 1775
	1    0    0    -1  
$EndComp
$Comp
L +3.3V #PWR09
U 1 1 5978D462
P 1325 1775
F 0 "#PWR09" H 1325 1625 50  0001 C CNN
F 1 "+3.3V" H 1325 1915 50  0000 C CNN
F 2 "" H 1325 1775 50  0001 C CNN
F 3 "" H 1325 1775 50  0001 C CNN
	1    1325 1775
	1    0    0    -1  
$EndComp
$Comp
L +3.3V #PWR010
U 1 1 5978D53C
P 1550 1775
F 0 "#PWR010" H 1550 1625 50  0001 C CNN
F 1 "+3.3V" H 1550 1915 50  0000 C CNN
F 2 "" H 1550 1775 50  0001 C CNN
F 3 "" H 1550 1775 50  0001 C CNN
	1    1550 1775
	1    0    0    -1  
$EndComp
$Comp
L +3.3V #PWR011
U 1 1 5978D616
P 1800 1775
F 0 "#PWR011" H 1800 1625 50  0001 C CNN
F 1 "+3.3V" H 1800 1915 50  0000 C CNN
F 2 "" H 1800 1775 50  0001 C CNN
F 3 "" H 1800 1775 50  0001 C CNN
	1    1800 1775
	1    0    0    -1  
$EndComp
$Comp
L GND #PWR012
U 1 1 5978ECEA
P 1450 2300
F 0 "#PWR012" H 1450 2050 50  0001 C CNN
F 1 "GND" H 1450 2150 50  0000 C CNN
F 2 "" H 1450 2300 50  0001 C CNN
F 3 "" H 1450 2300 50  0001 C CNN
	1    1450 2300
	1    0    0    -1  
$EndComp
$Comp
L GND #PWR013
U 1 1 59793BE0
P 4300 1875
F 0 "#PWR013" H 4300 1625 50  0001 C CNN
F 1 "GND" H 4300 1725 50  0000 C CNN
F 2 "" H 4300 1875 50  0001 C CNN
F 3 "" H 4300 1875 50  0001 C CNN
	1    4300 1875
	0    -1   -1   0   
$EndComp
$Comp
L C C6
U 1 1 59793CC1
P 4075 1875
F 0 "C6" H 4100 1975 50  0000 L CNN
F 1 ".1uF" H 4100 1775 50  0000 L CNN
F 2 "Capacitors_SMD:C_0805_HandSoldering" H 4113 1725 50  0001 C CNN
F 3 "" H 4075 1875 50  0001 C CNN
	1    4075 1875
	0    1    1    0   
$EndComp
$Comp
L CONN_01X02 J1
U 1 1 59798D9B
P 3625 1525
F 0 "J1" H 3625 1675 50  0000 C CNN
F 1 "CONN_01X02" V 3725 1525 50  0001 C CNN
F 2 "Connectors_Molex:UltraFit_02x3.50mm_Angled" H 3625 1525 50  0001 C CNN
F 3 "" H 3625 1525 50  0001 C CNN
	1    3625 1525
	0    -1   1    0   
$EndComp
$Comp
L CPOL C7
U 1 1 5979BCD4
P 3975 1125
F 0 "C7" H 4175 1175 50  0000 C CNN
F 1 "10uF" H 4175 1075 50  0000 C CNN
F 2 "Capacitors_Tantalum_SMD:CP_Tantalum_Case-A_EIA-3216-18_Hand" H 3965 1100 60  0001 C CNN
F 3 "" H 3965 1100 60  0000 C CNN
	1    3975 1125
	1    0    0    -1  
$EndComp
$Comp
L GND #PWR014
U 1 1 5979D4BF
P 3975 1425
F 0 "#PWR014" H 3975 1175 50  0001 C CNN
F 1 "GND" H 3975 1275 50  0000 C CNN
F 2 "" H 3975 1425 50  0001 C CNN
F 3 "" H 3975 1425 50  0001 C CNN
	1    3975 1425
	1    0    0    -1  
$EndComp
$Comp
L C C8
U 1 1 597A3E88
P 5875 6075
F 0 "C8" H 5900 6175 50  0000 L CNN
F 1 "0.1uF" H 5900 5975 50  0000 L CNN
F 2 "Capacitors_SMD:C_0805_HandSoldering" H 5913 5925 50  0001 C CNN
F 3 "" H 5875 6075 50  0001 C CNN
	1    5875 6075
	1    0    0    -1  
$EndComp
$Comp
L CRYSTAL X1
U 1 1 597AEA97
P 2225 3050
F 0 "X1" H 2425 3100 50  0000 C CNN
F 1 "CRYSTAL" H 2425 3000 50  0001 C CNN
F 2 "Crystals:Crystal_SMD_Abracon_ABM3-2pin_5.0x3.2mm_HandSoldering" H 2225 3050 60  0001 C CNN
F 3 "https://www.digikey.com/product-detail/en/abracon-llc/ABLS-8.000MHZ-B4-T/535-10212-1-ND/2184247" H 2225 3050 60  0001 C CNN
	1    2225 3050
	1    0    0    -1  
$EndComp
$Comp
L C C15
U 1 1 597AF519
P 1775 2925
F 0 "C15" H 1800 3025 50  0000 L CNN
F 1 "15pF" H 1800 2825 50  0000 L CNN
F 2 "Capacitors_SMD:C_0805_HandSoldering" H 1813 2775 50  0001 C CNN
F 3 "" H 1775 2925 50  0001 C CNN
	1    1775 2925
	0    1    1    0   
$EndComp
$Comp
L C C16
U 1 1 597AF74B
P 1775 3200
F 0 "C16" H 1800 3300 50  0000 L CNN
F 1 "15pF" H 1800 3100 50  0000 L CNN
F 2 "Capacitors_SMD:C_0805_HandSoldering" H 1813 3050 50  0001 C CNN
F 3 "" H 1775 3200 50  0001 C CNN
	1    1775 3200
	0    1    1    0   
$EndComp
$Comp
L GND #PWR015
U 1 1 597B026E
P 1625 3400
F 0 "#PWR015" H 1625 3150 50  0001 C CNN
F 1 "GND" H 1625 3250 50  0000 C CNN
F 2 "" H 1625 3400 50  0001 C CNN
F 3 "" H 1625 3400 50  0001 C CNN
	1    1625 3400
	1    0    0    -1  
$EndComp
Text Notes 7375 7500 0    60   ~ 0
Rev_1.0\n
$Sheet
S 6200 5650 525  725 
U 595CE622
F0 "RS-485" 60
F1 "RS-485.sch" 60
F2 "B" B L 6200 5750 60 
F3 "A" B L 6200 6275 60 
$EndSheet
Text Label 4750 5050 2    60   ~ 0
EN
Text Label 4950 5150 2    60   ~ 0
RX_485
Text Label 4950 5250 2    60   ~ 0
TX_485
Text Label 5325 6025 0    60   ~ 0
B-
Text Label 5325 6125 0    60   ~ 0
A+
$Comp
L C C22
U 1 1 59A9EFB0
P 8975 2600
F 0 "C22" H 9000 2700 50  0000 L CNN
F 1 ".1uF" H 9000 2500 50  0000 L CNN
F 2 "Capacitors_SMD:C_0805_HandSoldering" H 9013 2450 50  0001 C CNN
F 3 "" H 8975 2600 50  0001 C CNN
	1    8975 2600
	1    0    0    -1  
$EndComp
$Comp
L GND #PWR016
U 1 1 59A9F49E
P 9200 2825
F 0 "#PWR016" H 9200 2575 50  0001 C CNN
F 1 "GND" H 9200 2675 50  0000 C CNN
F 2 "" H 9200 2825 50  0001 C CNN
F 3 "" H 9200 2825 50  0001 C CNN
	1    9200 2825
	1    0    0    -1  
$EndComp
$Comp
L SPST SW1
U 1 1 59A9BC26
P 1350 6025
F 0 "SW1" H 1350 6125 50  0000 C CNN
F 1 "SPST" H 1350 5925 50  0000 C CNN
F 2 "Buttons_Switches_SMD:SW_SPST_EVQP2" H 1350 6025 60  0001 C CNN
F 3 "" H 1350 6025 60  0000 C CNN
	1    1350 6025
	0    -1   -1   0   
$EndComp
$Comp
L GND #PWR017
U 1 1 59A9C1D4
P 1350 6175
F 0 "#PWR017" H 1350 5925 50  0001 C CNN
F 1 "GND" H 1350 6025 50  0000 C CNN
F 2 "" H 1350 6175 50  0001 C CNN
F 3 "" H 1350 6175 50  0001 C CNN
	1    1350 6175
	1    0    0    -1  
$EndComp
$Comp
L C C26
U 1 1 59AAA891
P 8825 1575
F 0 "C26" H 8850 1675 50  0000 L CNN
F 1 ".1uF" H 8850 1475 50  0000 L CNN
F 2 "Capacitors_SMD:C_0805_HandSoldering" H 8863 1425 50  0001 C CNN
F 3 "" H 8825 1575 50  0001 C CNN
	1    8825 1575
	1    0    0    -1  
$EndComp
$Comp
L C C27
U 1 1 59AAA936
P 9075 1575
F 0 "C27" H 9100 1675 50  0000 L CNN
F 1 ".1uF" H 9100 1475 50  0000 L CNN
F 2 "Capacitors_SMD:C_0805_HandSoldering" H 9113 1425 50  0001 C CNN
F 3 "" H 9075 1575 50  0001 C CNN
	1    9075 1575
	1    0    0    -1  
$EndComp
$Comp
L +3.3V #PWR018
U 1 1 59AAAC31
P 8825 1375
F 0 "#PWR018" H 8825 1225 50  0001 C CNN
F 1 "+3.3V" H 8825 1515 50  0000 C CNN
F 2 "" H 8825 1375 50  0001 C CNN
F 3 "" H 8825 1375 50  0001 C CNN
	1    8825 1375
	1    0    0    -1  
$EndComp
$Comp
L +3.3V #PWR019
U 1 1 59AAB14A
P 9075 1375
F 0 "#PWR019" H 9075 1225 50  0001 C CNN
F 1 "+3.3V" H 9075 1515 50  0000 C CNN
F 2 "" H 9075 1375 50  0001 C CNN
F 3 "" H 9075 1375 50  0001 C CNN
	1    9075 1375
	1    0    0    -1  
$EndComp
Text Notes 8325 1200 0    60   ~ 0
For Vcc's XMega2\n\n
Text Notes 1075 1425 0    60   ~ 0
For Vcc's Xmega1\n\n
Text Notes 1025 7500 0    60   ~ 0
Notes:\n\nFix Crystal length, make closer to MCU (parasitic capacitance)\nMake Power rails thicker, reduces inductance of trace\nFor 1 wire ckrt, make sure that voltage drop is not too bad (test)\nConnectors might be too noisy with all analog data coming in, need to ask\nNeed to add IMU (basically I2C networks)\nMark capacitors polarity\nRemoved Linear Regulator
Text Label 6250 1525 0    60   ~ 0
PDI_CLK_2
$Comp
L R R12
U 1 1 59AEEB18
P 7900 1300
F 0 "R12" V 7980 1300 50  0000 C CNN
F 1 "10k" V 7900 1300 50  0000 C CNN
F 2 "Resistors_SMD:R_0805_HandSoldering" V 7830 1300 50  0001 C CNN
F 3 "" H 7900 1300 50  0001 C CNN
	1    7900 1300
	1    0    0    -1  
$EndComp
$Comp
L GND #PWR020
U 1 1 59AEEB1E
P 7750 1525
F 0 "#PWR020" H 7750 1275 50  0001 C CNN
F 1 "GND" H 7750 1375 50  0000 C CNN
F 2 "" H 7750 1525 50  0001 C CNN
F 3 "" H 7750 1525 50  0001 C CNN
	1    7750 1525
	1    0    0    -1  
$EndComp
NoConn ~ 7350 1475
NoConn ~ 7100 1475
Text Label 6250 1425 0    60   ~ 0
PDI_DATA_2
$Comp
L AVR-PUDI-6 CON2
U 1 1 59AEEB27
P 7225 1475
F 0 "CON2" H 7145 1715 50  0000 C CNN
F 1 "AVR-PUDI-6" H 7015 1230 50  0000 L BNN
F 2 "Connectors:IDC_Header_Straight_6pins" V 6780 1510 50  0001 C CNN
F 3 "" H 7225 1475 50  0001 C CNN
	1    7225 1475
	1    0    0    -1  
$EndComp
$Comp
L +3.3V #PWR021
U 1 1 59AEEB2D
P 7900 950
F 0 "#PWR021" H 7900 800 50  0001 C CNN
F 1 "+3.3V" H 7900 1090 50  0000 C CNN
F 2 "" H 7900 950 50  0001 C CNN
F 3 "" H 7900 950 50  0001 C CNN
	1    7900 950 
	1    0    0    -1  
$EndComp
Text Label 4000 6225 0    60   ~ 0
TX_485
Text Label 4000 5925 0    60   ~ 0
RX_485
Text Label 4100 6075 0    60   ~ 0
EN
$Comp
L GND #PWR022
U 1 1 59AF6FF6
P 7750 5650
F 0 "#PWR022" H 7750 5400 50  0001 C CNN
F 1 "GND" H 7750 5500 50  0000 C CNN
F 2 "" H 7750 5650 50  0001 C CNN
F 3 "" H 7750 5650 50  0001 C CNN
	1    7750 5650
	1    0    0    -1  
$EndComp
$Comp
L +3.3V #PWR023
U 1 1 59AFA830
P 7500 2000
F 0 "#PWR023" H 7500 1850 50  0001 C CNN
F 1 "+3.3V" H 7500 2140 50  0000 C CNN
F 2 "" H 7500 2000 50  0001 C CNN
F 3 "" H 7500 2000 50  0001 C CNN
	1    7500 2000
	1    0    0    -1  
$EndComp
$Comp
L SPST SW2
U 1 1 59AFB9E0
P 1700 6025
F 0 "SW2" H 1700 6125 50  0000 C CNN
F 1 "SPST" H 1700 5925 50  0000 C CNN
F 2 "Buttons_Switches_SMD:SW_SPST_EVQP2" H 1700 6025 60  0001 C CNN
F 3 "" H 1700 6025 60  0000 C CNN
	1    1700 6025
	0    -1   -1   0   
$EndComp
Text Label 6250 2400 0    60   ~ 0
PDI_CLK_2
Text Label 6250 2500 0    60   ~ 0
PDI_DATA_2
$Comp
L C C25
U 1 1 59B06540
P 8575 1575
F 0 "C25" H 8600 1675 50  0000 L CNN
F 1 ".1uF" H 8600 1475 50  0000 L CNN
F 2 "Capacitors_SMD:C_0805_HandSoldering" H 8613 1425 50  0001 C CNN
F 3 "" H 8575 1575 50  0001 C CNN
	1    8575 1575
	1    0    0    -1  
$EndComp
$Comp
L C C21
U 1 1 59B06DF1
P 7200 2050
F 0 "C21" H 7225 2150 50  0000 L CNN
F 1 ".1uF" H 7225 1950 50  0000 L CNN
F 2 "Capacitors_SMD:C_0805_HandSoldering" H 7238 1900 50  0001 C CNN
F 3 "" H 7200 2050 50  0001 C CNN
	1    7200 2050
	0    1    1    0   
$EndComp
$Comp
L GND #PWR024
U 1 1 59B07605
P 6975 2050
F 0 "#PWR024" H 6975 1800 50  0001 C CNN
F 1 "GND" H 6975 1900 50  0000 C CNN
F 2 "" H 6975 2050 50  0001 C CNN
F 3 "" H 6975 2050 50  0001 C CNN
	1    6975 2050
	0    1    1    0   
$EndComp
$Comp
L CRYSTAL X2
U 1 1 59B09C82
P 6425 3050
F 0 "X2" H 6625 3100 50  0000 C CNN
F 1 "CRYSTAL" H 6625 3000 50  0001 C CNN
F 2 "Crystals:Crystal_SMD_Abracon_ABM3-2pin_5.0x3.2mm_HandSoldering" H 6425 3050 60  0001 C CNN
F 3 "https://www.digikey.com/product-detail/en/abracon-llc/ABLS-8.000MHZ-B4-T/535-10212-1-ND/2184247" H 6425 3050 60  0001 C CNN
	1    6425 3050
	1    0    0    -1  
$EndComp
$Comp
L C C19
U 1 1 59B09C88
P 5975 2925
F 0 "C19" H 6000 3025 50  0000 L CNN
F 1 "15pF" H 6000 2825 50  0000 L CNN
F 2 "Capacitors_SMD:C_0805_HandSoldering" H 6013 2775 50  0001 C CNN
F 3 "" H 5975 2925 50  0001 C CNN
	1    5975 2925
	0    1    1    0   
$EndComp
$Comp
L C C20
U 1 1 59B09C8E
P 5975 3200
F 0 "C20" H 6000 3300 50  0000 L CNN
F 1 "15pF" H 6000 3100 50  0000 L CNN
F 2 "Capacitors_SMD:C_0805_HandSoldering" H 6013 3050 50  0001 C CNN
F 3 "" H 5975 3200 50  0001 C CNN
	1    5975 3200
	0    1    1    0   
$EndComp
$Comp
L GND #PWR025
U 1 1 59B0A6A2
P 1700 6175
F 0 "#PWR025" H 1700 5925 50  0001 C CNN
F 1 "GND" H 1700 6025 50  0000 C CNN
F 2 "" H 1700 6175 50  0001 C CNN
F 3 "" H 1700 6175 50  0001 C CNN
	1    1700 6175
	1    0    0    -1  
$EndComp
$Comp
L GND #PWR026
U 1 1 59B0B03F
P 5700 3200
F 0 "#PWR026" H 5700 2950 50  0001 C CNN
F 1 "GND" H 5700 3050 50  0000 C CNN
F 2 "" H 5700 3200 50  0001 C CNN
F 3 "" H 5700 3200 50  0001 C CNN
	1    5700 3200
	1    0    0    -1  
$EndComp
$Comp
L C C24
U 1 1 59B0C863
P 8325 1575
F 0 "C24" H 8350 1675 50  0000 L CNN
F 1 ".1uF" H 8350 1475 50  0000 L CNN
F 2 "Capacitors_SMD:C_0805_HandSoldering" H 8363 1425 50  0001 C CNN
F 3 "" H 8325 1575 50  0001 C CNN
	1    8325 1575
	1    0    0    -1  
$EndComp
$Comp
L +3.3V #PWR027
U 1 1 59B0CD4E
P 8325 1375
F 0 "#PWR027" H 8325 1225 50  0001 C CNN
F 1 "+3.3V" H 8325 1515 50  0000 C CNN
F 2 "" H 8325 1375 50  0001 C CNN
F 3 "" H 8325 1375 50  0001 C CNN
	1    8325 1375
	1    0    0    -1  
$EndComp
$Comp
L +3.3V #PWR028
U 1 1 59B0CDCA
P 8575 1375
F 0 "#PWR028" H 8575 1225 50  0001 C CNN
F 1 "+3.3V" H 8575 1515 50  0000 C CNN
F 2 "" H 8575 1375 50  0001 C CNN
F 3 "" H 8575 1375 50  0001 C CNN
	1    8575 1375
	1    0    0    -1  
$EndComp
$Comp
L GND #PWR029
U 1 1 59B0D41A
P 8700 1800
F 0 "#PWR029" H 8700 1550 50  0001 C CNN
F 1 "GND" H 8700 1650 50  0000 C CNN
F 2 "" H 8700 1800 50  0001 C CNN
F 3 "" H 8700 1800 50  0001 C CNN
	1    8700 1800
	1    0    0    -1  
$EndComp
Text Label 9100 3250 2    60   ~ 0
MSense
$Comp
L +3.3V #PWR030
U 1 1 59B12F85
P 9175 2025
F 0 "#PWR030" H 9175 1875 50  0001 C CNN
F 1 "+3.3V" H 9175 2165 50  0000 C CNN
F 2 "" H 9175 2025 50  0001 C CNN
F 3 "" H 9175 2025 50  0001 C CNN
	1    9175 2025
	1    0    0    -1  
$EndComp
Text Label 9075 2400 2    60   ~ 0
TSense
Text Label 9125 5050 2    60   ~ 0
GPS_EN
Text Label 9100 5150 2    60   ~ 0
GPS_TX
Text Label 9125 5250 2    60   ~ 0
GPS_RX
Text Label 5125 4300 0    60   ~ 0
TX_XMega1->RX_XMega2
Text Label 5125 4400 0    60   ~ 0
RX_XMega1->TX_XMega2
$Comp
L R R9
U 1 1 59B05400
P 8850 5875
F 0 "R9" V 8930 5875 50  0000 C CNN
F 1 "330" V 8850 5875 50  0000 C CNN
F 2 "Resistors_SMD:R_0805_HandSoldering" V 8780 5875 50  0001 C CNN
F 3 "" H 8850 5875 50  0001 C CNN
	1    8850 5875
	0    1    1    0   
$EndComp
$Comp
L R R11
U 1 1 59B05631
P 8850 6275
F 0 "R11" V 8930 6275 50  0000 C CNN
F 1 "330" V 8850 6275 50  0000 C CNN
F 2 "Resistors_SMD:R_0805_HandSoldering" V 8780 6275 50  0001 C CNN
F 3 "" H 8850 6275 50  0001 C CNN
	1    8850 6275
	0    1    1    0   
$EndComp
$Comp
L R R10
U 1 1 59B056E0
P 8850 6075
F 0 "R10" V 8930 6075 50  0000 C CNN
F 1 "330" V 8850 6075 50  0000 C CNN
F 2 "Resistors_SMD:R_0805_HandSoldering" V 8780 6075 50  0001 C CNN
F 3 "" H 8850 6075 50  0001 C CNN
	1    8850 6075
	0    1    1    0   
$EndComp
$Comp
L LED D5
U 1 1 59B066B8
P 8500 6075
F 0 "D5" H 8675 6150 50  0000 C CNN
F 1 "LED" H 8500 5975 50  0000 C CNN
F 2 "Diodes_SMD:D_1206" H 8500 6075 50  0001 C CNN
F 3 "" H 8500 6075 50  0001 C CNN
	1    8500 6075
	1    0    0    -1  
$EndComp
$Comp
L LED D6
U 1 1 59B06A40
P 8525 6300
F 0 "D6" H 8675 6425 50  0000 C CNN
F 1 "LED" H 8525 6200 50  0000 C CNN
F 2 "Diodes_SMD:D_1206" H 8525 6300 50  0001 C CNN
F 3 "" H 8525 6300 50  0001 C CNN
	1    8525 6300
	1    0    0    -1  
$EndComp
$Comp
L GND #PWR031
U 1 1 59B0878F
P 8025 6300
F 0 "#PWR031" H 8025 6050 50  0001 C CNN
F 1 "GND" H 8025 6150 50  0000 C CNN
F 2 "" H 8025 6300 50  0001 C CNN
F 3 "" H 8025 6300 50  0001 C CNN
	1    8025 6300
	1    0    0    -1  
$EndComp
$Comp
L CPOL C23
U 1 1 59B0E8AE
P 9375 2600
F 0 "C23" H 9575 2650 50  0000 C CNN
F 1 "10uF" H 9575 2550 50  0000 C CNN
F 2 "Capacitors_Tantalum_SMD:CP_Tantalum_Case-A_EIA-3216-18_Hand" H 9365 2575 60  0001 C CNN
F 3 "" H 9365 2575 60  0000 C CNN
	1    9375 2600
	1    0    0    -1  
$EndComp
Text Label 8950 4100 2    60   ~ 0
SDA
Text Label 8950 4200 2    60   ~ 0
SCL
Text Notes 10550 5425 1    60   ~ 0
Extended GPIO\n
$Comp
L CONN_01X06 J9
U 1 1 59B27A3A
P 10175 5125
F 0 "J9" H 10175 5475 50  0000 C CNN
F 1 "CONN_01X06" V 10275 5125 50  0000 C CNN
F 2 "Connectors_Molex:Molex_MicroLatch-53253-0670_06x2.00mm_Straight" H 10175 5125 50  0001 C CNN
F 3 "" H 10175 5125 50  0001 C CNN
	1    10175 5125
	1    0    0    -1  
$EndComp
Text Label 9250 3950 2    60   ~ 0
RST_IMU_2
$Sheet
S 9775 3075 925  1250
U 59B49D08
F0 "Sensors" 60
F1 "Sensors.sch" 60
F2 "TSense" O R 10700 3175 60 
F3 "MSense" O R 10700 3325 60 
F4 "GPS_RX" I L 9775 3250 60 
F5 "GPS_TX" O R 10700 3625 60 
F6 "GPS_EN" I L 9775 3425 60 
F7 "SDA" B L 9775 3625 60 
F8 "SCL" I L 9775 3800 60 
F9 "RST_IMU" I L 9775 3975 60 
F10 "RST_IMU_2" I L 9775 4150 60 
$EndSheet
Text Label 9400 3250 0    60   ~ 0
GPS_RX
Text Label 9400 3425 0    60   ~ 0
GPS_EN
Text Label 9550 3625 0    60   ~ 0
SDA
Text Label 9575 3800 0    60   ~ 0
SCL
Text Label 9375 3975 0    60   ~ 0
RST_IMU
Text Label 11075 3175 2    60   ~ 0
TSense
Text Label 11075 3325 2    60   ~ 0
MSense
Text Label 11075 3625 2    60   ~ 0
GPS_TX
Text Label 9150 3850 2    60   ~ 0
RST_IMU
$Comp
L +3.3V #PWR032
U 1 1 59B8C633
P 5300 5400
F 0 "#PWR032" H 5300 5250 50  0001 C CNN
F 1 "+3.3V" H 5300 5540 50  0000 C CNN
F 2 "" H 5300 5400 50  0001 C CNN
F 3 "" H 5300 5400 50  0001 C CNN
	1    5300 5400
	1    0    0    -1  
$EndComp
$Comp
L +3.3V #PWR033
U 1 1 59B90B85
P 3575 875
F 0 "#PWR033" H 3575 725 50  0001 C CNN
F 1 "+3.3V" H 3575 1015 50  0000 C CNN
F 2 "" H 3575 875 50  0001 C CNN
F 3 "" H 3575 875 50  0001 C CNN
	1    3575 875 
	1    0    0    -1  
$EndComp
$Comp
L ATXMEGA256A3-AU U10
U 1 1 59AF3885
P 7750 3800
F 0 "U10" H 6900 5400 50  0000 L BNN
F 1 "ATXMEGA256A3-AU" H 8100 2100 50  0000 L BNN
F 2 "Housings_QFP:TQFP-64_14x14mm_Pitch0.8mm" H 7750 3800 50  0001 C CIN
F 3 "http://www.atmel.com/images/Atmel-8331-8-and-16-bit-AVR-Microcontroller-XMEGA-AU_Manual.pdf" H 7750 3800 50  0001 C CNN
	1    7750 3800
	1    0    0    -1  
$EndComp
Text Label 9275 4150 0    60   ~ 0
RST_IMU_2
$Comp
L CONN_01X06 J15
U 1 1 59CA5A40
P 1750 4550
F 0 "J15" H 1750 4900 50  0000 C CNN
F 1 "CONN_01X06" V 1850 4550 50  0000 C CNN
F 2 "Connectors_Molex:Molex_MicroLatch-53253-0670_06x2.00mm_Straight" H 1750 4550 50  0001 C CNN
F 3 "" H 1750 4550 50  0001 C CNN
	1    1750 4550
	-1   0    0    -1  
$EndComp
Text Notes 900  4525 0    60   ~ 0
Extended GPIO\n
Text Label 9100 3650 2    60   ~ 0
LED1
Text Label 9100 3550 2    60   ~ 0
LED2
Text Label 9100 3450 2    60   ~ 0
LED3
$Comp
L LED D4
U 1 1 59B06983
P 8525 5850
F 0 "D4" H 8700 5925 50  0000 C CNN
F 1 "LED" H 8525 5750 50  0000 C CNN
F 2 "Diodes_SMD:D_1206" H 8525 5850 50  0001 C CNN
F 3 "" H 8525 5850 50  0001 C CNN
	1    8525 5850
	1    0    0    -1  
$EndComp
Wire Wire Line
	4950 5150 4550 5150
Wire Wire Line
	4950 5250 4550 5250
Wire Wire Line
	6750 1775 7900 1775
Wire Wire Line
	6750 1525 6750 1775
Connection ~ 6750 1525
Wire Wire Line
	7900 1775 7900 1450
Wire Wire Line
	6250 1525 7100 1525
Wire Wire Line
	7100 1525 7100 1575
Connection ~ 7900 1050
Wire Wire Line
	7900 950  7900 1150
Wire Wire Line
	7375 1050 7900 1050
Wire Wire Line
	7375 1375 7375 1050
Wire Wire Line
	7375 1375 7350 1375
Wire Wire Line
	7375 1525 7750 1525
Wire Wire Line
	7375 1575 7375 1525
Wire Wire Line
	7375 1575 7350 1575
Wire Wire Line
	7100 1425 6250 1425
Wire Wire Line
	7100 1375 7100 1425
Wire Wire Line
	9075 1425 9075 1375
Wire Wire Line
	8325 1725 9075 1725
Wire Wire Line
	8825 1375 8825 1425
Connection ~ 9200 2750
Wire Wire Line
	9200 2750 9200 2825
Wire Wire Line
	8975 2750 9375 2750
Wire Wire Line
	4000 6225 4400 6225
Wire Wire Line
	4100 6075 4400 6075
Wire Wire Line
	4550 5050 4750 5050
Wire Wire Line
	5300 6225 5875 6225
Connection ~ 5300 6225
Wire Wire Line
	5600 5750 6200 5750
Wire Wire Line
	4000 5925 4400 5925
Wire Wire Line
	5300 5400 5300 5925
Wire Wire Line
	3300 5550 3800 5550
Connection ~ 3400 5550
Connection ~ 3500 5550
Connection ~ 3600 5550
Connection ~ 3700 5550
Wire Wire Line
	3550 5550 3550 5650
Connection ~ 3550 5550
Wire Wire Line
	4400 6025 4400 6125
Connection ~ 4400 6075
Wire Wire Line
	5450 5575 5300 5575
Connection ~ 5300 5575
Wire Wire Line
	5300 6125 5450 6125
Wire Wire Line
	5450 5875 5450 6275
Connection ~ 5450 6125
Wire Wire Line
	5600 6025 5300 6025
Wire Wire Line
	5600 5750 5600 6275
Wire Wire Line
	5300 6225 5300 6625
Connection ~ 5600 6025
Wire Wire Line
	5300 6575 5600 6575
Connection ~ 5300 6575
Wire Wire Line
	4800 1775 6000 1775
Wire Wire Line
	4800 1525 4800 1775
Connection ~ 4800 1525
Wire Wire Line
	6000 1775 6000 1450
Wire Wire Line
	4450 1525 5200 1525
Wire Wire Line
	5200 1525 5200 1575
Connection ~ 6000 1050
Wire Wire Line
	6000 950  6000 1150
Wire Wire Line
	5475 1050 6000 1050
Wire Wire Line
	5475 1375 5475 1050
Wire Wire Line
	5475 1375 5450 1375
Wire Wire Line
	5475 1525 5850 1525
Wire Wire Line
	5475 1575 5475 1525
Wire Wire Line
	5475 1575 5450 1575
Wire Wire Line
	5200 1425 4450 1425
Wire Wire Line
	5200 1375 5200 1425
Wire Wire Line
	1950 2500 2550 2500
Wire Wire Line
	1950 2400 2550 2400
Connection ~ 3400 2100
Connection ~ 3500 2100
Wire Wire Line
	3300 1850 3300 2100
Wire Wire Line
	3300 1925 3125 1925
Connection ~ 3300 1925
Wire Wire Line
	2825 1925 2700 1925
Wire Wire Line
	5450 6275 6200 6275
Wire Wire Line
	4550 2700 4675 2700
Wire Wire Line
	4675 2700 4675 2600
Wire Wire Line
	4975 2600 4975 2525
Wire Wire Line
	4975 2525 5150 2525
Wire Wire Line
	4550 2800 4675 2800
Wire Wire Line
	4975 2800 5150 2800
Wire Wire Line
	4550 2900 4675 2900
Wire Wire Line
	4675 2900 4675 3025
Wire Wire Line
	4975 3025 4975 3100
Wire Wire Line
	4975 3100 5150 3100
Wire Wire Line
	5450 2525 5450 3200
Connection ~ 5450 2800
Connection ~ 5450 3100
Wire Wire Line
	3300 2100 3900 2100
Connection ~ 3600 2100
Connection ~ 3700 2100
Wire Wire Line
	1550 1775 1550 1825
Wire Wire Line
	1800 1775 1800 1825
Connection ~ 1450 2225
Wire Wire Line
	1075 2125 1075 2225
Wire Wire Line
	1075 2225 1800 2225
Wire Wire Line
	1325 2125 1325 2225
Connection ~ 1325 2225
Wire Wire Line
	1550 2225 1550 2125
Wire Wire Line
	1800 2225 1800 2125
Connection ~ 1550 2225
Wire Wire Line
	1450 2225 1450 2300
Wire Wire Line
	1075 1775 1075 1825
Wire Wire Line
	1325 1775 1325 1825
Wire Wire Line
	3900 2100 3900 1875
Wire Wire Line
	3900 1875 3925 1875
Wire Wire Line
	4225 1875 4300 1875
Connection ~ 3900 2100
Wire Wire Line
	3575 875  3575 1325
Wire Wire Line
	3575 1000 3975 1000
Wire Wire Line
	3975 1000 3975 1025
Connection ~ 3575 1000
Wire Wire Line
	3675 1325 3975 1325
Wire Wire Line
	3975 1225 3975 1425
Connection ~ 3975 1325
Wire Wire Line
	5300 5925 5875 5925
Wire Wire Line
	1925 2950 2500 2950
Wire Wire Line
	2500 2950 2500 3000
Wire Wire Line
	2500 3000 2550 3000
Wire Wire Line
	1925 3150 2500 3150
Wire Wire Line
	2500 3150 2500 3100
Wire Wire Line
	2500 3100 2550 3100
Connection ~ 2225 2950
Connection ~ 2225 3150
Wire Wire Line
	1925 2950 1925 2925
Wire Wire Line
	1625 2925 1625 3400
Connection ~ 1625 3200
Wire Wire Line
	1925 3200 1925 3150
Wire Wire Line
	7500 5550 8000 5550
Connection ~ 7600 5550
Connection ~ 7700 5550
Connection ~ 7800 5550
Connection ~ 7900 5550
Wire Wire Line
	7750 5550 7750 5650
Connection ~ 7750 5550
Connection ~ 7600 2100
Connection ~ 7700 2100
Connection ~ 7800 2100
Connection ~ 7900 2100
Wire Wire Line
	6250 2400 6750 2400
Wire Wire Line
	6750 2500 6250 2500
Wire Wire Line
	7500 2100 7900 2100
Wire Wire Line
	6975 2050 7050 2050
Wire Wire Line
	7500 2000 7500 2100
Wire Wire Line
	7500 2050 7350 2050
Connection ~ 7500 2050
Wire Wire Line
	6125 2950 6700 2950
Wire Wire Line
	6700 2950 6700 3000
Wire Wire Line
	6700 3000 6750 3000
Wire Wire Line
	6125 3150 6700 3150
Wire Wire Line
	6700 3150 6700 3100
Wire Wire Line
	6700 3100 6750 3100
Connection ~ 6425 2950
Connection ~ 6425 3150
Wire Wire Line
	6125 2950 6125 2925
Wire Wire Line
	5825 2925 5825 3200
Wire Wire Line
	5825 3200 5700 3200
Connection ~ 5825 3200
Wire Wire Line
	6125 3200 6125 3150
Connection ~ 8825 1725
Connection ~ 8575 1725
Wire Wire Line
	8325 1425 8325 1375
Wire Wire Line
	8575 1425 8575 1375
Wire Wire Line
	8700 1725 8700 1800
Connection ~ 8700 1725
Wire Wire Line
	8750 3250 9100 3250
Wire Wire Line
	8100 2100 9175 2100
Wire Wire Line
	8750 2400 9075 2400
Wire Wire Line
	8750 5050 9125 5050
Wire Wire Line
	8750 5150 9100 5150
Wire Wire Line
	8750 5250 9125 5250
Wire Wire Line
	4550 4300 4800 4400
Wire Wire Line
	4550 4400 4800 4300
Wire Wire Line
	4800 4300 6750 4300
Wire Wire Line
	4800 4400 6750 4400
Wire Wire Line
	9250 6075 9000 6075
Wire Wire Line
	9000 5875 9000 5975
Wire Wire Line
	9000 5975 9250 5975
Wire Wire Line
	9000 6275 9000 6175
Wire Wire Line
	9000 6175 9250 6175
Wire Wire Line
	8700 5875 8675 5850
Wire Wire Line
	8700 6275 8675 6300
Wire Wire Line
	8375 5850 8175 5850
Wire Wire Line
	8025 6300 8375 6300
Connection ~ 8175 6300
Wire Wire Line
	8750 4100 8950 4100
Wire Wire Line
	8950 4200 8750 4200
Wire Wire Line
	8750 3950 9250 3950
Wire Wire Line
	9775 3250 9400 3250
Wire Wire Line
	9775 3425 9400 3425
Wire Wire Line
	9775 3625 9550 3625
Wire Wire Line
	9775 3800 9575 3800
Wire Wire Line
	9775 3975 9375 3975
Wire Wire Line
	10700 3175 11075 3175
Wire Wire Line
	10700 3325 11075 3325
Wire Wire Line
	10700 3625 11075 3625
Wire Wire Line
	8750 4800 9200 4800
Wire Wire Line
	9200 4800 9200 5375
Wire Wire Line
	9200 5375 9975 5375
Wire Wire Line
	8750 4700 9300 4700
Wire Wire Line
	9300 4700 9300 5275
Wire Wire Line
	9300 5275 9975 5275
Wire Wire Line
	8750 4600 9400 4600
Wire Wire Line
	9400 4600 9400 5175
Wire Wire Line
	9400 5175 9975 5175
Wire Wire Line
	8750 4500 9500 4500
Wire Wire Line
	9500 4500 9500 5075
Wire Wire Line
	9500 5075 9975 5075
Wire Wire Line
	8750 4400 9600 4400
Wire Wire Line
	9600 4400 9600 4975
Wire Wire Line
	9600 4975 9975 4975
Wire Wire Line
	9700 4300 9700 4875
Wire Wire Line
	9700 4875 9975 4875
Wire Wire Line
	8975 2450 9375 2450
Connection ~ 9175 2450
Wire Wire Line
	1700 5875 1700 5850
Wire Wire Line
	8750 3850 9150 3850
Wire Wire Line
	8750 4300 9700 4300
Wire Wire Line
	9775 4150 9275 4150
Wire Wire Line
	9175 2025 9175 2450
Connection ~ 9175 2100
Wire Wire Line
	9375 2450 9375 2500
Wire Wire Line
	9375 2750 9375 2700
Wire Wire Line
	1950 4300 2550 4300
Wire Wire Line
	1950 4400 2550 4400
Wire Wire Line
	1950 4500 2550 4500
Wire Wire Line
	1950 4600 2550 4600
Wire Wire Line
	1950 4700 2550 4700
Wire Wire Line
	1950 4800 2550 4800
Wire Wire Line
	8750 3650 9100 3650
Wire Wire Line
	8750 3550 9100 3550
Wire Wire Line
	8750 3450 9100 3450
Wire Wire Line
	8650 6075 8700 6075
Wire Wire Line
	8175 5850 8175 6300
Wire Wire Line
	8175 6075 8350 6075
Connection ~ 8175 6075
Text Label 9250 5975 2    60   ~ 0
LED1
Text Label 9250 6075 2    60   ~ 0
LED2
Text Label 9250 6175 2    60   ~ 0
LED3
$Comp
L CPOL C17
U 1 1 59D8319F
P 9900 1725
F 0 "C17" H 10100 1775 50  0000 C CNN
F 1 "10uF" H 10100 1675 50  0000 C CNN
F 2 "Capacitors_Tantalum_SMD:CP_Tantalum_Case-A_EIA-3216-18_Hand" H 9890 1700 60  0001 C CNN
F 3 "" H 9890 1700 60  0000 C CNN
	1    9900 1725
	1    0    0    -1  
$EndComp
$Comp
L CPOL C18
U 1 1 59D8328F
P 10300 1725
F 0 "C18" H 10500 1775 50  0000 C CNN
F 1 "10uF" H 10500 1675 50  0000 C CNN
F 2 "Capacitors_Tantalum_SMD:CP_Tantalum_Case-A_EIA-3216-18_Hand" H 10290 1700 60  0001 C CNN
F 3 "" H 10290 1700 60  0000 C CNN
	1    10300 1725
	1    0    0    -1  
$EndComp
Wire Wire Line
	9900 1625 9900 1500
Wire Wire Line
	9900 1500 10300 1500
Wire Wire Line
	10300 1500 10300 1625
Wire Wire Line
	10100 1500 10100 1375
Connection ~ 10100 1500
$Comp
L +3.3V #PWR034
U 1 1 59D83B65
P 10100 1375
F 0 "#PWR034" H 10100 1225 50  0001 C CNN
F 1 "+3.3V" H 10100 1515 50  0000 C CNN
F 2 "" H 10100 1375 50  0001 C CNN
F 3 "" H 10100 1375 50  0001 C CNN
	1    10100 1375
	1    0    0    -1  
$EndComp
Wire Wire Line
	9900 1825 9900 1925
Wire Wire Line
	9900 1925 10300 1925
Wire Wire Line
	10300 1925 10300 1825
Wire Wire Line
	10100 1925 10100 2050
Connection ~ 10100 1925
$Comp
L GND #PWR035
U 1 1 59D83EB4
P 10100 2050
F 0 "#PWR035" H 10100 1800 50  0001 C CNN
F 1 "GND" H 10100 1900 50  0000 C CNN
F 2 "" H 10100 2050 50  0001 C CNN
F 3 "" H 10100 2050 50  0001 C CNN
	1    10100 2050
	1    0    0    -1  
$EndComp
$Comp
L R R16
U 1 1 59DD8151
P 1350 5700
F 0 "R16" V 1430 5700 50  0000 C CNN
F 1 "330" V 1350 5700 50  0000 C CNN
F 2 "Resistors_SMD:R_0805_HandSoldering" V 1280 5700 50  0001 C CNN
F 3 "" H 1350 5700 50  0001 C CNN
	1    1350 5700
	1    0    0    -1  
$EndComp
Wire Wire Line
	1350 5875 1350 5850
Wire Wire Line
	1350 5500 1350 5550
Text Label 1200 5500 2    60   ~ 0
PDI_CLK
$Comp
L R R17
U 1 1 59DDD384
P 1700 5700
F 0 "R17" V 1780 5700 50  0000 C CNN
F 1 "330" V 1700 5700 50  0000 C CNN
F 2 "Resistors_SMD:R_0805_HandSoldering" V 1630 5700 50  0001 C CNN
F 3 "" H 1700 5700 50  0001 C CNN
	1    1700 5700
	1    0    0    -1  
$EndComp
Text Label 1825 5500 0    60   ~ 0
PDI_CLK_2
Wire Wire Line
	1700 5500 1825 5500
Wire Wire Line
	1700 5550 1700 5500
Wire Wire Line
	1200 5500 1350 5500
Text Notes 1275 5375 0    60   ~ 0
Reset switches\n
$EndSCHEMATC
