(export (version D)
  (design
    (source D:/Workspaces/KiCad/Control_Board_Main/Control_Board_Rev_A.sch)
    (date "10/10/2017 6:34:16 PM")
    (tool "Eeschema 4.0.6")
    (sheet (number 1) (name /) (tstamps /)
      (title_block
        (title)
        (company)
        (rev)
        (date)
        (source Control_Board_Rev_A.sch)
        (comment (number 1) (value ""))
        (comment (number 2) (value ""))
        (comment (number 3) (value ""))
        (comment (number 4) (value ""))))
    (sheet (number 2) (name /RS-485/) (tstamps /595CE622/)
      (title_block
        (title)
        (company)
        (rev)
        (date)
        (source RS-485.sch)
        (comment (number 1) (value ""))
        (comment (number 2) (value ""))
        (comment (number 3) (value ""))
        (comment (number 4) (value ""))))
    (sheet (number 3) (name /Sensors/) (tstamps /59B49D08/)
      (title_block
        (title)
        (company)
        (rev)
        (date)
        (source Sensors.sch)
        (comment (number 1) (value ""))
        (comment (number 2) (value ""))
        (comment (number 3) (value ""))
        (comment (number 4) (value "")))))
  (components
    (comp (ref U2)
      (value 75176)
      (footprint Housings_SOIC:SOIC-8_3.9x4.9mm_Pitch1.27mm)
      (datasheet https://www.digikey.com/product-detail/en/exar-corporation/SP3072EEN-L-TR/1016-1784-1-ND/3586501)
      (libsource (lib 75176) (part 75176))
      (sheetpath (names /) (tstamps /))
      (tstamp 5951627A))
    (comp (ref R2)
      (value 1k)
      (footprint Resistors_SMD:R_0805_HandSoldering)
      (libsource (lib device) (part R))
      (sheetpath (names /) (tstamps /))
      (tstamp 595DDDFA))
    (comp (ref R3)
      (value 1k)
      (footprint Resistors_SMD:R_0805_HandSoldering)
      (libsource (lib device) (part R))
      (sheetpath (names /) (tstamps /))
      (tstamp 595E04B8))
    (comp (ref R1)
      (value 10k)
      (footprint Resistors_SMD:R_0805_HandSoldering)
      (libsource (lib device) (part R))
      (sheetpath (names /) (tstamps /))
      (tstamp 59517B2E))
    (comp (ref CON1)
      (value AVR-PUDI-6)
      (footprint Connectors:IDC_Header_Straight_6pins)
      (libsource (lib atmel) (part AVR-PUDI-6))
      (sheetpath (names /) (tstamps /))
      (tstamp 59516825))
    (comp (ref U1)
      (value ATXMEGA256A3-AU)
      (footprint Housings_QFP:LQFP-64_14x14mm_Pitch0.8mm)
      (datasheet http://www.mouser.com/ds/2/268/Atmel-8386-8-and-16-bit-AVR-Microcontroller-ATxmeg-1065814.pdf)
      (libsource (lib atmel) (part ATXMEGA256A3-AU))
      (sheetpath (names /) (tstamps /))
      (tstamp 594E6E37))
    (comp (ref C1)
      (value .1uF)
      (footprint Capacitors_SMD:C_0805_HandSoldering)
      (libsource (lib device) (part C))
      (sheetpath (names /) (tstamps /))
      (tstamp 59709EAE))
    (comp (ref D3)
      (value LED)
      (footprint Diodes_SMD:D_1206)
      (libsource (lib device) (part LED))
      (sheetpath (names /) (tstamps /))
      (tstamp 59727827))
    (comp (ref R7)
      (value 330)
      (footprint Resistors_SMD:R_0805_HandSoldering)
      (libsource (lib device) (part R))
      (sheetpath (names /) (tstamps /))
      (tstamp 5977CC28))
    (comp (ref R6)
      (value 330)
      (footprint Resistors_SMD:R_0805_HandSoldering)
      (libsource (lib device) (part R))
      (sheetpath (names /) (tstamps /))
      (tstamp 5977CEA1))
    (comp (ref R8)
      (value 330)
      (footprint Resistors_SMD:R_0805_HandSoldering)
      (libsource (lib device) (part R))
      (sheetpath (names /) (tstamps /))
      (tstamp 5977D200))
    (comp (ref D1)
      (value LED)
      (footprint Diodes_SMD:D_1206)
      (libsource (lib device) (part LED))
      (sheetpath (names /) (tstamps /))
      (tstamp 5972773E))
    (comp (ref D2)
      (value LED)
      (footprint Diodes_SMD:D_1206)
      (libsource (lib device) (part LED))
      (sheetpath (names /) (tstamps /))
      (tstamp 597809B9))
    (comp (ref C2)
      (value .1uF)
      (footprint Capacitors_SMD:C_0805_HandSoldering)
      (libsource (lib device) (part C))
      (sheetpath (names /) (tstamps /))
      (tstamp 5978C9E7))
    (comp (ref C3)
      (value .1uF)
      (footprint Capacitors_SMD:C_0805_HandSoldering)
      (libsource (lib device) (part C))
      (sheetpath (names /) (tstamps /))
      (tstamp 5978CB7E))
    (comp (ref C4)
      (value .1uF)
      (footprint Capacitors_SMD:C_0805_HandSoldering)
      (libsource (lib device) (part C))
      (sheetpath (names /) (tstamps /))
      (tstamp 5978CC83))
    (comp (ref C5)
      (value .1uF)
      (footprint Capacitors_SMD:C_0805_HandSoldering)
      (libsource (lib device) (part C))
      (sheetpath (names /) (tstamps /))
      (tstamp 5978CD6B))
    (comp (ref C6)
      (value .1uF)
      (footprint Capacitors_SMD:C_0805_HandSoldering)
      (libsource (lib device) (part C))
      (sheetpath (names /) (tstamps /))
      (tstamp 59793CC1))
    (comp (ref J1)
      (value CONN_01X02)
      (footprint Connectors_Molex:UltraFit_02x3.50mm_Angled)
      (libsource (lib conn) (part CONN_01X02))
      (sheetpath (names /) (tstamps /))
      (tstamp 59798D9B))
    (comp (ref C7)
      (value 10uF)
      (footprint Capacitors_Tantalum_SMD:CP_Tantalum_Case-A_EIA-3216-18_Hand)
      (libsource (lib _passive) (part CPOL))
      (sheetpath (names /) (tstamps /))
      (tstamp 5979BCD4))
    (comp (ref C8)
      (value 0.1uF)
      (footprint Capacitors_SMD:C_0805_HandSoldering)
      (libsource (lib device) (part C))
      (sheetpath (names /) (tstamps /))
      (tstamp 597A3E88))
    (comp (ref X1)
      (value CRYSTAL)
      (footprint Crystals:Crystal_SMD_Abracon_ABM3-2pin_5.0x3.2mm_HandSoldering)
      (datasheet https://www.digikey.com/product-detail/en/abracon-llc/ABLS-8.000MHZ-B4-T/535-10212-1-ND/2184247)
      (libsource (lib _passive) (part CRYSTAL))
      (sheetpath (names /) (tstamps /))
      (tstamp 597AEA97))
    (comp (ref C15)
      (value 15pF)
      (footprint Capacitors_SMD:C_0805_HandSoldering)
      (libsource (lib device) (part C))
      (sheetpath (names /) (tstamps /))
      (tstamp 597AF519))
    (comp (ref C16)
      (value 15pF)
      (footprint Capacitors_SMD:C_0805_HandSoldering)
      (libsource (lib device) (part C))
      (sheetpath (names /) (tstamps /))
      (tstamp 597AF74B))
    (comp (ref C22)
      (value .1uF)
      (footprint Capacitors_SMD:C_0805_HandSoldering)
      (libsource (lib device) (part C))
      (sheetpath (names /) (tstamps /))
      (tstamp 59A9EFB0))
    (comp (ref SW1)
      (value SPST)
      (footprint Buttons_Switches_SMD:SW_SPST_EVQP2)
      (libsource (lib _electromech) (part SPST))
      (sheetpath (names /) (tstamps /))
      (tstamp 59A9BC26))
    (comp (ref C26)
      (value .1uF)
      (footprint Capacitors_SMD:C_0805_HandSoldering)
      (libsource (lib device) (part C))
      (sheetpath (names /) (tstamps /))
      (tstamp 59AAA891))
    (comp (ref C27)
      (value .1uF)
      (footprint Capacitors_SMD:C_0805_HandSoldering)
      (libsource (lib device) (part C))
      (sheetpath (names /) (tstamps /))
      (tstamp 59AAA936))
    (comp (ref R12)
      (value 10k)
      (footprint Resistors_SMD:R_0805_HandSoldering)
      (libsource (lib device) (part R))
      (sheetpath (names /) (tstamps /))
      (tstamp 59AEEB18))
    (comp (ref CON2)
      (value AVR-PUDI-6)
      (footprint Connectors:IDC_Header_Straight_6pins)
      (libsource (lib atmel) (part AVR-PUDI-6))
      (sheetpath (names /) (tstamps /))
      (tstamp 59AEEB27))
    (comp (ref SW2)
      (value SPST)
      (footprint Buttons_Switches_SMD:SW_SPST_EVQP2)
      (libsource (lib _electromech) (part SPST))
      (sheetpath (names /) (tstamps /))
      (tstamp 59AFB9E0))
    (comp (ref C25)
      (value .1uF)
      (footprint Capacitors_SMD:C_0805_HandSoldering)
      (libsource (lib device) (part C))
      (sheetpath (names /) (tstamps /))
      (tstamp 59B06540))
    (comp (ref C21)
      (value .1uF)
      (footprint Capacitors_SMD:C_0805_HandSoldering)
      (libsource (lib device) (part C))
      (sheetpath (names /) (tstamps /))
      (tstamp 59B06DF1))
    (comp (ref X2)
      (value CRYSTAL)
      (footprint Crystals:Crystal_SMD_Abracon_ABM3-2pin_5.0x3.2mm_HandSoldering)
      (datasheet https://www.digikey.com/product-detail/en/abracon-llc/ABLS-8.000MHZ-B4-T/535-10212-1-ND/2184247)
      (libsource (lib _passive) (part CRYSTAL))
      (sheetpath (names /) (tstamps /))
      (tstamp 59B09C82))
    (comp (ref C19)
      (value 15pF)
      (footprint Capacitors_SMD:C_0805_HandSoldering)
      (libsource (lib device) (part C))
      (sheetpath (names /) (tstamps /))
      (tstamp 59B09C88))
    (comp (ref C20)
      (value 15pF)
      (footprint Capacitors_SMD:C_0805_HandSoldering)
      (libsource (lib device) (part C))
      (sheetpath (names /) (tstamps /))
      (tstamp 59B09C8E))
    (comp (ref C24)
      (value .1uF)
      (footprint Capacitors_SMD:C_0805_HandSoldering)
      (libsource (lib device) (part C))
      (sheetpath (names /) (tstamps /))
      (tstamp 59B0C863))
    (comp (ref R9)
      (value 330)
      (footprint Resistors_SMD:R_0805_HandSoldering)
      (libsource (lib device) (part R))
      (sheetpath (names /) (tstamps /))
      (tstamp 59B05400))
    (comp (ref R11)
      (value 330)
      (footprint Resistors_SMD:R_0805_HandSoldering)
      (libsource (lib device) (part R))
      (sheetpath (names /) (tstamps /))
      (tstamp 59B05631))
    (comp (ref R10)
      (value 330)
      (footprint Resistors_SMD:R_0805_HandSoldering)
      (libsource (lib device) (part R))
      (sheetpath (names /) (tstamps /))
      (tstamp 59B056E0))
    (comp (ref D5)
      (value LED)
      (footprint Diodes_SMD:D_1206)
      (libsource (lib device) (part LED))
      (sheetpath (names /) (tstamps /))
      (tstamp 59B066B8))
    (comp (ref D6)
      (value LED)
      (footprint Diodes_SMD:D_1206)
      (libsource (lib device) (part LED))
      (sheetpath (names /) (tstamps /))
      (tstamp 59B06A40))
    (comp (ref C23)
      (value 10uF)
      (footprint Capacitors_Tantalum_SMD:CP_Tantalum_Case-A_EIA-3216-18_Hand)
      (libsource (lib _passive) (part CPOL))
      (sheetpath (names /) (tstamps /))
      (tstamp 59B0E8AE))
    (comp (ref J9)
      (value CONN_01X06)
      (footprint Connectors_Molex:Molex_MicroLatch-53253-0670_06x2.00mm_Straight)
      (libsource (lib conn) (part CONN_01X06))
      (sheetpath (names /) (tstamps /))
      (tstamp 59B27A3A))
    (comp (ref U10)
      (value ATXMEGA256A3-AU)
      (footprint Housings_QFP:TQFP-64_14x14mm_Pitch0.8mm)
      (datasheet http://www.atmel.com/images/Atmel-8331-8-and-16-bit-AVR-Microcontroller-XMEGA-AU_Manual.pdf)
      (libsource (lib atmel) (part ATXMEGA256A3-AU))
      (sheetpath (names /) (tstamps /))
      (tstamp 59AF3885))
    (comp (ref J15)
      (value CONN_01X06)
      (footprint Connectors_Molex:Molex_MicroLatch-53253-0670_06x2.00mm_Straight)
      (libsource (lib conn) (part CONN_01X06))
      (sheetpath (names /) (tstamps /))
      (tstamp 59CA5A40))
    (comp (ref D4)
      (value LED)
      (footprint Diodes_SMD:D_1206)
      (libsource (lib device) (part LED))
      (sheetpath (names /) (tstamps /))
      (tstamp 59B06983))
    (comp (ref C17)
      (value 10uF)
      (footprint Capacitors_Tantalum_SMD:CP_Tantalum_Case-A_EIA-3216-18_Hand)
      (libsource (lib _passive) (part CPOL))
      (sheetpath (names /) (tstamps /))
      (tstamp 59D8319F))
    (comp (ref C18)
      (value 10uF)
      (footprint Capacitors_Tantalum_SMD:CP_Tantalum_Case-A_EIA-3216-18_Hand)
      (libsource (lib _passive) (part CPOL))
      (sheetpath (names /) (tstamps /))
      (tstamp 59D8328F))
    (comp (ref R16)
      (value 330)
      (footprint Resistors_SMD:R_0805_HandSoldering)
      (libsource (lib device) (part R))
      (sheetpath (names /) (tstamps /))
      (tstamp 59DD8151))
    (comp (ref R17)
      (value 330)
      (footprint Resistors_SMD:R_0805_HandSoldering)
      (libsource (lib device) (part R))
      (sheetpath (names /) (tstamps /))
      (tstamp 59DDD384))
    (comp (ref U3)
      (value 75176)
      (footprint Housings_SOIC:SOIC-8_3.9x4.9mm_Pitch1.27mm)
      (libsource (lib 75176) (part 75176))
      (sheetpath (names /RS-485/) (tstamps /595CE622/))
      (tstamp 595CEB9D))
    (comp (ref U4)
      (value 75176)
      (footprint Housings_SOIC:SOIC-8_3.9x4.9mm_Pitch1.27mm)
      (libsource (lib 75176) (part 75176))
      (sheetpath (names /RS-485/) (tstamps /595CE622/))
      (tstamp 595CFCFD))
    (comp (ref U5)
      (value 75176)
      (footprint Housings_SOIC:SOIC-8_3.9x4.9mm_Pitch1.27mm)
      (libsource (lib 75176) (part 75176))
      (sheetpath (names /RS-485/) (tstamps /595CE622/))
      (tstamp 595D00CB))
    (comp (ref U6)
      (value 75176)
      (footprint Housings_SOIC:SOIC-8_3.9x4.9mm_Pitch1.27mm)
      (libsource (lib 75176) (part 75176))
      (sheetpath (names /RS-485/) (tstamps /595CE622/))
      (tstamp 595D00ED))
    (comp (ref U7)
      (value 75176)
      (footprint Housings_SOIC:SOIC-8_3.9x4.9mm_Pitch1.27mm)
      (libsource (lib 75176) (part 75176))
      (sheetpath (names /RS-485/) (tstamps /595CE622/))
      (tstamp 595D0386))
    (comp (ref U8)
      (value 75176)
      (footprint Housings_SOIC:SOIC-8_3.9x4.9mm_Pitch1.27mm)
      (libsource (lib 75176) (part 75176))
      (sheetpath (names /RS-485/) (tstamps /595CE622/))
      (tstamp 595D03A8))
    (comp (ref R4)
      (value 120)
      (footprint Resistors_SMD:R_0805_HandSoldering)
      (libsource (lib device) (part R))
      (sheetpath (names /RS-485/) (tstamps /595CE622/))
      (tstamp 595FE21B))
    (comp (ref R5)
      (value 120)
      (footprint Resistors_SMD:R_0805_HandSoldering)
      (libsource (lib device) (part R))
      (sheetpath (names /RS-485/) (tstamps /595CE622/))
      (tstamp 59678297))
    (comp (ref C9)
      (value .1uF)
      (footprint Capacitors_SMD:C_0805_HandSoldering)
      (libsource (lib device) (part C))
      (sheetpath (names /RS-485/) (tstamps /595CE622/))
      (tstamp 597A74FC))
    (comp (ref C14)
      (value .1uF)
      (footprint Capacitors_SMD:C_0805_HandSoldering)
      (libsource (lib device) (part C))
      (sheetpath (names /RS-485/) (tstamps /595CE622/))
      (tstamp 597A82A8))
    (comp (ref C13)
      (value .1uF)
      (footprint Capacitors_SMD:C_0805_HandSoldering)
      (libsource (lib device) (part C))
      (sheetpath (names /RS-485/) (tstamps /595CE622/))
      (tstamp 597A8524))
    (comp (ref C11)
      (value .1uF)
      (footprint Capacitors_SMD:C_0805_HandSoldering)
      (libsource (lib device) (part C))
      (sheetpath (names /RS-485/) (tstamps /595CE622/))
      (tstamp 597A87E5))
    (comp (ref C12)
      (value .1uF)
      (footprint Capacitors_SMD:C_0805_HandSoldering)
      (libsource (lib device) (part C))
      (sheetpath (names /RS-485/) (tstamps /595CE622/))
      (tstamp 597A8BE4))
    (comp (ref C10)
      (value .1uF)
      (footprint Capacitors_SMD:C_0805_HandSoldering)
      (libsource (lib device) (part C))
      (sheetpath (names /RS-485/) (tstamps /595CE622/))
      (tstamp 597AA6DF))
    (comp (ref J6)
      (value CONN_01X05)
      (footprint Connectors_Molex:Molex_MicroLatch-53253-0570_05x2.00mm_Straight)
      (libsource (lib conn) (part CONN_01X05))
      (sheetpath (names /RS-485/) (tstamps /595CE622/))
      (tstamp 59CEFF22))
    (comp (ref J7)
      (value CONN_01X05)
      (footprint Connectors_Molex:Molex_MicroLatch-53253-0570_05x2.00mm_Straight)
      (libsource (lib conn) (part CONN_01X05))
      (sheetpath (names /RS-485/) (tstamps /595CE622/))
      (tstamp 59CF01A7))
    (comp (ref J5)
      (value CONN_01X05)
      (footprint Connectors_Molex:Molex_MicroLatch-53253-0570_05x2.00mm_Straight)
      (libsource (lib conn) (part CONN_01X05))
      (sheetpath (names /RS-485/) (tstamps /595CE622/))
      (tstamp 59CF0245))
    (comp (ref J4)
      (value CONN_01X05)
      (footprint Connectors_Molex:Molex_MicroLatch-53253-0570_05x2.00mm_Straight)
      (libsource (lib conn) (part CONN_01X05))
      (sheetpath (names /RS-485/) (tstamps /595CE622/))
      (tstamp 59CF0562))
    (comp (ref J3)
      (value CONN_01X05)
      (footprint Connectors_Molex:Molex_MicroLatch-53253-0570_05x2.00mm_Straight)
      (libsource (lib conn) (part CONN_01X05))
      (sheetpath (names /RS-485/) (tstamps /595CE622/))
      (tstamp 59CF08BA))
    (comp (ref J2)
      (value CONN_01X05)
      (footprint Connectors_Molex:Molex_MicroLatch-53253-0570_05x2.00mm_Straight)
      (libsource (lib conn) (part CONN_01X05))
      (sheetpath (names /RS-485/) (tstamps /595CE622/))
      (tstamp 59CF0980))
    (comp (ref R13)
      (value 2.2k)
      (footprint Resistors_SMD:R_0805_HandSoldering)
      (libsource (lib device) (part R))
      (sheetpath (names /Sensors/) (tstamps /59B49D08/))
      (tstamp 59B4AF5E))
    (comp (ref R14)
      (value 3.3k)
      (footprint Resistors_SMD:R_0805_HandSoldering)
      (libsource (lib device) (part R))
      (sheetpath (names /Sensors/) (tstamps /59B49D08/))
      (tstamp 59B4AF65))
    (comp (ref J11)
      (value CONN_01X05)
      (footprint Connectors_Molex:Molex_MicroLatch-53253-0570_05x2.00mm_Straight)
      (datasheet https://www.adafruit.com/product/746)
      (libsource (lib conn) (part CONN_01X05))
      (sheetpath (names /Sensors/) (tstamps /59B49D08/))
      (tstamp 59B52BC3))
    (comp (ref J12)
      (value CONN_01X05)
      (footprint Connectors_Molex:Molex_MicroLatch-53253-0570_05x2.00mm_Straight)
      (datasheet https://learn.adafruit.com/adafruit-bno055-absolute-orientation-sensor/overview)
      (libsource (lib conn) (part CONN_01X05))
      (sheetpath (names /Sensors/) (tstamps /59B49D08/))
      (tstamp 59B867A5))
    (comp (ref J13)
      (value CONN_01X05)
      (footprint Connectors_Molex:Molex_MicroLatch-53253-0570_05x2.00mm_Straight)
      (datasheet https://learn.adafruit.com/adafruit-bno055-absolute-orientation-sensor/overview)
      (libsource (lib conn) (part CONN_01X05))
      (sheetpath (names /Sensors/) (tstamps /59B49D08/))
      (tstamp 59B86CA3))
    (comp (ref R15)
      (value 4.7k)
      (footprint Resistors_SMD:R_0805_HandSoldering)
      (libsource (lib device) (part R))
      (sheetpath (names /Sensors/) (tstamps /59B49D08/))
      (tstamp 59C7E60C))
    (comp (ref J8)
      (value CONN_01X05)
      (footprint Connectors_Molex:Molex_MicroLatch-53253-0570_05x2.00mm_Straight)
      (libsource (lib conn) (part CONN_01X05))
      (sheetpath (names /Sensors/) (tstamps /59B49D08/))
      (tstamp 59D55B5D))
    (comp (ref J10)
      (value CONN_01X05)
      (footprint Connectors_Molex:Molex_MicroLatch-53253-0570_05x2.00mm_Straight)
      (libsource (lib conn) (part CONN_01X05))
      (sheetpath (names /Sensors/) (tstamps /59B49D08/))
      (tstamp 59D55FCB))
    (comp (ref J14)
      (value CONN_01X05)
      (footprint Connectors_Molex:Molex_MicroLatch-53253-0570_05x2.00mm_Straight)
      (datasheet https://learn.adafruit.com/adafruit-bno055-absolute-orientation-sensor/overview)
      (libsource (lib conn) (part CONN_01X05))
      (sheetpath (names /Sensors/) (tstamps /59B49D08/))
      (tstamp 59D577A3)))
  (libparts
    (libpart (lib 75176) (part 75176)
      (fields
        (field (name Reference) U)
        (field (name Value) 75176)
        (field (name Footprint) Housings_SOIC:SOIC-8_3.9x4.9mm_Pitch1.27mm))
      (pins
        (pin (num 1) (name R) (type input))
        (pin (num 2) (name /RE) (type input))
        (pin (num 3) (name DE) (type input))
        (pin (num 4) (name D) (type input))
        (pin (num 5) (name GND) (type input))
        (pin (num 6) (name A) (type input))
        (pin (num 7) (name B) (type input))
        (pin (num 8) (name VCC) (type input))))
    (libpart (lib atmel) (part ATXMEGA128A3-AU)
      (aliases
        (alias ATXMEGA64A3-AU)
        (alias ATXMEGA256A3-AU)
        (alias ATXMEGA192A3-AU))
      (description "TQFP64, 128k Flash, 8k Boot, 8k SRAM, 2k EEPROM, JTAG")
      (docs http://www.atmel.com/Images/Atmel-8068-8-and16-bit-AVR-XMEGA-A3-Microcontrollers_Datasheet.pdf)
      (fields
        (field (name Reference) U)
        (field (name Value) ATXMEGA128A3-AU)
        (field (name Footprint) TQFP64))
      (pins
        (pin (num 1) (name AC3/ADC3/PA3) (type BiDi))
        (pin (num 2) (name AC4/ADC4/PA4) (type BiDi))
        (pin (num 3) (name AC5/ADC5/PA5) (type BiDi))
        (pin (num 4) (name AC6/ADC6/PA6) (type BiDi))
        (pin (num 5) (name AC0OUT/AC7/ADC7/PA7) (type BiDi))
        (pin (num 6) (name AREFB/AC0/ADC0/PB0) (type BiDi))
        (pin (num 7) (name AC1/ADC1/PB1) (type BiDi))
        (pin (num 8) (name DAC0/AC2/ADC2/PB2) (type BiDi))
        (pin (num 9) (name DAC1/AC3/ADC3/PB3) (type BiDi))
        (pin (num 10) (name TMS/AC4/ADC4/PB4) (type BiDi))
        (pin (num 11) (name TDI/AC5/ADC5/PB5) (type BiDi))
        (pin (num 12) (name TCK/AC6/ADC6/PB6) (type BiDi))
        (pin (num 13) (name TDO/AC0OUT/AC7/ADC7/PB7) (type BiDi))
        (pin (num 14) (name GND) (type power_in))
        (pin (num 15) (name VCC) (type power_in))
        (pin (num 16) (name SDA/~OC0ALS~/OC0A/PC0) (type BiDi))
        (pin (num 17) (name SCL/XCK0/OC0AHS/OC0B/PC1) (type BiDi))
        (pin (num 18) (name RXD0/~OC0BLS~/OC0C/PC2) (type BiDi))
        (pin (num 19) (name TXD0/OC0BHS/OC0D/PC3) (type BiDi))
        (pin (num 20) (name ~SS~/~OC0CLS~/OC1A/PC4) (type BiDi))
        (pin (num 21) (name MOSI/XCK1/OC0CHS/OC1B/PC5) (type BiDi))
        (pin (num 22) (name MISO/RXD1/~OC0DLS~/PC6) (type BiDi))
        (pin (num 23) (name EVOUT/CLKOUT/SCK/TXD1/OC0DHS/PC7) (type BiDi))
        (pin (num 24) (name GND) (type power_in))
        (pin (num 25) (name VCC) (type power_in))
        (pin (num 26) (name OC0A/PD0) (type BiDi))
        (pin (num 27) (name XCK0/OC0B/PD1) (type BiDi))
        (pin (num 28) (name RXD0/OC0C/PD2) (type BiDi))
        (pin (num 29) (name TXD0/OC0D/PD3) (type BiDi))
        (pin (num 30) (name PD4/OC1A/~SS~) (type BiDi))
        (pin (num 31) (name PD5/OC1B/XCK1/MOSI) (type BiDi))
        (pin (num 32) (name PD6/RXD1/MISO) (type BiDi))
        (pin (num 33) (name PD7/TXD1/SCK/CLKOUT/EVOUT) (type BiDi))
        (pin (num 34) (name GND) (type power_in))
        (pin (num 35) (name VCC) (type power_in))
        (pin (num 36) (name PE0/OC0A/SDA) (type BiDi))
        (pin (num 37) (name PE1/OC0B/XCK0/SCL) (type BiDi))
        (pin (num 38) (name PE2/OC0C/RXD0) (type BiDi))
        (pin (num 39) (name PE3/OC0D/TXD0) (type BiDi))
        (pin (num 40) (name PE4/OC1A/~SS~) (type BiDi))
        (pin (num 41) (name PE5/OC1B/XCK1/MOSI) (type BiDi))
        (pin (num 42) (name PE6/RXD1/MISO/TOSC2) (type BiDi))
        (pin (num 43) (name PE7/TXD1/SCK/TOSC1) (type BiDi))
        (pin (num 44) (name GND) (type power_in))
        (pin (num 45) (name VCC) (type power_in))
        (pin (num 46) (name PF0/OC0A) (type BiDi))
        (pin (num 47) (name PF1/OC0B/XCK0) (type BiDi))
        (pin (num 48) (name PF2/OC0C/RXD0) (type BiDi))
        (pin (num 49) (name PF3/OC0D/TXD0) (type BiDi))
        (pin (num 50) (name PF4) (type BiDi))
        (pin (num 51) (name PF5) (type BiDi))
        (pin (num 52) (name GND) (type power_in))
        (pin (num 53) (name VCC) (type power_in))
        (pin (num 54) (name PF6) (type BiDi))
        (pin (num 55) (name PF7) (type BiDi))
        (pin (num 56) (name PDI_DATA) (type input))
        (pin (num 57) (name ~RESET~/PDI_CLK) (type input))
        (pin (num 58) (name PR0/XTAL2) (type BiDi))
        (pin (num 59) (name PR1/XTAL1) (type BiDi))
        (pin (num 60) (name GND) (type power_in))
        (pin (num 61) (name AVCC) (type power_in))
        (pin (num 62) (name AREFA/AC0/ADC0/PA0) (type BiDi))
        (pin (num 63) (name AC1/ADC1/PA1) (type BiDi))
        (pin (num 64) (name AC2/ADC2/PA2) (type BiDi))))
    (libpart (lib atmel) (part AVR-PUDI-6)
      (description "Standard IDC6 Male Connector, ATMEL PDI 6pin")
      (fields
        (field (name Reference) CON)
        (field (name Value) AVR-PUDI-6)
        (field (name Footprint) AVR-PUDI-6))
      (pins
        (pin (num 1) (name ~) (type passive))
        (pin (num 2) (name ~) (type passive))
        (pin (num 3) (name ~) (type passive))
        (pin (num 4) (name ~) (type passive))
        (pin (num 5) (name ~) (type passive))
        (pin (num 6) (name ~) (type passive))))
    (libpart (lib device) (part C)
      (description "Unpolarized capacitor")
      (footprints
        (fp C_*))
      (fields
        (field (name Reference) C)
        (field (name Value) C))
      (pins
        (pin (num 1) (name ~) (type passive))
        (pin (num 2) (name ~) (type passive))))
    (libpart (lib conn) (part CONN_01X02)
      (description "Connector, single row, 01x02, pin header")
      (footprints
        (fp Pin_Header_Straight_1X*)
        (fp Pin_Header_Angled_1X*)
        (fp Socket_Strip_Straight_1X*)
        (fp Socket_Strip_Angled_1X*))
      (fields
        (field (name Reference) J)
        (field (name Value) CONN_01X02))
      (pins
        (pin (num 1) (name P1) (type passive))
        (pin (num 2) (name P2) (type passive))))
    (libpart (lib conn) (part CONN_01X05)
      (description "Connector, single row, 01x05, pin header")
      (footprints
        (fp Pin_Header_Straight_1X*)
        (fp Pin_Header_Angled_1X*)
        (fp Socket_Strip_Straight_1X*)
        (fp Socket_Strip_Angled_1X*))
      (fields
        (field (name Reference) J)
        (field (name Value) CONN_01X05))
      (pins
        (pin (num 1) (name P1) (type passive))
        (pin (num 2) (name P2) (type passive))
        (pin (num 3) (name P3) (type passive))
        (pin (num 4) (name P4) (type passive))
        (pin (num 5) (name P5) (type passive))))
    (libpart (lib conn) (part CONN_01X06)
      (description "Connector, single row, 01x06, pin header")
      (footprints
        (fp Pin_Header_Straight_1X*)
        (fp Pin_Header_Angled_1X*)
        (fp Socket_Strip_Straight_1X*)
        (fp Socket_Strip_Angled_1X*))
      (fields
        (field (name Reference) J)
        (field (name Value) CONN_01X06))
      (pins
        (pin (num 1) (name P1) (type passive))
        (pin (num 2) (name P2) (type passive))
        (pin (num 3) (name P3) (type passive))
        (pin (num 4) (name P4) (type passive))
        (pin (num 5) (name P5) (type passive))
        (pin (num 6) (name P6) (type passive))))
    (libpart (lib _passive) (part CPOL)
      (description "Capacitor, polarized")
      (fields
        (field (name Reference) C)
        (field (name Value) CPOL))
      (pins
        (pin (num 1) (name ~) (type passive))
        (pin (num 2) (name ~) (type passive))))
    (libpart (lib _passive) (part CRYSTAL)
      (description Crystal)
      (fields
        (field (name Reference) X)
        (field (name Value) CRYSTAL))
      (pins
        (pin (num 1) (name ~) (type passive))
        (pin (num 2) (name ~) (type passive))))
    (libpart (lib device) (part LED)
      (description "LED generic")
      (footprints
        (fp LED*))
      (fields
        (field (name Reference) D)
        (field (name Value) LED))
      (pins
        (pin (num 1) (name K) (type passive))
        (pin (num 2) (name A) (type passive))))
    (libpart (lib device) (part R)
      (description Resistor)
      (footprints
        (fp R_*)
        (fp R_*))
      (fields
        (field (name Reference) R)
        (field (name Value) R))
      (pins
        (pin (num 1) (name ~) (type passive))
        (pin (num 2) (name ~) (type passive))))
    (libpart (lib _electromech) (part SPST)
      (description "Switch, SPST")
      (fields
        (field (name Reference) SW)
        (field (name Value) SPST))
      (pins
        (pin (num 1) (name ~) (type passive))
        (pin (num 2) (name ~) (type passive)))))
  (libraries
    (library (logical device)
      (uri D:\Workspaces\KiCad\GitSchLib\device.lib))
    (library (logical 75176)
      (uri D:\Workspaces\KiCad\GitSchLib\75176.lib))
    (library (logical _passive)
      (uri D:\Workspaces\KiCad\GitSchLib\_passive.lib))
    (library (logical conn)
      (uri D:\Workspaces\KiCad\GitSchLib\conn.lib))
    (library (logical atmel)
      (uri D:\Workspaces\KiCad\GitSchLib\atmel.lib))
    (library (logical _electromech)
      (uri D:\Workspaces\KiCad\GitSchLib\_electromech.lib)))
  (nets
    (net (code 1) (name /PDI_DATA)
      (node (ref CON1) (pin 1))
      (node (ref U1) (pin 56)))
    (net (code 2) (name "Net-(R8-Pad2)")
      (node (ref U1) (pin 3))
      (node (ref R8) (pin 2)))
    (net (code 3) (name "Net-(R6-Pad2)")
      (node (ref R6) (pin 2))
      (node (ref U1) (pin 1)))
    (net (code 4) (name "Net-(D1-Pad2)")
      (node (ref R6) (pin 1))
      (node (ref D1) (pin 2)))
    (net (code 5) (name "Net-(R7-Pad2)")
      (node (ref R7) (pin 2))
      (node (ref U1) (pin 2)))
    (net (code 6) (name "Net-(D2-Pad2)")
      (node (ref R7) (pin 1))
      (node (ref D2) (pin 2)))
    (net (code 7) (name "Net-(D3-Pad2)")
      (node (ref D3) (pin 2))
      (node (ref R8) (pin 1)))
    (net (code 8) (name "Net-(U10-Pad47)")
      (node (ref U10) (pin 47)))
    (net (code 9) (name "Net-(U10-Pad48)")
      (node (ref U10) (pin 48)))
    (net (code 10) (name "Net-(U10-Pad37)")
      (node (ref U10) (pin 37)))
    (net (code 11) (name "Net-(U10-Pad49)")
      (node (ref U10) (pin 49)))
    (net (code 12) (name /RST_IMU_2)
      (node (ref J13) (pin 4))
      (node (ref U10) (pin 13)))
    (net (code 13) (name "Net-(J15-Pad1)")
      (node (ref U1) (pin 38))
      (node (ref J15) (pin 1)))
    (net (code 14) (name "Net-(J15-Pad2)")
      (node (ref U1) (pin 39))
      (node (ref J15) (pin 2)))
    (net (code 15) (name "Net-(J15-Pad3)")
      (node (ref J15) (pin 3))
      (node (ref U1) (pin 40)))
    (net (code 16) (name "Net-(J15-Pad4)")
      (node (ref U1) (pin 41))
      (node (ref J15) (pin 4)))
    (net (code 17) (name "Net-(J15-Pad5)")
      (node (ref J15) (pin 5))
      (node (ref U1) (pin 42)))
    (net (code 18) (name "Net-(J15-Pad6)")
      (node (ref U1) (pin 43))
      (node (ref J15) (pin 6)))
    (net (code 19) (name "Net-(U10-Pad63)")
      (node (ref U10) (pin 63)))
    (net (code 20) (name "Net-(U10-Pad54)")
      (node (ref U10) (pin 54)))
    (net (code 21) (name "Net-(U10-Pad64)")
      (node (ref U10) (pin 64)))
    (net (code 22) (name /LED1)
      (node (ref R9) (pin 1))
      (node (ref U10) (pin 10)))
    (net (code 23) (name "Net-(U10-Pad55)")
      (node (ref U10) (pin 55)))
    (net (code 24) (name "Net-(U10-Pad26)")
      (node (ref U10) (pin 26)))
    (net (code 25) (name "Net-(U10-Pad36)")
      (node (ref U10) (pin 36)))
    (net (code 26) (name "Net-(U10-Pad46)")
      (node (ref U10) (pin 46)))
    (net (code 27) (name /TX_485)
      (node (ref U1) (pin 29))
      (node (ref U2) (pin 4)))
    (net (code 28) (name /PDI_DATA_2)
      (node (ref U10) (pin 56))
      (node (ref CON2) (pin 1)))
    (net (code 29) (name /EN)
      (node (ref U2) (pin 3))
      (node (ref U1) (pin 27))
      (node (ref U2) (pin 2)))
    (net (code 30) (name /RX_485)
      (node (ref U2) (pin 1))
      (node (ref U1) (pin 28)))
    (net (code 31) (name /LED2)
      (node (ref U10) (pin 9))
      (node (ref R10) (pin 1)))
    (net (code 32) (name /LED3)
      (node (ref R11) (pin 1))
      (node (ref U10) (pin 8)))
    (net (code 33) (name "Net-(D4-Pad2)")
      (node (ref D4) (pin 2))
      (node (ref R9) (pin 2)))
    (net (code 34) (name "Net-(J9-Pad2)")
      (node (ref J9) (pin 2))
      (node (ref U10) (pin 19)))
    (net (code 35) (name "Net-(J9-Pad1)")
      (node (ref J9) (pin 1))
      (node (ref U10) (pin 18)))
    (net (code 36) (name "Net-(R17-Pad2)")
      (node (ref SW2) (pin 2))
      (node (ref R17) (pin 2)))
    (net (code 37) (name "Net-(J9-Pad5)")
      (node (ref U10) (pin 22))
      (node (ref J9) (pin 5)))
    (net (code 38) (name /SDA)
      (node (ref J14) (pin 2))
      (node (ref J12) (pin 2))
      (node (ref U10) (pin 16))
      (node (ref R13) (pin 2))
      (node (ref J13) (pin 2)))
    (net (code 39) (name /SCL)
      (node (ref J13) (pin 3))
      (node (ref R14) (pin 2))
      (node (ref J14) (pin 3))
      (node (ref U10) (pin 17))
      (node (ref J12) (pin 3)))
    (net (code 40) (name /RST_IMU)
      (node (ref U10) (pin 12))
      (node (ref J12) (pin 4)))
    (net (code 41) (name /TSense)
      (node (ref U10) (pin 62))
      (node (ref J8) (pin 2))
      (node (ref R15) (pin 2)))
    (net (code 42) (name /MSense)
      (node (ref J10) (pin 3))
      (node (ref U10) (pin 6)))
    (net (code 43) (name /GPS_TX)
      (node (ref U10) (pin 28))
      (node (ref J11) (pin 3)))
    (net (code 44) (name "Net-(J9-Pad6)")
      (node (ref J9) (pin 6))
      (node (ref U10) (pin 23)))
    (net (code 45) (name "Net-(J9-Pad4)")
      (node (ref J9) (pin 4))
      (node (ref U10) (pin 21)))
    (net (code 46) (name "Net-(J9-Pad3)")
      (node (ref U10) (pin 20))
      (node (ref J9) (pin 3)))
    (net (code 47) (name "Net-(R16-Pad2)")
      (node (ref R16) (pin 2))
      (node (ref SW1) (pin 2)))
    (net (code 48) (name +3V3)
      (node (ref U1) (pin 25))
      (node (ref CON1) (pin 2))
      (node (ref C8) (pin 1))
      (node (ref U1) (pin 45))
      (node (ref U1) (pin 35))
      (node (ref U1) (pin 15))
      (node (ref R2) (pin 1))
      (node (ref U2) (pin 8))
      (node (ref C4) (pin 1))
      (node (ref C7) (pin 1))
      (node (ref R1) (pin 1))
      (node (ref U10) (pin 53))
      (node (ref U1) (pin 53))
      (node (ref C3) (pin 1))
      (node (ref C5) (pin 1))
      (node (ref C10) (pin 1))
      (node (ref U6) (pin 8))
      (node (ref C12) (pin 1))
      (node (ref C13) (pin 1))
      (node (ref C14) (pin 1))
      (node (ref C9) (pin 1))
      (node (ref U8) (pin 8))
      (node (ref U4) (pin 8))
      (node (ref U3) (pin 8))
      (node (ref U5) (pin 8))
      (node (ref C21) (pin 1))
      (node (ref C25) (pin 1))
      (node (ref C11) (pin 1))
      (node (ref U7) (pin 8))
      (node (ref U10) (pin 61))
      (node (ref C23) (pin 1))
      (node (ref U1) (pin 61))
      (node (ref C27) (pin 1))
      (node (ref C24) (pin 1))
      (node (ref C26) (pin 1))
      (node (ref C22) (pin 1))
      (node (ref CON2) (pin 2))
      (node (ref R12) (pin 1))
      (node (ref R14) (pin 1))
      (node (ref R15) (pin 1))
      (node (ref J12) (pin 1))
      (node (ref C1) (pin 1))
      (node (ref J11) (pin 1))
      (node (ref J10) (pin 1))
      (node (ref J14) (pin 1))
      (node (ref C18) (pin 1))
      (node (ref U10) (pin 45))
      (node (ref U10) (pin 25))
      (node (ref U10) (pin 35))
      (node (ref U10) (pin 15))
      (node (ref J8) (pin 1))
      (node (ref R13) (pin 1))
      (node (ref C6) (pin 2))
      (node (ref C17) (pin 1))
      (node (ref J1) (pin 1))
      (node (ref J13) (pin 1))
      (node (ref C2) (pin 1)))
    (net (code 49) (name GND)
      (node (ref C26) (pin 2))
      (node (ref C24) (pin 2))
      (node (ref J14) (pin 4))
      (node (ref C19) (pin 2))
      (node (ref C20) (pin 2))
      (node (ref U10) (pin 14))
      (node (ref C27) (pin 2))
      (node (ref U10) (pin 24))
      (node (ref U4) (pin 5))
      (node (ref C25) (pin 2))
      (node (ref U3) (pin 5))
      (node (ref C21) (pin 2))
      (node (ref U6) (pin 5))
      (node (ref SW2) (pin 1))
      (node (ref J3) (pin 4))
      (node (ref J3) (pin 5))
      (node (ref J2) (pin 4))
      (node (ref J2) (pin 5))
      (node (ref J13) (pin 5))
      (node (ref U8) (pin 5))
      (node (ref J5) (pin 5))
      (node (ref J5) (pin 4))
      (node (ref J7) (pin 5))
      (node (ref J7) (pin 4))
      (node (ref J6) (pin 5))
      (node (ref J6) (pin 4))
      (node (ref J4) (pin 4))
      (node (ref J4) (pin 5))
      (node (ref U7) (pin 5))
      (node (ref C12) (pin 2))
      (node (ref C11) (pin 2))
      (node (ref C13) (pin 2))
      (node (ref C14) (pin 2))
      (node (ref C9) (pin 2))
      (node (ref J11) (pin 5))
      (node (ref U1) (pin 44))
      (node (ref R3) (pin 2))
      (node (ref U2) (pin 5))
      (node (ref U1) (pin 60))
      (node (ref J12) (pin 5))
      (node (ref J14) (pin 5))
      (node (ref U1) (pin 34))
      (node (ref U1) (pin 24))
      (node (ref U1) (pin 14))
      (node (ref C5) (pin 2))
      (node (ref C4) (pin 2))
      (node (ref C3) (pin 2))
      (node (ref C8) (pin 2))
      (node (ref C2) (pin 2))
      (node (ref C6) (pin 1))
      (node (ref C16) (pin 2))
      (node (ref C15) (pin 2))
      (node (ref C7) (pin 2))
      (node (ref C1) (pin 2))
      (node (ref D3) (pin 1))
      (node (ref D1) (pin 1))
      (node (ref CON1) (pin 6))
      (node (ref D2) (pin 1))
      (node (ref C10) (pin 2))
      (node (ref J1) (pin 2))
      (node (ref J10) (pin 5))
      (node (ref D4) (pin 1))
      (node (ref J10) (pin 4))
      (node (ref J10) (pin 2))
      (node (ref J8) (pin 5))
      (node (ref U10) (pin 34))
      (node (ref SW1) (pin 1))
      (node (ref U10) (pin 44))
      (node (ref C22) (pin 2))
      (node (ref U5) (pin 5))
      (node (ref CON2) (pin 6))
      (node (ref J8) (pin 3))
      (node (ref C17) (pin 2))
      (node (ref C18) (pin 2))
      (node (ref U1) (pin 52))
      (node (ref U10) (pin 60))
      (node (ref U10) (pin 52))
      (node (ref C23) (pin 2))
      (node (ref J8) (pin 4))
      (node (ref D6) (pin 1))
      (node (ref D5) (pin 1)))
    (net (code 50) (name /PDI_CLK)
      (node (ref R1) (pin 2))
      (node (ref CON1) (pin 5))
      (node (ref U1) (pin 57))
      (node (ref R16) (pin 1)))
    (net (code 51) (name /PDI_CLK_2)
      (node (ref U10) (pin 57))
      (node (ref R12) (pin 2))
      (node (ref R17) (pin 1))
      (node (ref CON2) (pin 5)))
    (net (code 52) (name "Net-(D5-Pad2)")
      (node (ref R10) (pin 2))
      (node (ref D5) (pin 2)))
    (net (code 53) (name /GPS_EN)
      (node (ref U10) (pin 27))
      (node (ref J11) (pin 4)))
    (net (code 54) (name "Net-(D6-Pad2)")
      (node (ref R11) (pin 2))
      (node (ref D6) (pin 2)))
    (net (code 55) (name /GPS_RX)
      (node (ref J11) (pin 2))
      (node (ref U10) (pin 29)))
    (net (code 56) (name "Net-(U1-Pad46)")
      (node (ref U1) (pin 46)))
    (net (code 57) (name "Net-(U1-Pad17)")
      (node (ref U1) (pin 17)))
    (net (code 58) (name "Net-(U1-Pad37)")
      (node (ref U1) (pin 37)))
    (net (code 59) (name "Net-(U1-Pad47)")
      (node (ref U1) (pin 47)))
    (net (code 60) (name "Net-(U1-Pad48)")
      (node (ref U1) (pin 48)))
    (net (code 61) (name "Net-(U1-Pad49)")
      (node (ref U1) (pin 49)))
    (net (code 62) (name "Net-(C15-Pad1)")
      (node (ref U1) (pin 58))
      (node (ref X1) (pin 1))
      (node (ref C15) (pin 1)))
    (net (code 63) (name "Net-(C16-Pad1)")
      (node (ref C16) (pin 1))
      (node (ref X1) (pin 2))
      (node (ref U1) (pin 59)))
    (net (code 64) (name "Net-(U1-Pad36)")
      (node (ref U1) (pin 36)))
    (net (code 65) (name "Net-(CON1-Pad4)")
      (node (ref CON1) (pin 4)))
    (net (code 66) (name "Net-(CON1-Pad3)")
      (node (ref CON1) (pin 3)))
    (net (code 67) (name "Net-(U1-Pad4)")
      (node (ref U1) (pin 4)))
    (net (code 68) (name "Net-(U1-Pad5)")
      (node (ref U1) (pin 5)))
    (net (code 69) (name "Net-(U1-Pad6)")
      (node (ref U1) (pin 6)))
    (net (code 70) (name "Net-(U1-Pad7)")
      (node (ref U1) (pin 7)))
    (net (code 71) (name "Net-(U1-Pad8)")
      (node (ref U1) (pin 8)))
    (net (code 72) (name "Net-(U1-Pad13)")
      (node (ref U1) (pin 13)))
    (net (code 73) (name "Net-(U1-Pad23)")
      (node (ref U1) (pin 23)))
    (net (code 74) (name "Net-(U1-Pad33)")
      (node (ref U1) (pin 33)))
    (net (code 75) (name "Net-(U1-Pad63)")
      (node (ref U1) (pin 63)))
    (net (code 76) (name "Net-(U1-Pad62)")
      (node (ref U1) (pin 62)))
    (net (code 77) (name "Net-(U1-Pad54)")
      (node (ref U1) (pin 54)))
    (net (code 78) (name "Net-(U1-Pad64)")
      (node (ref U1) (pin 64)))
    (net (code 79) (name "Net-(U1-Pad55)")
      (node (ref U1) (pin 55)))
    (net (code 80) (name "Net-(U1-Pad16)")
      (node (ref U1) (pin 16)))
    (net (code 81) (name "Net-(U1-Pad26)")
      (node (ref U1) (pin 26)))
    (net (code 82) (name "Net-(U1-Pad31)")
      (node (ref U1) (pin 31)))
    (net (code 83) (name "Net-(U1-Pad9)")
      (node (ref U1) (pin 9)))
    (net (code 84) (name "Net-(U1-Pad10)")
      (node (ref U1) (pin 10)))
    (net (code 85) (name "Net-(U1-Pad20)")
      (node (ref U1) (pin 20)))
    (net (code 86) (name "Net-(U1-Pad30)")
      (node (ref U1) (pin 30)))
    (net (code 87) (name "Net-(U1-Pad50)")
      (node (ref U1) (pin 50)))
    (net (code 88) (name "Net-(U1-Pad11)")
      (node (ref U1) (pin 11)))
    (net (code 89) (name "Net-(U1-Pad21)")
      (node (ref U1) (pin 21)))
    (net (code 90) (name "Net-(U10-Pad43)")
      (node (ref U10) (pin 43)))
    (net (code 91) (name "Net-(U1-Pad51)")
      (node (ref U1) (pin 51)))
    (net (code 92) (name "Net-(U1-Pad12)")
      (node (ref U1) (pin 12)))
    (net (code 93) (name "Net-(U1-Pad22)")
      (node (ref U1) (pin 22)))
    (net (code 94) (name "Net-(U1-Pad32)")
      (node (ref U1) (pin 32)))
    (net (code 95) (name /TX_XMega1->RX_XMega2)
      (node (ref U10) (pin 38))
      (node (ref U1) (pin 19)))
    (net (code 96) (name /RX_XMega1->TX_XMega2)
      (node (ref U1) (pin 18))
      (node (ref U10) (pin 39)))
    (net (code 97) (name "Net-(U10-Pad40)")
      (node (ref U10) (pin 40)))
    (net (code 98) (name "Net-(U10-Pad50)")
      (node (ref U10) (pin 50)))
    (net (code 99) (name "Net-(U10-Pad11)")
      (node (ref U10) (pin 11)))
    (net (code 100) (name "Net-(U10-Pad31)")
      (node (ref U10) (pin 31)))
    (net (code 101) (name "Net-(U10-Pad41)")
      (node (ref U10) (pin 41)))
    (net (code 102) (name "Net-(U10-Pad51)")
      (node (ref U10) (pin 51)))
    (net (code 103) (name "Net-(U10-Pad30)")
      (node (ref U10) (pin 30)))
    (net (code 104) (name "Net-(U10-Pad32)")
      (node (ref U10) (pin 32)))
    (net (code 105) (name "Net-(U10-Pad42)")
      (node (ref U10) (pin 42)))
    (net (code 106) (name "Net-(U10-Pad33)")
      (node (ref U10) (pin 33)))
    (net (code 107) (name "Net-(U10-Pad3)")
      (node (ref U10) (pin 3)))
    (net (code 108) (name "Net-(U10-Pad1)")
      (node (ref U10) (pin 1)))
    (net (code 109) (name "Net-(U10-Pad2)")
      (node (ref U10) (pin 2)))
    (net (code 110) (name "Net-(U10-Pad4)")
      (node (ref U10) (pin 4)))
    (net (code 111) (name "Net-(U10-Pad5)")
      (node (ref U10) (pin 5)))
    (net (code 112) (name "Net-(U10-Pad7)")
      (node (ref U10) (pin 7)))
    (net (code 113) (name "Net-(CON2-Pad4)")
      (node (ref CON2) (pin 4)))
    (net (code 114) (name "Net-(CON2-Pad3)")
      (node (ref CON2) (pin 3)))
    (net (code 115) (name /B-)
      (node (ref R3) (pin 1))
      (node (ref U2) (pin 7))
      (node (ref U5) (pin 7))
      (node (ref U3) (pin 7))
      (node (ref U4) (pin 7))
      (node (ref U8) (pin 7))
      (node (ref R4) (pin 1))
      (node (ref R5) (pin 1))
      (node (ref U6) (pin 7))
      (node (ref U7) (pin 7)))
    (net (code 116) (name /A+)
      (node (ref R4) (pin 2))
      (node (ref R5) (pin 2))
      (node (ref U5) (pin 6))
      (node (ref U6) (pin 6))
      (node (ref U3) (pin 6))
      (node (ref U4) (pin 6))
      (node (ref U7) (pin 6))
      (node (ref U8) (pin 6))
      (node (ref R2) (pin 2))
      (node (ref U2) (pin 6)))
    (net (code 117) (name "Net-(C19-Pad1)")
      (node (ref C19) (pin 1))
      (node (ref U10) (pin 58))
      (node (ref X2) (pin 1)))
    (net (code 118) (name "Net-(C20-Pad1)")
      (node (ref U10) (pin 59))
      (node (ref C20) (pin 1))
      (node (ref X2) (pin 2)))
    (net (code 119) (name /RS-485/EN_02)
      (node (ref J5) (pin 2))
      (node (ref U5) (pin 2))
      (node (ref U5) (pin 3)))
    (net (code 120) (name /RS-485/TX_05)
      (node (ref J2) (pin 3))
      (node (ref U8) (pin 4)))
    (net (code 121) (name /RS-485/RX_05)
      (node (ref J2) (pin 1))
      (node (ref U8) (pin 1)))
    (net (code 122) (name /RS-485/TX_04)
      (node (ref U7) (pin 4))
      (node (ref J3) (pin 3)))
    (net (code 123) (name /RS-485/RX_04)
      (node (ref J3) (pin 1))
      (node (ref U7) (pin 1)))
    (net (code 124) (name /RS-485/TX_01)
      (node (ref J7) (pin 3))
      (node (ref U4) (pin 4)))
    (net (code 125) (name /RS-485/RX_01)
      (node (ref J7) (pin 1))
      (node (ref U4) (pin 1)))
    (net (code 126) (name /RS-485/TX_00)
      (node (ref J6) (pin 3))
      (node (ref U3) (pin 4)))
    (net (code 127) (name /RS-485/RX_00)
      (node (ref U3) (pin 1))
      (node (ref J6) (pin 1)))
    (net (code 128) (name /RS-485/TX_03)
      (node (ref J4) (pin 3))
      (node (ref U6) (pin 4)))
    (net (code 129) (name /RS-485/RX_03)
      (node (ref J4) (pin 1))
      (node (ref U6) (pin 1)))
    (net (code 130) (name /RS-485/TX_02)
      (node (ref J5) (pin 3))
      (node (ref U5) (pin 4)))
    (net (code 131) (name /RS-485/RX_02)
      (node (ref J5) (pin 1))
      (node (ref U5) (pin 1)))
    (net (code 132) (name /RS-485/EN_05)
      (node (ref U8) (pin 3))
      (node (ref U8) (pin 2))
      (node (ref J2) (pin 2)))
    (net (code 133) (name /RS-485/EN_04)
      (node (ref U7) (pin 2))
      (node (ref J3) (pin 2))
      (node (ref U7) (pin 3)))
    (net (code 134) (name /RS-485/EN_01)
      (node (ref J7) (pin 2))
      (node (ref U4) (pin 2))
      (node (ref U4) (pin 3)))
    (net (code 135) (name /RS-485/EN_03)
      (node (ref J4) (pin 2))
      (node (ref U6) (pin 3))
      (node (ref U6) (pin 2)))
    (net (code 136) (name /RS-485/EN_00)
      (node (ref U3) (pin 2))
      (node (ref J6) (pin 2))
      (node (ref U3) (pin 3)))))