(module ACDC-Conv_Vigortronix_VTX-214-010-XXX (layer F.Cu) (tedit 59DA6DD7)
  (descr "Vigortronix VTX-214-010-XXX serie of ACDC converter, http://www.vigortronix.com/10WattACDCPCBPowerModule.aspx")
  (tags "Vigortronix VTX-214-010-XXX serie of ACDC converter")
  (fp_text reference REF** (at -10 -5.5) (layer F.SilkS)
    (effects (font (size 1 1) (thickness 0.15)))
  )
  (fp_text value ACDC-Conv_Vigortronix_VTX-214-010-XXX (at 6 54) (layer F.Fab)
    (effects (font (size 1 1) (thickness 0.15)))
  )
  (fp_line (start -12 -4) (end -1 -4) (layer F.Fab) (width 0.1))
  (fp_line (start -1 -4) (end 0 -3) (layer F.Fab) (width 0.1))
  (fp_line (start 0 -3) (end 1 -4) (layer F.Fab) (width 0.1))
  (fp_line (start 1 -4) (end 24 -4) (layer F.Fab) (width 0.1))
  (fp_line (start 24 -4) (end 24 52) (layer F.Fab) (width 0.1))
  (fp_line (start 24 52) (end -12 52) (layer F.Fab) (width 0.1))
  (fp_line (start -12 52) (end -12 -4) (layer F.Fab) (width 0.1))
  (fp_line (start -12.12 -4.12) (end 24.12 -4.12) (layer F.SilkS) (width 0.12))
  (fp_line (start 24.12 -4.12) (end 24.12 52.12) (layer F.SilkS) (width 0.12))
  (fp_line (start 24.12 52.12) (end -12.12 52.12) (layer F.SilkS) (width 0.12))
  (fp_line (start -12.12 52.12) (end -12.12 -4.12) (layer F.SilkS) (width 0.12))
  (fp_line (start -12.25 -4.25) (end 24.25 -4.25) (layer F.CrtYd) (width 0.05))
  (fp_line (start 24.25 -4.25) (end 24.25 52.25) (layer F.CrtYd) (width 0.05))
  (fp_line (start 24.25 52.25) (end -12.25 52.25) (layer F.CrtYd) (width 0.05))
  (fp_line (start -12.25 52.25) (end -12.25 -4.25) (layer F.CrtYd) (width 0.05))
  (fp_text user %R (at 5.75 24) (layer F.Fab)
    (effects (font (size 1 1) (thickness 0.15)))
  )
  (pad 1 thru_hole rect (at 0 0) (size 3 3) (drill 1.5) (layers *.Cu *.Mask))
  (pad 2 thru_hole circle (at 12 0) (size 3 3) (drill 1.5) (layers *.Cu *.Mask))
  (pad 3 thru_hole circle (at 0 48) (size 3 3) (drill 1.5) (layers *.Cu *.Mask))
  (pad 4 thru_hole circle (at 5 48) (size 3 3) (drill 1.5) (layers *.Cu *.Mask))
  (model ${KISYS3DMOD}/Converters_DCDC_ACDC.3dshapes/ACDC-Conv_Vigortronix_VTX-214-010-XXX.wrl
    (at (xyz 0 0 0))
    (scale (xyz 1 1 1))
    (rotate (xyz 0 0 0))
  )
)
